lab4-lwsw/gtkwave.vcd
$version Generated by VerilatedVcd $end
$date Fri Sep 23 11:17:17 2022
 $end
$timescale   1ns $end

 $scope module TOP $end
  $var wire  1 /& clock $end
  $var wire  1 7& reset $end
  $scope module testbench $end
   $var wire 32 ?& MEM_ADDR_WIDTH [31:0] $end
   $var wire  1 /& clock $end
   $var wire 32 + cycles [31:0] $end
   $var wire 32 _" imem_addr [31:0] $end
   $var wire 32 # imem_data [31:0] $end
   $var wire 32 G& out [31:0] $end
   $var wire  1 O& out_valid $end
   $var wire  1 7& reset $end
   $var wire  1 W" trap $end
   $var wire 32 g" x10 [31:0] $end
   $scope module dut $end
    $var wire  1 _& alu_eq $end
    $var wire  1 /" alu_eq_zero $end
    $var wire  5 e! alu_op [4:0] $end
    $var wire 32 M! alu_op_a [31:0] $end
    $var wire 32 M! alu_op_a_signed [31:0] $end
    $var wire 32 U! alu_op_b [31:0] $end
    $var wire 32 U! alu_op_b_signed [31:0] $end
    $var wire 32 7" alu_result [31:0] $end
    $var wire  1 /& clock $end
    $var wire  7 A# d_opcode [6:0] $end
    $var wire  5 o" d_rd [4:0] $end
    $var wire 32 w" d_x0 [31:0] $end
    $var wire 32 !# d_x1 [31:0] $end
    $var wire 32 )# d_x2 [31:0] $end
    $var wire 32 1# d_x3 [31:0] $end
    $var wire 32 9# d_x4 [31:0] $end
    $var wire 32 }! dmem_rd_addr [31:0] $end
    $var wire 32 '" dmem_rd_data [31:0] $end
    $var wire 32 m! dmem_wr_addr [31:0] $end
    $var wire 32 u! dmem_wr_data [31:0] $end
    $var wire  1 W& dmem_wr_enable $end
    $var wire  1 ]! illegalinsn $end
    $var wire 32 _" imem_addr [31:0] $end
    $var wire 32 # imem_data [31:0] $end
    $var wire 13 -! imm_b [12:0] $end
    $var wire 32 =! imm_b_sext [31:0] $end
    $var wire 12 c imm_i [11:0] $end
    $var wire 32 k imm_i_sext [31:0] $end
    $var wire 21 5! imm_j [20:0] $end
    $var wire 32 E! imm_j_sext [31:0] $end
    $var wire 32 %! imm_s_sext [31:0] $end
    $var wire 32 s imm_shift [31:0] $end
    $var wire 32 { imm_val [31:0] $end
    $var wire 32 # insn [31:0] $end
    $var wire  3 K insn_funct3 [2:0] $end
    $var wire  7 3 insn_funct7 [6:0] $end
    $var wire  7 [ insn_opcode [6:0] $end
    $var wire  5 S insn_rd [4:0] $end
    $var wire  5 C insn_rs1 [4:0] $end
    $var wire  5 ; insn_rs2 [4:0] $end
    $var wire 32 G" npc [31:0] $end
    $var wire 32 _" pc [31:0] $end
    $var wire 32 I# regfile(0) [31:0] $end
    $var wire 32 J# regfile(1) [31:0] $end
    $var wire 32 S# regfile(10) [31:0] $end
    $var wire 32 T# regfile(11) [31:0] $end
    $var wire 32 U# regfile(12) [31:0] $end
    $var wire 32 V# regfile(13) [31:0] $end
    $var wire 32 W# regfile(14) [31:0] $end
    $var wire 32 X# regfile(15) [31:0] $end
    $var wire 32 Y# regfile(16) [31:0] $end
    $var wire 32 Z# regfile(17) [31:0] $end
    $var wire 32 [# regfile(18) [31:0] $end
    $var wire 32 \# regfile(19) [31:0] $end
    $var wire 32 K# regfile(2) [31:0] $end
    $var wire 32 ]# regfile(20) [31:0] $end
    $var wire 32 ^# regfile(21) [31:0] $end
    $var wire 32 _# regfile(22) [31:0] $end
    $var wire 32 `# regfile(23) [31:0] $end
    $var wire 32 a# regfile(24) [31:0] $end
    $var wire 32 b# regfile(25) [31:0] $end
    $var wire 32 c# regfile(26) [31:0] $end
    $var wire 32 d# regfile(27) [31:0] $end
    $var wire 32 e# regfile(28) [31:0] $end
    $var wire 32 f# regfile(29) [31:0] $end
    $var wire 32 L# regfile(3) [31:0] $end
    $var wire 32 g# regfile(30) [31:0] $end
    $var wire 32 h# regfile(31) [31:0] $end
    $var wire 32 M# regfile(4) [31:0] $end
    $var wire 32 N# regfile(5) [31:0] $end
    $var wire 32 O# regfile(6) [31:0] $end
    $var wire 32 P# regfile(7) [31:0] $end
    $var wire 32 Q# regfile(8) [31:0] $end
    $var wire 32 R# regfile(9) [31:0] $end
    $var wire  1 ?" regwrite $end
    $var wire  1 7& reset $end
    $var wire 32 O" rfilewdata [31:0] $end
    $var wire  1 W" trap $end
    $var wire  1 W" trapped $end
    $var wire 32 g" x10 [31:0] $end
    $scope module alu_1 $end
     $var wire  5 e! alu_function [4:0] $end
     $var wire 32 M! op_a [31:0] $end
     $var wire 32 M! op_a_signed [31:0] $end
     $var wire 32 U! op_b [31:0] $end
     $var wire 32 U! op_b_signed [31:0] $end
     $var wire 32 7" result [31:0] $end
     $var wire  1 /" result_eq_zero $end
    $upscope $end
   $upscope $end
  $upscope $end
 $upscope $end
$enddefinitions $end


#5
b00010000000000000000000100010011 #
b00000000000000000000000000000000 +
b0001000 3
b00000 ;
b00000 C
b000 K
b00010 S
b0010011 [
b000100000000 c
b00000000000000000000000100000000 k
b00000000000000000000000000000000 s
b00000000000000000000000100000000 {
b00000000000000000000000100000010 %!
b0000100000010 -!
b000000000000100000000 5!
b00000000000000000000000100000010 =!
b00000000000000000000000100000000 E!
b00000000000000000000000000000000 M!
b00000000000000000000000100000000 U!
0]!
b00001 e!
b00000000000000000000000000000000 m!
b00000000000000000000000000000000 u!
b00000000000000000000000000000000 }!
b00000000000000000000000000000000 '"
0/"
b00000000000000000000000100000000 7"
1?"
b00000000000000000000000000000100 G"
b00000000000000000000000100000000 O"
0W"
b00000000000000000000000000000000 _"
b00000000000000000000000000000000 g"
b00000 o"
b00000000000000000000000000000000 w"
b00000000000000000000000000000000 !#
b00000000000000000000000000000000 )#
b00000000000000000000000000000000 1#
b00000000000000000000000000000000 9#
b0000000 A#
b00000000000000000000000000000000 I#
b00000000000000000000000000000000 J#
b00000000000000000000000000000000 K#
b00000000000000000000000000000000 L#
b00000000000000000000000000000000 M#
b00000000000000000000000000000000 N#
b00000000000000000000000000000000 O#
b00000000000000000000000000000000 P#
b00000000000000000000000000000000 Q#
b00000000000000000000000000000000 R#
b00000000000000000000000000000000 S#
b00000000000000000000000000000000 T#
b00000000000000000000000000000000 U#
b00000000000000000000000000000000 V#
b00000000000000000000000000000000 W#
b00000000000000000000000000000000 X#
b00000000000000000000000000000000 Y#
b00000000000000000000000000000000 Z#
b00000000000000000000000000000000 [#
b00000000000000000000000000000000 \#
b00000000000000000000000000000000 ]#
b00000000000000000000000000000000 ^#
b00000000000000000000000000000000 _#
b00000000000000000000000000000000 `#
b00000000000000000000000000000000 a#
b00000000000000000000000000000000 b#
b00000000000000000000000000000000 c#
b00000000000000000000000000000000 d#
b00000000000000000000000000000000 e#
b00000000000000000000000000000000 f#
b00000000000000000000000000000000 g#
b00000000000000000000000000000000 h#
0/&
07&
b00000000000000000000000000010000 ?&
b00000000000000000000000000000000 G&
0O&
0W&
0_&
#10
#15
17&
#20
#25
b00000000000000000000000000000001 +
b00010 o"
b0010011 A#
1/&
#30
#35
0/&
#40
#45
b00000000000000000000000000000010 +
1/&
#50
#55
0/&
07&
#60
#65
b00000000101000000000010100010011 #
b00000000000000000000000000000011 +
b0000000 3
b01010 ;
b01010 S
b000000001010 c
b00000000000000000000000000001010 k
b00000000000000000000000000001010 s
b00000000000000000000000000001010 {
b00000000000000000000000000001010 %!
b0000000001010 -!
b000000000000000001010 5!
b00000000000000000000000000001010 =!
b00000000000000000000000000001010 E!
b00000000000000000000000000001010 U!
b00000000000000000000000000001010 7"
b00000000000000000000000000001000 G"
b00000000000000000000000000001010 O"
b00000000000000000000000000000100 _"
b00000000000000000000000100000000 K#
1/&
#70
#75
0/&
#80
#85
b00000000100000000000000011101111 #
b00000000000000000000000000000100 +
b01000 ;
b00001 S
b1101111 [
b000000001000 c
b00000000000000000000000000001000 k
b00000000000000000000000000001000 s
b00000000000000000000000000001000 {
b00000000000000000000000000000001 %!
b0100000000000 -!
b000000000000000001000 5!
b00000000000000000000100000000000 =!
b00000000000000000000000000001000 E!
b00000000000000000000000000000000 U!
1/"
b00000000000000000000000000000000 7"
b00000000000000000000000000010000 G"
b00000000000000000000000000001100 O"
b00000000000000000000000000001000 _"
b01010 o"
b00000000000000000000000100000000 )#
b00000000000000000000000000001010 S#
1/&
#90
#95
0/&
#100
#105
b11111111000000010000000100010011 #
b00000000000000000000000000000101 +
b1111111 3
b10000 ;
b00010 C
b00010 S
b0010011 [
b111111110000 c
b11111111111111111111111111110000 k
b00000000000000000000000000010000 s
b11111111111111111111111111110000 {
b00000000000000000000111111100010 %!
b1011111100010 -!
b100010000011111110000 5!
b11111111111111111111011111100010 =!
b11111111111100010000011111110000 E!
b00000000000000000000000100000000 M!
b11111111111111111111111111110000 U!
0/"
b00000000000000000000000011110000 7"
b00000000000000000000000000010100 G"
b00000000000000000000000011110000 O"
b00000000000000000000000000010000 _"
b00000000000000000000000000001010 g"
b00001 o"
b1101111 A#
b00000000000000000000000000001100 J#
1/&
#110
#115
0/&
#120
#125
b00000000100000010010010000100011 #
b00000000000000000000000000000110 +
b0000000 3
b01000 ;
b010 K
b01000 S
b0100011 [
b000000001000 c
b00000000000000000000000000001000 k
b00000000000000000000000000001000 s
b00000000000000000000000000001000 {
b00000000000000000000000000001000 %!
b0000000001000 -!
b000010010000000001000 5!
b00000000000000000000000000001000 =!
b00000000000000010010000000001000 E!
b00000000000000000000000011110000 M!
b00000000000000000000000000000000 U!
b00000000000000000000000011111000 m!
0?"
b00000000000000000000000000011000 G"
b00000000000000000000000000010100 _"
b00010 o"
b00000000000000000000000000001100 !#
b0010011 A#
b00000000000000000000000011110000 K#
1/&
#130
#135
0/&
#140
#145
b00000000100100010010001000100011 #
b00000000000000000000000000000111 +
b01001 ;
b00100 S
b000000001001 c
b00000000000000000000000000001001 k
b00000000000000000000000000001001 s
b00000000000000000000000000001001 {
b00000000000000000000000000000100 %!
b0000000000100 -!
b000010010100000001000 5!
b00000000000000000000000000000100 =!
b00000000000000010010100000001000 E!
b00000000000000000000000011110100 m!
b00000000000000000000000000011100 G"
b00000000000000000000000000011000 _"
b01000 o"
b00000000000000000000000011110000 )#
b0100011 A#
1/&
#150
#155
0/&
#160
#165
b00000001001000010010000000100011 #
b00000000000000000000000000001000 +
b10010 ;
b00000 S
b000000010010 c
b00000000000000000000000000010010 k
b00000000000000000000000000010010 s
b00000000000000000000000000010010 {
b00000000000000000000000000000000 %!
b0000000000000 -!
b000010010000000010010 5!
b00000000000000000000000000000000 =!
b00000000000000010010000000010010 E!
b00000000000000000000000011110000 m!
b00000000000000000000000000100000 G"
b00000000000000000000000000011100 _"
b00100 o"
1/&
#170
#175
0/&
#180
#185
b00000000000100010010011000100011 #
b00000000000000000000000000001001 +
b00001 ;
b01100 S
b000000000001 c
b00000000000000000000000000000001 k
b00000000000000000000000000000001 s
b00000000000000000000000000000001 {
b00000000000000000000000000001100 %!
b0000000001100 -!
b000010010100000000000 5!
b00000000000000000000000000001100 =!
b00000000000000010010100000000000 E!
b00000000000000000000000000001100 U!
b00000000000000000000000011111100 m!
b00000000000000000000000000001100 u!
b00000000000000000000000011111100 7"
b00000000000000000000000000100100 G"
b00000000000000000000000011111100 O"
b00000000000000000000000000100000 _"
b00000 o"
1/&
#190
#195
0/&
#200
#205
b00000000000001010000010000010011 #
b00000000000000000000000000001010 +
b00000 ;
b01010 C
b000 K
b01000 S
b0010011 [
b000000000000 c
b00000000000000000000000000000000 k
b00000000000000000000000000000000 s
b00000000000000000000000000000000 {
b00000000000000000000000000001000 %!
b0000000001000 -!
b001010000000000000000 5!
b00000000000000000000000000001000 =!
b00000000000001010000000000000000 E!
b00000000000000000000000000001010 M!
b00000000000000000000000000000000 U!
b00000000000000000000000000001010 7"
1?"
b00000000000000000000000000101000 G"
b00000000000000000000000000001010 O"
b00000000000000000000000000100100 _"
b01100 o"
1/&
#210
#215
0/&
#220
#225
b00000000000000000000010010010011 #
b00000000000000000000000000001011 +
b00000 C
b01001 S
b00000000000000000000000000001001 %!
b0100000001000 -!
b000000000000000000000 5!
b00000000000000000000100000001000 =!
b00000000000000000000000000000000 E!
b00000000000000000000000000000000 M!
1/"
b00000000000000000000000000000000 7"
b00000000000000000000000000101100 G"
b00000000000000000000000000000000 O"
b00000000000000000000000000101000 _"
b01000 o"
b0010011 A#
b00000000000000000000000000001010 Q#
1/&
#230
#235
0/&
#240
#245
b00000000000100000000100100010011 #
b00000000000000000000000000001100 +
b00001 ;
b10010 S
b000000000001 c
b00000000000000000000000000000001 k
b00000000000000000000000000000001 s
b00000000000000000000000000000001 {
b00000000000000000000000000010010 %!
b0000000010010 -!
b000000000100000000000 5!
b00000000000000000000000000010010 =!
b00000000000000000000100000000000 E!
b00000000000000000000000000000001 U!
0/"
b00000000000000000000000000000001 7"
b00000000000000000000000000110000 G"
b00000000000000000000000000000001 O"
b00000000000000000000000000101100 _"
b01001 o"
1/&
#250
#255
0/&
#260
#265
b00000000100000000000111001100011 #
b00000000000000000000000000001101 +
b01000 ;
b11100 S
b1100011 [
b000000001000 c
b00000000000000000000000000001000 k
b00000000000000000000000000001000 s
b00000000000000000000000000001000 {
b00000000000000000000000000011100 %!
b0000000011100 -!
b000000000000000001000 5!
b00000000000000000000000000011100 =!
b00000000000000000000000000001000 E!
b00000000000000000000000000001010 U!
b00010 e!
b11111111111111111111111111110110 7"
0?"
b00000000000000000000000000110100 G"
b11111111111111111111111111110110 O"
b00000000000000000000000000110000 _"
b10010 o"
b00000000000000000000000000000001 [#
1/&
#270
#275
0/&
#280
#285
b00000001001001000000110001100011 #
b00000000000000000000000000001110 +
b10010 ;
b01000 C
b11000 S
b000000010010 c
b00000000000000000000000000010010 k
b00000000000000000000000000010010 s
b00000000000000000000000000010010 {
b00000000000000000000000000011000 %!
b0000000011000 -!
b001000000000000010010 5!
b00000000000000000000000000011000 =!
b00000000000001000000000000010010 E!
b00000000000000000000000000001010 M!
b00000000000000000000000000000001 U!
b00000000000000000000000000001001 7"
b00000000000000000000000000111000 G"
b00000000000000000000000000001001 O"
b00000000000000000000000000110100 _"
b11100 o"
b1100011 A#
1/&
#290
#295
0/&
#300
#305
b11111111111101000000010100010011 #
b00000000000000000000000000001111 +
b1111111 3
b11111 ;
b01010 S
b0010011 [
b111111111111 c
b11111111111111111111111111111111 k
b00000000000000000000000000011111 s
b11111111111111111111111111111111 {
b00000000000000000000111111101010 %!
b1011111101010 -!
b101000000111111111110 5!
b11111111111111111111011111101010 =!
b11111111111101000000111111111110 E!
b11111111111111111111111111111111 U!
b00001 e!
1?"
b00000000000000000000000000111100 G"
b00000000000000000000000000111000 _"
b11000 o"
1/&
#310
#315
0/&
#320
#325
b11111101010111111111000011101111 #
b00000000000000000000000000010000 +
b1111110 3
b10101 ;
b11111 C
b111 K
b00001 S
b1101111 [
b111111010101 c
b11111111111111111111111111010101 k
b00000000000000000000000000010101 s
b11111111111111111111111111010101 {
b00000000000000000000111111000001 %!
b1111111000000 -!
b111111111111111010100 5!
b11111111111111111111111111000000 =!
b11111111111111111111111111010100 E!
b00000000000000000000000000000000 M!
b00000000000000000000000000000000 U!
1/"
b00000000000000000000000000000000 7"
b00000000000000000000000000010000 G"
b00000000000000000000000001000000 O"
b00000000000000000000000000111100 _"
b01010 o"
b0010011 A#
b00000000000000000000000000001001 S#
1/&
#330
#335
0/&
#340
#345
b11111111000000010000000100010011 #
b00000000000000000000000000010001 +
b1111111 3
b10000 ;
b00010 C
b000 K
b00010 S
b0010011 [
b111111110000 c
b11111111111111111111111111110000 k
b00000000000000000000000000010000 s
b11111111111111111111111111110000 {
b00000000000000000000111111100010 %!
b1011111100010 -!
b100010000011111110000 5!
b11111111111111111111011111100010 =!
b11111111111100010000011111110000 E!
b00000000000000000000000011110000 M!
b11111111111111111111111111110000 U!
0/"
b00000000000000000000000011100000 7"
b00000000000000000000000000010100 G"
b00000000000000000000000011100000 O"
b00000000000000000000000000010000 _"
b00000000000000000000000000001001 g"
b00001 o"
b1101111 A#
b00000000000000000000000001000000 J#
1/&
#350
#355
0/&
#360
#365
b00000000100000010010010000100011 #
b00000000000000000000000000010010 +
b0000000 3
b01000 ;
b010 K
b01000 S
b0100011 [
b000000001000 c
b00000000000000000000000000001000 k
b00000000000000000000000000001000 s
b00000000000000000000000000001000 {
b00000000000000000000000000001000 %!
b0000000001000 -!
b000010010000000001000 5!
b00000000000000000000000000001000 =!
b00000000000000010010000000001000 E!
b00000000000000000000000011100000 M!
b00000000000000000000000000001010 U!
b00000000000000000000000011101000 m!
b00000000000000000000000000001010 u!
b00000000000000000000000011101010 7"
0?"
b00000000000000000000000000011000 G"
b00000000000000000000000011101010 O"
b00000000000000000000000000010100 _"
b00010 o"
b00000000000000000000000001000000 !#
b0010011 A#
b00000000000000000000000011100000 K#
1/&
#370
#375
0/&
#380
#385
b00000000100100010010001000100011 #
b00000000000000000000000000010011 +
b01001 ;
b00100 S
b000000001001 c
b00000000000000000000000000001001 k
b00000000000000000000000000001001 s
b00000000000000000000000000001001 {
b00000000000000000000000000000100 %!
b0000000000100 -!
b000010010100000001000 5!
b00000000000000000000000000000100 =!
b00000000000000010010100000001000 E!
b00000000000000000000000000000000 U!
b00000000000000000000000011100100 m!
b00000000000000000000000000000000 u!
b00000000000000000000000011100000 7"
b00000000000000000000000000011100 G"
b00000000000000000000000011100000 O"
b00000000000000000000000000011000 _"
b01000 o"
b00000000000000000000000011100000 )#
b0100011 A#
1/&
#390
#395
0/&
#400
#405
b00000001001000010010000000100011 #
b00000000000000000000000000010100 +
b10010 ;
b00000 S
b000000010010 c
b00000000000000000000000000010010 k
b00000000000000000000000000010010 s
b00000000000000000000000000010010 {
b00000000000000000000000000000000 %!
b0000000000000 -!
b000010010000000010010 5!
b00000000000000000000000000000000 =!
b00000000000000010010000000010010 E!
b00000000000000000000000000000001 U!
b00000000000000000000000011100000 m!
b00000000000000000000000000000001 u!
b00000000000000000000000011100001 7"
b00000000000000000000000000100000 G"
b00000000000000000000000011100001 O"
b00000000000000000000000000011100 _"
b00100 o"
1/&
#410
#415
0/&
#420
#425
b00000000000100010010011000100011 #
b00000000000000000000000000010101 +
b00001 ;
b01100 S
b000000000001 c
b00000000000000000000000000000001 k
b00000000000000000000000000000001 s
b00000000000000000000000000000001 {
b00000000000000000000000000001100 %!
b0000000001100 -!
b000010010100000000000 5!
b00000000000000000000000000001100 =!
b00000000000000010010100000000000 E!
b00000000000000000000000001000000 U!
b00000000000000000000000011101100 m!
b00000000000000000000000001000000 u!
b00000000000000000000000100100000 7"
b00000000000000000000000000100100 G"
b00000000000000000000000100100000 O"
b00000000000000000000000000100000 _"
b00000 o"
1/&
#430
#435
0/&
#440
#445
b00000000000001010000010000010011 #
b00000000000000000000000000010110 +
b00000 ;
b01010 C
b000 K
b01000 S
b0010011 [
b000000000000 c
b00000000000000000000000000000000 k
b00000000000000000000000000000000 s
b00000000000000000000000000000000 {
b00000000000000000000000000001000 %!
b0000000001000 -!
b001010000000000000000 5!
b00000000000000000000000000001000 =!
b00000000000001010000000000000000 E!
b00000000000000000000000000001001 M!
b00000000000000000000000000000000 U!
b00000000000000000000000000001001 7"
1?"
b00000000000000000000000000101000 G"
b00000000000000000000000000001001 O"
b00000000000000000000000000100100 _"
b01100 o"
1/&
#450
#455
0/&
#460
#465
b00000000000000000000010010010011 #
b00000000000000000000000000010111 +
b00000 C
b01001 S
b00000000000000000000000000001001 %!
b0100000001000 -!
b000000000000000000000 5!
b00000000000000000000100000001000 =!
b00000000000000000000000000000000 E!
b00000000000000000000000000000000 M!
1/"
b00000000000000000000000000000000 7"
b00000000000000000000000000101100 G"
b00000000000000000000000000000000 O"
b00000000000000000000000000101000 _"
b01000 o"
b0010011 A#
b00000000000000000000000000001001 Q#
1/&
#470
#475
0/&
#480
#485
b00000000000100000000100100010011 #
b00000000000000000000000000011000 +
b00001 ;
b10010 S
b000000000001 c
b00000000000000000000000000000001 k
b00000000000000000000000000000001 s
b00000000000000000000000000000001 {
b00000000000000000000000000010010 %!
b0000000010010 -!
b000000000100000000000 5!
b00000000000000000000000000010010 =!
b00000000000000000000100000000000 E!
b00000000000000000000000000000001 U!
0/"
b00000000000000000000000000000001 7"
b00000000000000000000000000110000 G"
b00000000000000000000000000000001 O"
b00000000000000000000000000101100 _"
b01001 o"
1/&
#490
#495
0/&
#500
#505
b00000000100000000000111001100011 #
b00000000000000000000000000011001 +
b01000 ;
b11100 S
b1100011 [
b000000001000 c
b00000000000000000000000000001000 k
b00000000000000000000000000001000 s
b00000000000000000000000000001000 {
b00000000000000000000000000011100 %!
b0000000011100 -!
b000000000000000001000 5!
b00000000000000000000000000011100 =!
b00000000000000000000000000001000 E!
b00000000000000000000000000001001 U!
b00010 e!
b11111111111111111111111111110111 7"
0?"
b00000000000000000000000000110100 G"
b11111111111111111111111111110111 O"
b00000000000000000000000000110000 _"
b10010 o"
1/&
#510
#515
0/&
#520
#525
b00000001001001000000110001100011 #
b00000000000000000000000000011010 +
b10010 ;
b01000 C
b11000 S
b000000010010 c
b00000000000000000000000000010010 k
b00000000000000000000000000010010 s
b00000000000000000000000000010010 {
b00000000000000000000000000011000 %!
b0000000011000 -!
b001000000000000010010 5!
b00000000000000000000000000011000 =!
b00000000000001000000000000010010 E!
b00000000000000000000000000001001 M!
b00000000000000000000000000000001 U!
b00000000000000000000000000001000 7"
b00000000000000000000000000111000 G"
b00000000000000000000000000001000 O"
b00000000000000000000000000110100 _"
b11100 o"
b1100011 A#
1/&
#530
#535
0/&
#540
#545
b11111111111101000000010100010011 #
b00000000000000000000000000011011 +
b1111111 3
b11111 ;
b01010 S
b0010011 [
b111111111111 c
b11111111111111111111111111111111 k
b00000000000000000000000000011111 s
b11111111111111111111111111111111 {
b00000000000000000000111111101010 %!
b1011111101010 -!
b101000000111111111110 5!
b11111111111111111111011111101010 =!
b11111111111101000000111111111110 E!
b11111111111111111111111111111111 U!
b00001 e!
1?"
b00000000000000000000000000111100 G"
b00000000000000000000000000111000 _"
b11000 o"
1/&
#550
#555
0/&
#560
#565
b11111101010111111111000011101111 #
b00000000000000000000000000011100 +
b1111110 3
b10101 ;
b11111 C
b111 K
b00001 S
b1101111 [
b111111010101 c
b11111111111111111111111111010101 k
b00000000000000000000000000010101 s
b11111111111111111111111111010101 {
b00000000000000000000111111000001 %!
b1111111000000 -!
b111111111111111010100 5!
b11111111111111111111111111000000 =!
b11111111111111111111111111010100 E!
b00000000000000000000000000000000 M!
b00000000000000000000000000000000 U!
1/"
b00000000000000000000000000000000 7"
b00000000000000000000000000010000 G"
b00000000000000000000000001000000 O"
b00000000000000000000000000111100 _"
b01010 o"
b0010011 A#
b00000000000000000000000000001000 S#
1/&
#570
#575
0/&
#580
#585
b11111111000000010000000100010011 #
b00000000000000000000000000011101 +
b1111111 3
b10000 ;
b00010 C
b000 K
b00010 S
b0010011 [
b111111110000 c
b11111111111111111111111111110000 k
b00000000000000000000000000010000 s
b11111111111111111111111111110000 {
b00000000000000000000111111100010 %!
b1011111100010 -!
b100010000011111110000 5!
b11111111111111111111011111100010 =!
b11111111111100010000011111110000 E!
b00000000000000000000000011100000 M!
b11111111111111111111111111110000 U!
0/"
b00000000000000000000000011010000 7"
b00000000000000000000000000010100 G"
b00000000000000000000000011010000 O"
b00000000000000000000000000010000 _"
b00000000000000000000000000001000 g"
b00001 o"
b1101111 A#
1/&
#590
#595
0/&
#600
#605
b00000000100000010010010000100011 #
b00000000000000000000000000011110 +
b0000000 3
b01000 ;
b010 K
b01000 S
b0100011 [
b000000001000 c
b00000000000000000000000000001000 k
b00000000000000000000000000001000 s
b00000000000000000000000000001000 {
b00000000000000000000000000001000 %!
b0000000001000 -!
b000010010000000001000 5!
b00000000000000000000000000001000 =!
b00000000000000010010000000001000 E!
b00000000000000000000000011010000 M!
b00000000000000000000000000001001 U!
b00000000000000000000000011011000 m!
b00000000000000000000000000001001 u!
b00000000000000000000000011011001 7"
0?"
b00000000000000000000000000011000 G"
b00000000000000000000000011011001 O"
b00000000000000000000000000010100 _"
b00010 o"
b0010011 A#
b00000000000000000000000011010000 K#
1/&
#610
#615
0/&
#620
#625
b00000000100100010010001000100011 #
b00000000000000000000000000011111 +
b01001 ;
b00100 S
b000000001001 c
b00000000000000000000000000001001 k
b00000000000000000000000000001001 s
b00000000000000000000000000001001 {
b00000000000000000000000000000100 %!
b0000000000100 -!
b000010010100000001000 5!
b00000000000000000000000000000100 =!
b00000000000000010010100000001000 E!
b00000000000000000000000000000000 U!
b00000000000000000000000011010100 m!
b00000000000000000000000000000000 u!
b00000000000000000000000011010000 7"
b00000000000000000000000000011100 G"
b00000000000000000000000011010000 O"
b00000000000000000000000000011000 _"
b01000 o"
b00000000000000000000000011010000 )#
b0100011 A#
1/&
#630
#635
0/&
#640
#645
b00000001001000010010000000100011 #
b00000000000000000000000000100000 +
b10010 ;
b00000 S
b000000010010 c
b00000000000000000000000000010010 k
b00000000000000000000000000010010 s
b00000000000000000000000000010010 {
b00000000000000000000000000000000 %!
b0000000000000 -!
b000010010000000010010 5!
b00000000000000000000000000000000 =!
b00000000000000010010000000010010 E!
b00000000000000000000000000000001 U!
b00000000000000000000000011010000 m!
b00000000000000000000000000000001 u!
b00000000000000000000000011010001 7"
b00000000000000000000000000100000 G"
b00000000000000000000000011010001 O"
b00000000000000000000000000011100 _"
b00100 o"
1/&
#650
#655
0/&
#660
#665
b00000000000100010010011000100011 #
b00000000000000000000000000100001 +
b00001 ;
b01100 S
b000000000001 c
b00000000000000000000000000000001 k
b00000000000000000000000000000001 s
b00000000000000000000000000000001 {
b00000000000000000000000000001100 %!
b0000000001100 -!
b000010010100000000000 5!
b00000000000000000000000000001100 =!
b00000000000000010010100000000000 E!
b00000000000000000000000001000000 U!
b00000000000000000000000011011100 m!
b00000000000000000000000001000000 u!
b00000000000000000000000100010000 7"
b00000000000000000000000000100100 G"
b00000000000000000000000100010000 O"
b00000000000000000000000000100000 _"
b00000 o"
1/&
#670
#675
0/&
#680
#685
b00000000000001010000010000010011 #
b00000000000000000000000000100010 +
b00000 ;
b01010 C
b000 K
b01000 S
b0010011 [
b000000000000 c
b00000000000000000000000000000000 k
b00000000000000000000000000000000 s
b00000000000000000000000000000000 {
b00000000000000000000000000001000 %!
b0000000001000 -!
b001010000000000000000 5!
b00000000000000000000000000001000 =!
b00000000000001010000000000000000 E!
b00000000000000000000000000001000 M!
b00000000000000000000000000000000 U!
b00000000000000000000000000001000 7"
1?"
b00000000000000000000000000101000 G"
b00000000000000000000000000001000 O"
b00000000000000000000000000100100 _"
b01100 o"
1/&
#690
#695
0/&
#700
#705
b00000000000000000000010010010011 #
b00000000000000000000000000100011 +
b00000 C
b01001 S
b00000000000000000000000000001001 %!
b0100000001000 -!
b000000000000000000000 5!
b00000000000000000000100000001000 =!
b00000000000000000000000000000000 E!
b00000000000000000000000000000000 M!
1/"
b00000000000000000000000000000000 7"
b00000000000000000000000000101100 G"
b00000000000000000000000000000000 O"
b00000000000000000000000000101000 _"
b01000 o"
b0010011 A#
b00000000000000000000000000001000 Q#
1/&
#710
#715
0/&
#720
#725
b00000000000100000000100100010011 #
b00000000000000000000000000100100 +
b00001 ;
b10010 S
b000000000001 c
b00000000000000000000000000000001 k
b00000000000000000000000000000001 s
b00000000000000000000000000000001 {
b00000000000000000000000000010010 %!
b0000000010010 -!
b000000000100000000000 5!
b00000000000000000000000000010010 =!
b00000000000000000000100000000000 E!
b00000000000000000000000000000001 U!
0/"
b00000000000000000000000000000001 7"
b00000000000000000000000000110000 G"
b00000000000000000000000000000001 O"
b00000000000000000000000000101100 _"
b01001 o"
1/&
#730
#735
0/&
#740
#745
b00000000100000000000111001100011 #
b00000000000000000000000000100101 +
b01000 ;
b11100 S
b1100011 [
b000000001000 c
b00000000000000000000000000001000 k
b00000000000000000000000000001000 s
b00000000000000000000000000001000 {
b00000000000000000000000000011100 %!
b0000000011100 -!
b000000000000000001000 5!
b00000000000000000000000000011100 =!
b00000000000000000000000000001000 E!
b00000000000000000000000000001000 U!
b00010 e!
b11111111111111111111111111111000 7"
0?"
b00000000000000000000000000110100 G"
b11111111111111111111111111111000 O"
b00000000000000000000000000110000 _"
b10010 o"
1/&
#750
#755
0/&
#760
#765
b00000001001001000000110001100011 #
b00000000000000000000000000100110 +
b10010 ;
b01000 C
b11000 S
b000000010010 c
b00000000000000000000000000010010 k
b00000000000000000000000000010010 s
b00000000000000000000000000010010 {
b00000000000000000000000000011000 %!
b0000000011000 -!
b001000000000000010010 5!
b00000000000000000000000000011000 =!
b00000000000001000000000000010010 E!
b00000000000000000000000000001000 M!
b00000000000000000000000000000001 U!
b00000000000000000000000000000111 7"
b00000000000000000000000000111000 G"
b00000000000000000000000000000111 O"
b00000000000000000000000000110100 _"
b11100 o"
b1100011 A#
1/&
#770
#775
0/&
#780
#785
b11111111111101000000010100010011 #
b00000000000000000000000000100111 +
b1111111 3
b11111 ;
b01010 S
b0010011 [
b111111111111 c
b11111111111111111111111111111111 k
b00000000000000000000000000011111 s
b11111111111111111111111111111111 {
b00000000000000000000111111101010 %!
b1011111101010 -!
b101000000111111111110 5!
b11111111111111111111011111101010 =!
b11111111111101000000111111111110 E!
b11111111111111111111111111111111 U!
b00001 e!
1?"
b00000000000000000000000000111100 G"
b00000000000000000000000000111000 _"
b11000 o"
1/&
#790
#795
0/&
#800
