lab4-lwsw/gtkwave.vcd
$version Generated by VerilatedVcd $end
$date Fri Sep 23 11:09:52 2022
 $end
$timescale   1ns $end

 $scope module TOP $end
  $var wire  1 /& clock $end
  $var wire  1 7& reset $end
  $scope module testbench $end
   $var wire 32 ?& MEM_ADDR_WIDTH [31:0] $end
   $var wire  1 /& clock $end
   $var wire 32 + cycles [31:0] $end
   $var wire 32 _" imem_addr [31:0] $end
   $var wire 32 # imem_data [31:0] $end
   $var wire 32 G& out [31:0] $end
   $var wire  1 O& out_valid $end
   $var wire  1 7& reset $end
   $var wire  1 W" trap $end
   $var wire 32 g" x10 [31:0] $end
   $scope module dut $end
    $var wire  1 _& alu_eq $end
    $var wire  1 /" alu_eq_zero $end
    $var wire  5 e! alu_op [4:0] $end
    $var wire 32 M! alu_op_a [31:0] $end
    $var wire 32 M! alu_op_a_signed [31:0] $end
    $var wire 32 U! alu_op_b [31:0] $end
    $var wire 32 U! alu_op_b_signed [31:0] $end
    $var wire 32 7" alu_result [31:0] $end
    $var wire  1 /& clock $end
    $var wire  7 A# d_opcode [6:0] $end
    $var wire  5 o" d_rd [4:0] $end
    $var wire 32 w" d_x0 [31:0] $end
    $var wire 32 !# d_x1 [31:0] $end
    $var wire 32 )# d_x2 [31:0] $end
    $var wire 32 1# d_x3 [31:0] $end
    $var wire 32 9# d_x4 [31:0] $end
    $var wire 32 }! dmem_rd_addr [31:0] $end
    $var wire 32 '" dmem_rd_data [31:0] $end
    $var wire 32 m! dmem_wr_addr [31:0] $end
    $var wire 32 u! dmem_wr_data [31:0] $end
    $var wire  1 W& dmem_wr_enable $end
    $var wire  1 ]! illegalinsn $end
    $var wire 32 _" imem_addr [31:0] $end
    $var wire 32 # imem_data [31:0] $end
    $var wire 13 -! imm_b [12:0] $end
    $var wire 32 =! imm_b_sext [31:0] $end
    $var wire 12 c imm_i [11:0] $end
    $var wire 32 k imm_i_sext [31:0] $end
    $var wire 21 5! imm_j [20:0] $end
    $var wire 32 E! imm_j_sext [31:0] $end
    $var wire 32 %! imm_s_sext [31:0] $end
    $var wire 32 s imm_shift [31:0] $end
    $var wire 32 { imm_val [31:0] $end
    $var wire 32 # insn [31:0] $end
    $var wire  3 K insn_funct3 [2:0] $end
    $var wire  7 3 insn_funct7 [6:0] $end
    $var wire  7 [ insn_opcode [6:0] $end
    $var wire  5 S insn_rd [4:0] $end
    $var wire  5 C insn_rs1 [4:0] $end
    $var wire  5 ; insn_rs2 [4:0] $end
    $var wire 32 G" npc [31:0] $end
    $var wire 32 _" pc [31:0] $end
    $var wire 32 I# regfile(0) [31:0] $end
    $var wire 32 J# regfile(1) [31:0] $end
    $var wire 32 S# regfile(10) [31:0] $end
    $var wire 32 T# regfile(11) [31:0] $end
    $var wire 32 U# regfile(12) [31:0] $end
    $var wire 32 V# regfile(13) [31:0] $end
    $var wire 32 W# regfile(14) [31:0] $end
    $var wire 32 X# regfile(15) [31:0] $end
    $var wire 32 Y# regfile(16) [31:0] $end
    $var wire 32 Z# regfile(17) [31:0] $end
    $var wire 32 [# regfile(18) [31:0] $end
    $var wire 32 \# regfile(19) [31:0] $end
    $var wire 32 K# regfile(2) [31:0] $end
    $var wire 32 ]# regfile(20) [31:0] $end
    $var wire 32 ^# regfile(21) [31:0] $end
    $var wire 32 _# regfile(22) [31:0] $end
    $var wire 32 `# regfile(23) [31:0] $end
    $var wire 32 a# regfile(24) [31:0] $end
    $var wire 32 b# regfile(25) [31:0] $end
    $var wire 32 c# regfile(26) [31:0] $end
    $var wire 32 d# regfile(27) [31:0] $end
    $var wire 32 e# regfile(28) [31:0] $end
    $var wire 32 f# regfile(29) [31:0] $end
    $var wire 32 L# regfile(3) [31:0] $end
    $var wire 32 g# regfile(30) [31:0] $end
    $var wire 32 h# regfile(31) [31:0] $end
    $var wire 32 M# regfile(4) [31:0] $end
    $var wire 32 N# regfile(5) [31:0] $end
    $var wire 32 O# regfile(6) [31:0] $end
    $var wire 32 P# regfile(7) [31:0] $end
    $var wire 32 Q# regfile(8) [31:0] $end
    $var wire 32 R# regfile(9) [31:0] $end
    $var wire  1 ?" regwrite $end
    $var wire  1 7& reset $end
    $var wire 32 O" rfilewdata [31:0] $end
    $var wire  1 W" trap $end
    $var wire  1 W" trapped $end
    $var wire 32 g" x10 [31:0] $end
    $scope module alu_1 $end
     $var wire  5 e! alu_function [4:0] $end
     $var wire 32 M! op_a [31:0] $end
     $var wire 32 M! op_a_signed [31:0] $end
     $var wire 32 U! op_b [31:0] $end
     $var wire 32 U! op_b_signed [31:0] $end
     $var wire 32 7" result [31:0] $end
     $var wire  1 /" result_eq_zero $end
    $upscope $end
   $upscope $end
  $upscope $end
 $upscope $end
$enddefinitions $end


#5
b00001101000000000000000010010011 #
b00000000000000000000000000000000 +
b0000110 3
b10000 ;
b00000 C
b000 K
b00001 S
b0010011 [
b000011010000 c
b00000000000000000000000011010000 k
b00000000000000000000000000010000 s
b00000000000000000000000011010000 {
b00000000000000000000000011000001 %!
b0100011000000 -!
b000000000000011010000 5!
b00000000000000000000100011000000 =!
b00000000000000000000000011010000 E!
b00000000000000000000000000000000 M!
b00000000000000000000000011010000 U!
0]!
b00001 e!
b00000000000000000000000000000000 m!
b00000000000000000000000000000000 u!
b00000000000000000000000000000000 }!
b00000000000000000000000000000000 '"
0/"
b00000000000000000000000011010000 7"
1?"
b00000000000000000000000000000100 G"
b00000000000000000000000011010000 O"
0W"
b00000000000000000000000000000000 _"
b00000000000000000000000000000000 g"
b00000 o"
b00000000000000000000000000000000 w"
b00000000000000000000000000000000 !#
b00000000000000000000000000000000 )#
b00000000000000000000000000000000 1#
b00000000000000000000000000000000 9#
b0000000 A#
b00000000000000000000000000000000 I#
b00000000000000000000000000000000 J#
b00000000000000000000000000000000 K#
b00000000000000000000000000000000 L#
b00000000000000000000000000000000 M#
b00000000000000000000000000000000 N#
b00000000000000000000000000000000 O#
b00000000000000000000000000000000 P#
b00000000000000000000000000000000 Q#
b00000000000000000000000000000000 R#
b00000000000000000000000000000000 S#
b00000000000000000000000000000000 T#
b00000000000000000000000000000000 U#
b00000000000000000000000000000000 V#
b00000000000000000000000000000000 W#
b00000000000000000000000000000000 X#
b00000000000000000000000000000000 Y#
b00000000000000000000000000000000 Z#
b00000000000000000000000000000000 [#
b00000000000000000000000000000000 \#
b00000000000000000000000000000000 ]#
b00000000000000000000000000000000 ^#
b00000000000000000000000000000000 _#
b00000000000000000000000000000000 `#
b00000000000000000000000000000000 a#
b00000000000000000000000000000000 b#
b00000000000000000000000000000000 c#
b00000000000000000000000000000000 d#
b00000000000000000000000000000000 e#
b00000000000000000000000000000000 f#
b00000000000000000000000000000000 g#
b00000000000000000000000000000000 h#
0/&
07&
b00000000000000000000000000010000 ?&
b00000000000000000000000000000000 G&
0O&
0W&
0_&
#10
#15
17&
#20
#25
b00000000000000000000000000000001 +
b00001 o"
b0010011 A#
1/&
#30
#35
0/&
#40
#45
b00000000000000000000000000000010 +
1/&
#50
#55
0/&
07&
#60
#65
b00000010010000000000000100010011 #
b00000000000000000000000000000011 +
b0000001 3
b00100 ;
b00010 S
b000000100100 c
b00000000000000000000000000100100 k
b00000000000000000000000000000100 s
b00000000000000000000000000100100 {
b00000000000000000000000000100010 %!
b0000000100010 -!
b000000000000000100100 5!
b00000000000000000000000000100010 =!
b00000000000000000000000000100100 E!
b00000000000000000000000000100100 U!
b00000000000000000000000000100100 7"
b00000000000000000000000000001000 G"
b00000000000000000000000000100100 O"
b00000000000000000000000000000100 _"
b00000000000000000000000011010000 J#
1/&
#70
#75
0/&
#80
#85
b00000000000100010010000000100011 #
b00000000000000000000000000000100 +
b0000000 3
b00001 ;
b00010 C
b010 K
b00000 S
b0100011 [
b000000000001 c
b00000000000000000000000000000001 k
b00000000000000000000000000000001 s
b00000000000000000000000000000001 {
b00000000000000000000000000000000 %!
b0000000000000 -!
b000010010100000000000 5!
b00000000000000000000000000000000 =!
b00000000000000010010100000000000 E!
b00000000000000000000000000100100 M!
b00000000000000000000000011010000 U!
b00000000000000000000000000100100 m!
b00000000000000000000000011010000 u!
b00000000000000000000000011110100 7"
0?"
b00000000000000000000000000001100 G"
b00000000000000000000000011110100 O"
b00000000000000000000000000001000 _"
b00010 o"
b00000000000000000000000011010000 !#
b00000000000000000000000000100100 K#
1/&
#90
#95
0/&
#100
#105
b11111111110000010000000100010011 #
b00000000000000000000000000000101 +
b1111111 3
b11100 ;
b000 K
b00010 S
b0010011 [
b111111111100 c
b11111111111111111111111111111100 k
b00000000000000000000000000011100 s
b11111111111111111111111111111100 {
b00000000000000000000111111100010 %!
b1011111100010 -!
b100010000011111111100 5!
b11111111111111111111011111100010 =!
b11111111111100010000011111111100 E!
b11111111111111111111111111111100 U!
b00000000000000000000000000100000 7"
1?"
b00000000000000000000000000010000 G"
b00000000000000000000000000100000 O"
b00000000000000000000000000001100 _"
b00000 o"
b00000000000000000000000000100100 )#
b0100011 A#
1/&
#110
#115
0/&
#120
#125
b00000000010000010010010100000011 #
b00000000000000000000000000000110 +
b0000000 3
b00100 ;
b010 K
b01010 S
b0000011 [
b000000000100 c
b00000000000000000000000000000100 k
b00000000000000000000000000000100 s
b00000000000000000000000000000100 {
b00000000000000000000000000001010 %!
b0000000001010 -!
b000010010000000000100 5!
b00000000000000000000000000001010 =!
b00000000000000010010000000000100 E!
b00000000000000000000000000100000 M!
b00000000000000000000000000000000 U!
b00000000000000000000000000100100 }!
b00000000000000000000000011010000 '"
b00000000000000000000000000010100 G"
b00000000000000000000000011010000 O"
b00000000000000000000000000010000 _"
b00010 o"
b0010011 A#
b00000000000000000000000000100000 K#
1/&
#130
#135
0/&
#140
#145
b00001111111100000000000000001111 #
b00000000000000000000000000000111 +
b0000111 3
b11111 ;
b00000 C
b000 K
b00000 S
b0001111 [
b000011111111 c
b00000000000000000000000011111111 k
b00000000000000000000000000011111 s
b00000000000000000000000011111111 {
b00000000000000000000000011100000 %!
b0000011100000 -!
b000000000100011111110 5!
b00000000000000000000000011100000 =!
b00000000000000000000100011111110 E!
b00000000000000000000000000000000 M!
1]!
1/"
b00000000000000000000000000000000 7"
0?"
b00000000000000000000000000011000 G"
b00000000000000000000000000000000 O"
b00000000000000000000000000010100 _"
b01010 o"
b00000000000000000000000000100000 )#
b0000011 A#
b00000000000000000000000011010000 S#
1/&
#150
#155
0/&
#160
#165
b00000000000000000000000000000000 #
b00000000000000000000000000001000 +
b0000000 3
b00000 ;
b0000000 [
b000000000000 c
b00000000000000000000000000000000 k
b00000000000000000000000000000000 s
b00000000000000000000000000000000 {
b00000000000000000000000000000000 %!
b0000000000000 -!
b000000000000000000000 5!
b00000000000000000000000000000000 =!
b00000000000000000000000000000000 E!
0]!
b00000000000000000000000000011100 G"
1W"
b00000000000000000000000000011000 _"
b00000 o"
b0001111 A#
1/&
