lab4-lwsw/gtkwave.vcd
$version Generated by VerilatedVcd $end
$date Fri Sep 23 11:34:54 2022
 $end
$timescale   1ns $end

 $scope module TOP $end
  $var wire  1 7& clock $end
  $var wire  1 ?& reset $end
  $scope module testbench $end
   $var wire 32 G& MEM_ADDR_WIDTH [31:0] $end
   $var wire  1 7& clock $end
   $var wire 32 + cycles [31:0] $end
   $var wire 32 g" imem_addr [31:0] $end
   $var wire 32 # imem_data [31:0] $end
   $var wire 32 O& out [31:0] $end
   $var wire  1 W& out_valid $end
   $var wire  1 ?& reset $end
   $var wire  1 _" trap $end
   $var wire 32 o" x10 [31:0] $end
   $scope module dut $end
    $var wire  1 g& alu_eq $end
    $var wire  1 7" alu_eq_zero $end
    $var wire  5 m! alu_op [4:0] $end
    $var wire 32 U! alu_op_a [31:0] $end
    $var wire 32 U! alu_op_a_signed [31:0] $end
    $var wire 32 ]! alu_op_b [31:0] $end
    $var wire 32 ]! alu_op_b_signed [31:0] $end
    $var wire 32 ?" alu_result [31:0] $end
    $var wire  1 7& clock $end
    $var wire  7 I# d_opcode [6:0] $end
    $var wire  5 w" d_rd [4:0] $end
    $var wire 32 !# d_x0 [31:0] $end
    $var wire 32 )# d_x1 [31:0] $end
    $var wire 32 1# d_x2 [31:0] $end
    $var wire 32 9# d_x3 [31:0] $end
    $var wire 32 A# d_x4 [31:0] $end
    $var wire 32 '" dmem_rd_addr [31:0] $end
    $var wire 32 /" dmem_rd_data [31:0] $end
    $var wire 32 u! dmem_wr_addr [31:0] $end
    $var wire 32 }! dmem_wr_data [31:0] $end
    $var wire  1 _& dmem_wr_enable $end
    $var wire  1 e! illegalinsn $end
    $var wire 32 g" imem_addr [31:0] $end
    $var wire 32 # imem_data [31:0] $end
    $var wire 13 5! imm_b [12:0] $end
    $var wire 32 E! imm_b_sext [31:0] $end
    $var wire 32 c imm_ci [31:0] $end
    $var wire 12 k imm_i [11:0] $end
    $var wire 32 s imm_i_sext [31:0] $end
    $var wire 21 =! imm_j [20:0] $end
    $var wire 32 M! imm_j_sext [31:0] $end
    $var wire 32 -! imm_s_sext [31:0] $end
    $var wire 32 { imm_shift [31:0] $end
    $var wire 32 %! imm_val [31:0] $end
    $var wire 32 # insn [31:0] $end
    $var wire  3 K insn_funct3 [2:0] $end
    $var wire  7 3 insn_funct7 [6:0] $end
    $var wire  7 [ insn_opcode [6:0] $end
    $var wire  5 S insn_rd [4:0] $end
    $var wire  5 C insn_rs1 [4:0] $end
    $var wire  5 ; insn_rs2 [4:0] $end
    $var wire 32 O" npc [31:0] $end
    $var wire 32 g" pc [31:0] $end
    $var wire 32 Q# regfile(0) [31:0] $end
    $var wire 32 R# regfile(1) [31:0] $end
    $var wire 32 [# regfile(10) [31:0] $end
    $var wire 32 \# regfile(11) [31:0] $end
    $var wire 32 ]# regfile(12) [31:0] $end
    $var wire 32 ^# regfile(13) [31:0] $end
    $var wire 32 _# regfile(14) [31:0] $end
    $var wire 32 `# regfile(15) [31:0] $end
    $var wire 32 a# regfile(16) [31:0] $end
    $var wire 32 b# regfile(17) [31:0] $end
    $var wire 32 c# regfile(18) [31:0] $end
    $var wire 32 d# regfile(19) [31:0] $end
    $var wire 32 S# regfile(2) [31:0] $end
    $var wire 32 e# regfile(20) [31:0] $end
    $var wire 32 f# regfile(21) [31:0] $end
    $var wire 32 g# regfile(22) [31:0] $end
    $var wire 32 h# regfile(23) [31:0] $end
    $var wire 32 i# regfile(24) [31:0] $end
    $var wire 32 j# regfile(25) [31:0] $end
    $var wire 32 k# regfile(26) [31:0] $end
    $var wire 32 l# regfile(27) [31:0] $end
    $var wire 32 m# regfile(28) [31:0] $end
    $var wire 32 n# regfile(29) [31:0] $end
    $var wire 32 T# regfile(3) [31:0] $end
    $var wire 32 o# regfile(30) [31:0] $end
    $var wire 32 p# regfile(31) [31:0] $end
    $var wire 32 U# regfile(4) [31:0] $end
    $var wire 32 V# regfile(5) [31:0] $end
    $var wire 32 W# regfile(6) [31:0] $end
    $var wire 32 X# regfile(7) [31:0] $end
    $var wire 32 Y# regfile(8) [31:0] $end
    $var wire 32 Z# regfile(9) [31:0] $end
    $var wire  1 G" regwrite $end
    $var wire  1 ?& reset $end
    $var wire 32 W" rfilewdata [31:0] $end
    $var wire  1 _" trap $end
    $var wire  1 _" trapped $end
    $var wire 32 o" x10 [31:0] $end
    $scope module alu_1 $end
     $var wire  5 m! alu_function [4:0] $end
     $var wire 32 U! op_a [31:0] $end
     $var wire 32 U! op_a_signed [31:0] $end
     $var wire 32 ]! op_b [31:0] $end
     $var wire 32 ]! op_b_signed [31:0] $end
     $var wire 32 ?" result [31:0] $end
     $var wire  1 7" result_eq_zero $end
    $upscope $end
   $upscope $end
  $upscope $end
 $upscope $end
$enddefinitions $end


#5
b00010000000000000000000100010011 #
b00000000000000000000000000000000 +
b0001000 3
b00000 ;
b00000 C
b000 K
b00010 S
b0010011 [
b00000000000000000000000000000100 c
b000100000000 k
b00000000000000000000000100000000 s
b00000000000000000000000000000000 {
b00000000000000000000000100000000 %!
b00000000000000000000000100000010 -!
b0000100000010 5!
b000000000000100000000 =!
b00000000000000000000000100000010 E!
b00000000000000000000000100000000 M!
b00000000000000000000000000000000 U!
b00000000000000000000000100000000 ]!
0e!
b00001 m!
b00000000000000000000000000000000 u!
b00000000000000000000000000000000 }!
b00000000000000000000000000000000 '"
b00000000000000000000000000000000 /"
07"
b00000000000000000000000100000000 ?"
1G"
b00000000000000000000000000000100 O"
b00000000000000000000000100000000 W"
0_"
b00000000000000000000000000000000 g"
b00000000000000000000000000000000 o"
b00000 w"
b00000000000000000000000000000000 !#
b00000000000000000000000000000000 )#
b00000000000000000000000000000000 1#
b00000000000000000000000000000000 9#
b00000000000000000000000000000000 A#
b0000000 I#
b00000000000000000000000000000000 Q#
b00000000000000000000000000000000 R#
b00000000000000000000000000000000 S#
b00000000000000000000000000000000 T#
b00000000000000000000000000000000 U#
b00000000000000000000000000000000 V#
b00000000000000000000000000000000 W#
b00000000000000000000000000000000 X#
b00000000000000000000000000000000 Y#
b00000000000000000000000000000000 Z#
b00000000000000000000000000000000 [#
b00000000000000000000000000000000 \#
b00000000000000000000000000000000 ]#
b00000000000000000000000000000000 ^#
b00000000000000000000000000000000 _#
b00000000000000000000000000000000 `#
b00000000000000000000000000000000 a#
b00000000000000000000000000000000 b#
b00000000000000000000000000000000 c#
b00000000000000000000000000000000 d#
b00000000000000000000000000000000 e#
b00000000000000000000000000000000 f#
b00000000000000000000000000000000 g#
b00000000000000000000000000000000 h#
b00000000000000000000000000000000 i#
b00000000000000000000000000000000 j#
b00000000000000000000000000000000 k#
b00000000000000000000000000000000 l#
b00000000000000000000000000000000 m#
b00000000000000000000000000000000 n#
b00000000000000000000000000000000 o#
b00000000000000000000000000000000 p#
07&
0?&
b00000000000000000000000000010000 G&
b00000000000000000000000000000000 O&
0W&
0_&
0g&
#10
#15
1?&
#20
#25
b00000000000000000000000000000001 +
b00010 w"
b0010011 I#
17&
#30
#35
07&
#40
#45
b00000000000000000000000000000010 +
17&
#50
#55
07&
0?&
#60
#65
b00000000101000000000010100010011 #
b00000000000000000000000000000011 +
b0000000 3
b01010 ;
b01010 S
b000000001010 k
b00000000000000000000000000001010 s
b00000000000000000000000000001010 {
b00000000000000000000000000001010 %!
b00000000000000000000000000001010 -!
b0000000001010 5!
b000000000000000001010 =!
b00000000000000000000000000001010 E!
b00000000000000000000000000001010 M!
b00000000000000000000000000001010 ]!
b00000000000000000000000000001010 ?"
b00000000000000000000000000001000 O"
b00000000000000000000000000001010 W"
b00000000000000000000000000000100 g"
b00000000000000000000000100000000 S#
17&
#70
#75
07&
#80
#85
b00000000100000000000000011101111 #
b00000000000000000000000000000100 +
b01000 ;
b00001 S
b1101111 [
b00000000000000000000000000011011 c
b000000001000 k
b00000000000000000000000000001000 s
b00000000000000000000000000001000 {
b00000000000000000000000000001000 %!
b00000000000000000000000000000001 -!
b0100000000000 5!
b000000000000000001000 =!
b00000000000000000000100000000000 E!
b00000000000000000000000000001000 M!
b00000000000000000000000000000000 ]!
17"
b00000000000000000000000000000000 ?"
b00000000000000000000000000010000 O"
b00000000000000000000000000001100 W"
b00000000000000000000000000001000 g"
b01010 w"
b00000000000000000000000100000000 1#
b00000000000000000000000000001010 [#
17&
#90
#95
07&
#100
#105
b11111111000000010000000100010011 #
b00000000000000000000000000000101 +
b1111111 3
b10000 ;
b00010 C
b00010 S
b0010011 [
b00000000000000000000000000000100 c
b111111110000 k
b11111111111111111111111111110000 s
b00000000000000000000000000010000 {
b11111111111111111111111111110000 %!
b00000000000000000000111111100010 -!
b1011111100010 5!
b100010000011111110000 =!
b11111111111111111111011111100010 E!
b11111111111100010000011111110000 M!
b00000000000000000000000100000000 U!
b11111111111111111111111111110000 ]!
07"
b00000000000000000000000011110000 ?"
b00000000000000000000000000010100 O"
b00000000000000000000000011110000 W"
b00000000000000000000000000010000 g"
b00000000000000000000000000001010 o"
b00001 w"
b1101111 I#
b00000000000000000000000000001100 R#
17&
#110
#115
07&
#120
#125
b00000000100000010010010000100011 #
b00000000000000000000000000000110 +
b0000000 3
b01000 ;
b010 K
b01000 S
b0100011 [
b00000000000000000000000001001000 c
b000000001000 k
b00000000000000000000000000001000 s
b00000000000000000000000000001000 {
b00000000000000000000000000001000 %!
b00000000000000000000000000001000 -!
b0000000001000 5!
b000010010000000001000 =!
b00000000000000000000000000001000 E!
b00000000000000010010000000001000 M!
b00000000000000000000000011110000 U!
b00000000000000000000000000000000 ]!
b00000000000000000000000011111000 u!
0G"
b00000000000000000000000000011000 O"
b00000000000000000000000000010100 g"
b00010 w"
b00000000000000000000000000001100 )#
b0010011 I#
b00000000000000000000000011110000 S#
17&
#130
#135
07&
#140
#145
b00000000100100010010001000100011 #
b00000000000000000000000000000111 +
b01001 ;
b00100 S
b000000001001 k
b00000000000000000000000000001001 s
b00000000000000000000000000001001 {
b00000000000000000000000000001001 %!
b00000000000000000000000000000100 -!
b0000000000100 5!
b000010010100000001000 =!
b00000000000000000000000000000100 E!
b00000000000000010010100000001000 M!
b00000000000000000000000011110100 u!
b00000000000000000000000000011100 O"
b00000000000000000000000000011000 g"
b01000 w"
b00000000000000000000000011110000 1#
b0100011 I#
17&
#150
#155
07&
#160
#165
b00000001001000010010000000100011 #
b00000000000000000000000000001000 +
b10010 ;
b00000 S
b000000010010 k
b00000000000000000000000000010010 s
b00000000000000000000000000010010 {
b00000000000000000000000000010010 %!
b00000000000000000000000000000000 -!
b0000000000000 5!
b000010010000000010010 =!
b00000000000000000000000000000000 E!
b00000000000000010010000000010010 M!
b00000000000000000000000011110000 u!
b00000000000000000000000000100000 O"
b00000000000000000000000000011100 g"
b00100 w"
17&
#170
#175
07&
#180
#185
b00000000000100010010011000100011 #
b00000000000000000000000000001001 +
b00001 ;
b01100 S
b000000000001 k
b00000000000000000000000000000001 s
b00000000000000000000000000000001 {
b00000000000000000000000000000001 %!
b00000000000000000000000000001100 -!
b0000000001100 5!
b000010010100000000000 =!
b00000000000000000000000000001100 E!
b00000000000000010010100000000000 M!
b00000000000000000000000000001100 ]!
b00000000000000000000000011111100 u!
b00000000000000000000000000001100 }!
b00000000000000000000000011111100 ?"
b00000000000000000000000000100100 O"
b00000000000000000000000011111100 W"
b00000000000000000000000000100000 g"
b00000 w"
17&
#190
#195
07&
#200
#205
b00000000000001010000010000010011 #
b00000000000000000000000000001010 +
b00000 ;
b01010 C
b000 K
b01000 S
b0010011 [
b00000000000000000000000000000100 c
b000000000000 k
b00000000000000000000000000000000 s
b00000000000000000000000000000000 {
b00000000000000000000000000000000 %!
b00000000000000000000000000001000 -!
b0000000001000 5!
b001010000000000000000 =!
b00000000000000000000000000001000 E!
b00000000000001010000000000000000 M!
b00000000000000000000000000001010 U!
b00000000000000000000000000000000 ]!
b00000000000000000000000000001010 ?"
1G"
b00000000000000000000000000101000 O"
b00000000000000000000000000001010 W"
b00000000000000000000000000100100 g"
b01100 w"
17&
#210
#215
07&
#220
#225
b00000000000000000000010010010011 #
b00000000000000000000000000001011 +
b00000 C
b01001 S
b00000000000000000000000000001001 -!
b0100000001000 5!
b000000000000000000000 =!
b00000000000000000000100000001000 E!
b00000000000000000000000000000000 M!
b00000000000000000000000000000000 U!
17"
b00000000000000000000000000000000 ?"
b00000000000000000000000000101100 O"
b00000000000000000000000000000000 W"
b00000000000000000000000000101000 g"
b01000 w"
b0010011 I#
b00000000000000000000000000001010 Y#
17&
#230
#235
07&
#240
#245
b00000000000100000000100100010011 #
b00000000000000000000000000001100 +
b00001 ;
b10010 S
b000000000001 k
b00000000000000000000000000000001 s
b00000000000000000000000000000001 {
b00000000000000000000000000000001 %!
b00000000000000000000000000010010 -!
b0000000010010 5!
b000000000100000000000 =!
b00000000000000000000000000010010 E!
b00000000000000000000100000000000 M!
b00000000000000000000000000000001 ]!
07"
b00000000000000000000000000000001 ?"
b00000000000000000000000000110000 O"
b00000000000000000000000000000001 W"
b00000000000000000000000000101100 g"
b01001 w"
17&
#250
#255
07&
#260
#265
b00000000100000000000111001100011 #
b00000000000000000000000000001101 +
b01000 ;
b11100 S
b1100011 [
b00000000000000000000000000011000 c
b000000001000 k
b00000000000000000000000000001000 s
b00000000000000000000000000001000 {
b00000000000000000000000000001000 %!
b00000000000000000000000000011100 -!
b0000000011100 5!
b000000000000000001000 =!
b00000000000000000000000000011100 E!
b00000000000000000000000000001000 M!
b00000000000000000000000000001010 ]!
b00010 m!
b11111111111111111111111111110110 ?"
0G"
b00000000000000000000000000110100 O"
b11111111111111111111111111110110 W"
b00000000000000000000000000110000 g"
b10010 w"
b00000000000000000000000000000001 c#
17&
#270
#275
07&
#280
#285
b00000001001001000000110001100011 #
b00000000000000000000000000001110 +
b10010 ;
b01000 C
b11000 S
b000000010010 k
b00000000000000000000000000010010 s
b00000000000000000000000000010010 {
b00000000000000000000000000010010 %!
b00000000000000000000000000011000 -!
b0000000011000 5!
b001000000000000010010 =!
b00000000000000000000000000011000 E!
b00000000000001000000000000010010 M!
b00000000000000000000000000001010 U!
b00000000000000000000000000000001 ]!
b00000000000000000000000000001001 ?"
b00000000000000000000000000111000 O"
b00000000000000000000000000001001 W"
b00000000000000000000000000110100 g"
b11100 w"
b1100011 I#
17&
#290
#295
07&
#300
#305
b11111111111101000000010100010011 #
b00000000000000000000000000001111 +
b1111111 3
b11111 ;
b01010 S
b0010011 [
b00000000000000000000000000000100 c
b111111111111 k
b11111111111111111111111111111111 s
b00000000000000000000000000011111 {
b11111111111111111111111111111111 %!
b00000000000000000000111111101010 -!
b1011111101010 5!
b101000000111111111110 =!
b11111111111111111111011111101010 E!
b11111111111101000000111111111110 M!
b11111111111111111111111111111111 ]!
b00001 m!
1G"
b00000000000000000000000000111100 O"
b00000000000000000000000000111000 g"
b11000 w"
17&
#310
#315
07&
#320
#325
b11111101010111111111000011101111 #
b00000000000000000000000000010000 +
b1111110 3
b10101 ;
b11111 C
b111 K
b00001 S
b1101111 [
b00000000000000000000000001111011 c
b111111010101 k
b11111111111111111111111111010101 s
b00000000000000000000000000010101 {
b11111111111111111111111111010101 %!
b00000000000000000000111111000001 -!
b1111111000000 5!
b111111111111111010100 =!
b11111111111111111111111111000000 E!
b11111111111111111111111111010100 M!
b00000000000000000000000000000000 U!
b00000000000000000000000000000000 ]!
17"
b00000000000000000000000000000000 ?"
b00000000000000000000000000010000 O"
b00000000000000000000000001000000 W"
b00000000000000000000000000111100 g"
b01010 w"
b0010011 I#
b00000000000000000000000000001001 [#
17&
#330
#335
07&
#340
#345
b11111111000000010000000100010011 #
b00000000000000000000000000010001 +
b1111111 3
b10000 ;
b00010 C
b000 K
b00010 S
b0010011 [
b00000000000000000000000000000100 c
b111111110000 k
b11111111111111111111111111110000 s
b00000000000000000000000000010000 {
b11111111111111111111111111110000 %!
b00000000000000000000111111100010 -!
b1011111100010 5!
b100010000011111110000 =!
b11111111111111111111011111100010 E!
b11111111111100010000011111110000 M!
b00000000000000000000000011110000 U!
b11111111111111111111111111110000 ]!
07"
b00000000000000000000000011100000 ?"
b00000000000000000000000000010100 O"
b00000000000000000000000011100000 W"
b00000000000000000000000000010000 g"
b00000000000000000000000000001001 o"
b00001 w"
b1101111 I#
b00000000000000000000000001000000 R#
17&
#350
#355
07&
#360
#365
b00000000100000010010010000100011 #
b00000000000000000000000000010010 +
b0000000 3
b01000 ;
b010 K
b01000 S
b0100011 [
b00000000000000000000000001001000 c
b000000001000 k
b00000000000000000000000000001000 s
b00000000000000000000000000001000 {
b00000000000000000000000000001000 %!
b00000000000000000000000000001000 -!
b0000000001000 5!
b000010010000000001000 =!
b00000000000000000000000000001000 E!
b00000000000000010010000000001000 M!
b00000000000000000000000011100000 U!
b00000000000000000000000000001010 ]!
b00000000000000000000000011101000 u!
b00000000000000000000000000001010 }!
b00000000000000000000000011101010 ?"
0G"
b00000000000000000000000000011000 O"
b00000000000000000000000011101010 W"
b00000000000000000000000000010100 g"
b00010 w"
b00000000000000000000000001000000 )#
b0010011 I#
b00000000000000000000000011100000 S#
17&
#370
#375
07&
#380
#385
b00000000100100010010001000100011 #
b00000000000000000000000000010011 +
b01001 ;
b00100 S
b000000001001 k
b00000000000000000000000000001001 s
b00000000000000000000000000001001 {
b00000000000000000000000000001001 %!
b00000000000000000000000000000100 -!
b0000000000100 5!
b000010010100000001000 =!
b00000000000000000000000000000100 E!
b00000000000000010010100000001000 M!
b00000000000000000000000000000000 ]!
b00000000000000000000000011100100 u!
b00000000000000000000000000000000 }!
b00000000000000000000000011100000 ?"
b00000000000000000000000000011100 O"
b00000000000000000000000011100000 W"
b00000000000000000000000000011000 g"
b01000 w"
b00000000000000000000000011100000 1#
b0100011 I#
17&
#390
#395
07&
#400
#405
b00000001001000010010000000100011 #
b00000000000000000000000000010100 +
b10010 ;
b00000 S
b000000010010 k
b00000000000000000000000000010010 s
b00000000000000000000000000010010 {
b00000000000000000000000000010010 %!
b00000000000000000000000000000000 -!
b0000000000000 5!
b000010010000000010010 =!
b00000000000000000000000000000000 E!
b00000000000000010010000000010010 M!
b00000000000000000000000000000001 ]!
b00000000000000000000000011100000 u!
b00000000000000000000000000000001 }!
b00000000000000000000000011100001 ?"
b00000000000000000000000000100000 O"
b00000000000000000000000011100001 W"
b00000000000000000000000000011100 g"
b00100 w"
17&
#410
#415
07&
#420
#425
b00000000000100010010011000100011 #
b00000000000000000000000000010101 +
b00001 ;
b01100 S
b000000000001 k
b00000000000000000000000000000001 s
b00000000000000000000000000000001 {
b00000000000000000000000000000001 %!
b00000000000000000000000000001100 -!
b0000000001100 5!
b000010010100000000000 =!
b00000000000000000000000000001100 E!
b00000000000000010010100000000000 M!
b00000000000000000000000001000000 ]!
b00000000000000000000000011101100 u!
b00000000000000000000000001000000 }!
b00000000000000000000000100100000 ?"
b00000000000000000000000000100100 O"
b00000000000000000000000100100000 W"
b00000000000000000000000000100000 g"
b00000 w"
17&
#430
#435
07&
#440
#445
b00000000000001010000010000010011 #
b00000000000000000000000000010110 +
b00000 ;
b01010 C
b000 K
b01000 S
b0010011 [
b00000000000000000000000000000100 c
b000000000000 k
b00000000000000000000000000000000 s
b00000000000000000000000000000000 {
b00000000000000000000000000000000 %!
b00000000000000000000000000001000 -!
b0000000001000 5!
b001010000000000000000 =!
b00000000000000000000000000001000 E!
b00000000000001010000000000000000 M!
b00000000000000000000000000001001 U!
b00000000000000000000000000000000 ]!
b00000000000000000000000000001001 ?"
1G"
b00000000000000000000000000101000 O"
b00000000000000000000000000001001 W"
b00000000000000000000000000100100 g"
b01100 w"
17&
#450
#455
07&
#460
#465
b00000000000000000000010010010011 #
b00000000000000000000000000010111 +
b00000 C
b01001 S
b00000000000000000000000000001001 -!
b0100000001000 5!
b000000000000000000000 =!
b00000000000000000000100000001000 E!
b00000000000000000000000000000000 M!
b00000000000000000000000000000000 U!
17"
b00000000000000000000000000000000 ?"
b00000000000000000000000000101100 O"
b00000000000000000000000000000000 W"
b00000000000000000000000000101000 g"
b01000 w"
b0010011 I#
b00000000000000000000000000001001 Y#
17&
#470
#475
07&
#480
#485
b00000000000100000000100100010011 #
b00000000000000000000000000011000 +
b00001 ;
b10010 S
b000000000001 k
b00000000000000000000000000000001 s
b00000000000000000000000000000001 {
b00000000000000000000000000000001 %!
b00000000000000000000000000010010 -!
b0000000010010 5!
b000000000100000000000 =!
b00000000000000000000000000010010 E!
b00000000000000000000100000000000 M!
b00000000000000000000000000000001 ]!
07"
b00000000000000000000000000000001 ?"
b00000000000000000000000000110000 O"
b00000000000000000000000000000001 W"
b00000000000000000000000000101100 g"
b01001 w"
17&
#490
#495
07&
#500
#505
b00000000100000000000111001100011 #
b00000000000000000000000000011001 +
b01000 ;
b11100 S
b1100011 [
b00000000000000000000000000011000 c
b000000001000 k
b00000000000000000000000000001000 s
b00000000000000000000000000001000 {
b00000000000000000000000000001000 %!
b00000000000000000000000000011100 -!
b0000000011100 5!
b000000000000000001000 =!
b00000000000000000000000000011100 E!
b00000000000000000000000000001000 M!
b00000000000000000000000000001001 ]!
b00010 m!
b11111111111111111111111111110111 ?"
0G"
b00000000000000000000000000110100 O"
b11111111111111111111111111110111 W"
b00000000000000000000000000110000 g"
b10010 w"
17&
#510
#515
07&
#520
#525
b00000001001001000000110001100011 #
b00000000000000000000000000011010 +
b10010 ;
b01000 C
b11000 S
b000000010010 k
b00000000000000000000000000010010 s
b00000000000000000000000000010010 {
b00000000000000000000000000010010 %!
b00000000000000000000000000011000 -!
b0000000011000 5!
b001000000000000010010 =!
b00000000000000000000000000011000 E!
b00000000000001000000000000010010 M!
b00000000000000000000000000001001 U!
b00000000000000000000000000000001 ]!
b00000000000000000000000000001000 ?"
b00000000000000000000000000111000 O"
b00000000000000000000000000001000 W"
b00000000000000000000000000110100 g"
b11100 w"
b1100011 I#
17&
#530
#535
07&
#540
#545
b11111111111101000000010100010011 #
b00000000000000000000000000011011 +
b1111111 3
b11111 ;
b01010 S
b0010011 [
b00000000000000000000000000000100 c
b111111111111 k
b11111111111111111111111111111111 s
b00000000000000000000000000011111 {
b11111111111111111111111111111111 %!
b00000000000000000000111111101010 -!
b1011111101010 5!
b101000000111111111110 =!
b11111111111111111111011111101010 E!
b11111111111101000000111111111110 M!
b11111111111111111111111111111111 ]!
b00001 m!
1G"
b00000000000000000000000000111100 O"
b00000000000000000000000000111000 g"
b11000 w"
17&
#550
#555
07&
#560
#565
b11111101010111111111000011101111 #
b00000000000000000000000000011100 +
b1111110 3
b10101 ;
b11111 C
b111 K
b00001 S
b1101111 [
b00000000000000000000000001111011 c
b111111010101 k
b11111111111111111111111111010101 s
b00000000000000000000000000010101 {
b11111111111111111111111111010101 %!
b00000000000000000000111111000001 -!
b1111111000000 5!
b111111111111111010100 =!
b11111111111111111111111111000000 E!
b11111111111111111111111111010100 M!
b00000000000000000000000000000000 U!
b00000000000000000000000000000000 ]!
17"
b00000000000000000000000000000000 ?"
b00000000000000000000000000010000 O"
b00000000000000000000000001000000 W"
b00000000000000000000000000111100 g"
b01010 w"
b0010011 I#
b00000000000000000000000000001000 [#
17&
#570
#575
07&
#580
#585
b11111111000000010000000100010011 #
b00000000000000000000000000011101 +
b1111111 3
b10000 ;
b00010 C
b000 K
b00010 S
b0010011 [
b00000000000000000000000000000100 c
b111111110000 k
b11111111111111111111111111110000 s
b00000000000000000000000000010000 {
b11111111111111111111111111110000 %!
b00000000000000000000111111100010 -!
b1011111100010 5!
b100010000011111110000 =!
b11111111111111111111011111100010 E!
b11111111111100010000011111110000 M!
b00000000000000000000000011100000 U!
b11111111111111111111111111110000 ]!
07"
b00000000000000000000000011010000 ?"
b00000000000000000000000000010100 O"
b00000000000000000000000011010000 W"
b00000000000000000000000000010000 g"
b00000000000000000000000000001000 o"
b00001 w"
b1101111 I#
17&
#590
#595
07&
#600
#605
b00000000100000010010010000100011 #
b00000000000000000000000000011110 +
b0000000 3
b01000 ;
b010 K
b01000 S
b0100011 [
b00000000000000000000000001001000 c
b000000001000 k
b00000000000000000000000000001000 s
b00000000000000000000000000001000 {
b00000000000000000000000000001000 %!
b00000000000000000000000000001000 -!
b0000000001000 5!
b000010010000000001000 =!
b00000000000000000000000000001000 E!
b00000000000000010010000000001000 M!
b00000000000000000000000011010000 U!
b00000000000000000000000000001001 ]!
b00000000000000000000000011011000 u!
b00000000000000000000000000001001 }!
b00000000000000000000000011011001 ?"
0G"
b00000000000000000000000000011000 O"
b00000000000000000000000011011001 W"
b00000000000000000000000000010100 g"
b00010 w"
b0010011 I#
b00000000000000000000000011010000 S#
17&
#610
#615
07&
#620
#625
b00000000100100010010001000100011 #
b00000000000000000000000000011111 +
b01001 ;
b00100 S
b000000001001 k
b00000000000000000000000000001001 s
b00000000000000000000000000001001 {
b00000000000000000000000000001001 %!
b00000000000000000000000000000100 -!
b0000000000100 5!
b000010010100000001000 =!
b00000000000000000000000000000100 E!
b00000000000000010010100000001000 M!
b00000000000000000000000000000000 ]!
b00000000000000000000000011010100 u!
b00000000000000000000000000000000 }!
b00000000000000000000000011010000 ?"
b00000000000000000000000000011100 O"
b00000000000000000000000011010000 W"
b00000000000000000000000000011000 g"
b01000 w"
b00000000000000000000000011010000 1#
b0100011 I#
17&
#630
#635
07&
#640
#645
b00000001001000010010000000100011 #
b00000000000000000000000000100000 +
b10010 ;
b00000 S
b000000010010 k
b00000000000000000000000000010010 s
b00000000000000000000000000010010 {
b00000000000000000000000000010010 %!
b00000000000000000000000000000000 -!
b0000000000000 5!
b000010010000000010010 =!
b00000000000000000000000000000000 E!
b00000000000000010010000000010010 M!
b00000000000000000000000000000001 ]!
b00000000000000000000000011010000 u!
b00000000000000000000000000000001 }!
b00000000000000000000000011010001 ?"
b00000000000000000000000000100000 O"
b00000000000000000000000011010001 W"
b00000000000000000000000000011100 g"
b00100 w"
17&
#650
#655
07&
#660
#665
b00000000000100010010011000100011 #
b00000000000000000000000000100001 +
b00001 ;
b01100 S
b000000000001 k
b00000000000000000000000000000001 s
b00000000000000000000000000000001 {
b00000000000000000000000000000001 %!
b00000000000000000000000000001100 -!
b0000000001100 5!
b000010010100000000000 =!
b00000000000000000000000000001100 E!
b00000000000000010010100000000000 M!
b00000000000000000000000001000000 ]!
b00000000000000000000000011011100 u!
b00000000000000000000000001000000 }!
b00000000000000000000000100010000 ?"
b00000000000000000000000000100100 O"
b00000000000000000000000100010000 W"
b00000000000000000000000000100000 g"
b00000 w"
17&
#670
#675
07&
#680
#685
b00000000000001010000010000010011 #
b00000000000000000000000000100010 +
b00000 ;
b01010 C
b000 K
b01000 S
b0010011 [
b00000000000000000000000000000100 c
b000000000000 k
b00000000000000000000000000000000 s
b00000000000000000000000000000000 {
b00000000000000000000000000000000 %!
b00000000000000000000000000001000 -!
b0000000001000 5!
b001010000000000000000 =!
b00000000000000000000000000001000 E!
b00000000000001010000000000000000 M!
b00000000000000000000000000001000 U!
b00000000000000000000000000000000 ]!
b00000000000000000000000000001000 ?"
1G"
b00000000000000000000000000101000 O"
b00000000000000000000000000001000 W"
b00000000000000000000000000100100 g"
b01100 w"
17&
#690
#695
07&
#700
#705
b00000000000000000000010010010011 #
b00000000000000000000000000100011 +
b00000 C
b01001 S
b00000000000000000000000000001001 -!
b0100000001000 5!
b000000000000000000000 =!
b00000000000000000000100000001000 E!
b00000000000000000000000000000000 M!
b00000000000000000000000000000000 U!
17"
b00000000000000000000000000000000 ?"
b00000000000000000000000000101100 O"
b00000000000000000000000000000000 W"
b00000000000000000000000000101000 g"
b01000 w"
b0010011 I#
b00000000000000000000000000001000 Y#
17&
#710
#715
07&
#720
#725
b00000000000100000000100100010011 #
b00000000000000000000000000100100 +
b00001 ;
b10010 S
b000000000001 k
b00000000000000000000000000000001 s
b00000000000000000000000000000001 {
b00000000000000000000000000000001 %!
b00000000000000000000000000010010 -!
b0000000010010 5!
b000000000100000000000 =!
b00000000000000000000000000010010 E!
b00000000000000000000100000000000 M!
b00000000000000000000000000000001 ]!
07"
b00000000000000000000000000000001 ?"
b00000000000000000000000000110000 O"
b00000000000000000000000000000001 W"
b00000000000000000000000000101100 g"
b01001 w"
17&
#730
#735
07&
#740
#745
b00000000100000000000111001100011 #
b00000000000000000000000000100101 +
b01000 ;
b11100 S
b1100011 [
b00000000000000000000000000011000 c
b000000001000 k
b00000000000000000000000000001000 s
b00000000000000000000000000001000 {
b00000000000000000000000000001000 %!
b00000000000000000000000000011100 -!
b0000000011100 5!
b000000000000000001000 =!
b00000000000000000000000000011100 E!
b00000000000000000000000000001000 M!
b00000000000000000000000000001000 ]!
b00010 m!
b11111111111111111111111111111000 ?"
0G"
b00000000000000000000000000110100 O"
b11111111111111111111111111111000 W"
b00000000000000000000000000110000 g"
b10010 w"
17&
#750
#755
07&
#760
#765
b00000001001001000000110001100011 #
b00000000000000000000000000100110 +
b10010 ;
b01000 C
b11000 S
b000000010010 k
b00000000000000000000000000010010 s
b00000000000000000000000000010010 {
b00000000000000000000000000010010 %!
b00000000000000000000000000011000 -!
b0000000011000 5!
b001000000000000010010 =!
b00000000000000000000000000011000 E!
b00000000000001000000000000010010 M!
b00000000000000000000000000001000 U!
b00000000000000000000000000000001 ]!
b00000000000000000000000000000111 ?"
b00000000000000000000000000111000 O"
b00000000000000000000000000000111 W"
b00000000000000000000000000110100 g"
b11100 w"
b1100011 I#
17&
#770
#775
07&
#780
