lab4-lwsw/gtkwave.vcd
$version Generated by VerilatedVcd $end
$date Wed Sep 21 13:44:58 2022
 $end
$timescale   1ns $end

 $scope module TOP $end
  $var wire  1 e% clock $end
  $var wire  1 m% reset $end
  $scope module testbench $end
   $var wire 32 u% MEM_ADDR_WIDTH [31:0] $end
   $var wire  1 e% clock $end
   $var wire 32 + cycles [31:0] $end
   $var wire 32 7" imem_addr [31:0] $end
   $var wire 32 # imem_data [31:0] $end
   $var wire 32 }% out [31:0] $end
   $var wire  1 '& out_valid $end
   $var wire  1 m% reset $end
   $var wire  1 /" trap $end
   $var wire 32 ?" x10 [31:0] $end
   $scope module dut $end
    $var wire  1 /& alu_eq $end
    $var wire  1 M! alu_eq_zero $end
    $var wire  5 m! alu_op [4:0] $end
    $var wire 32 ]! alu_op_a [31:0] $end
    $var wire 32 ]! alu_op_a_signed [31:0] $end
    $var wire 32 e! alu_op_b [31:0] $end
    $var wire 32 e! alu_op_b_signed [31:0] $end
    $var wire 32 U! alu_result [31:0] $end
    $var wire  1 e% clock $end
    $var wire  7 w" d_opcode [6:0] $end
    $var wire  5 G" d_rd [4:0] $end
    $var wire 32 O" d_x0 [31:0] $end
    $var wire 32 W" d_x1 [31:0] $end
    $var wire 32 _" d_x2 [31:0] $end
    $var wire 32 g" d_x3 [31:0] $end
    $var wire 32 o" d_x4 [31:0] $end
    $var wire  1 3 illegalinsn $end
    $var wire 32 7" imem_addr [31:0] $end
    $var wire 32 # imem_data [31:0] $end
    $var wire 13 -! imm_b [12:0] $end
    $var wire 32 =! imm_b_sext [31:0] $end
    $var wire 12 k imm_i [11:0] $end
    $var wire 32 s imm_i_sext [31:0] $end
    $var wire 21 5! imm_j [20:0] $end
    $var wire 32 E! imm_j_sext [31:0] $end
    $var wire 32 { imm_shift [31:0] $end
    $var wire 32 %! imm_val [31:0] $end
    $var wire 32 # insn [31:0] $end
    $var wire  3 S insn_funct3 [2:0] $end
    $var wire  7 ; insn_funct7 [6:0] $end
    $var wire  7 c insn_opcode [6:0] $end
    $var wire  5 [ insn_rd [4:0] $end
    $var wire  5 K insn_rs1 [4:0] $end
    $var wire  5 C insn_rs2 [4:0] $end
    $var wire 32 }! npc [31:0] $end
    $var wire 32 7" pc [31:0] $end
    $var wire 32 !# regfile(0) [31:0] $end
    $var wire 32 "# regfile(1) [31:0] $end
    $var wire 32 +# regfile(10) [31:0] $end
    $var wire 32 ,# regfile(11) [31:0] $end
    $var wire 32 -# regfile(12) [31:0] $end
    $var wire 32 .# regfile(13) [31:0] $end
    $var wire 32 /# regfile(14) [31:0] $end
    $var wire 32 0# regfile(15) [31:0] $end
    $var wire 32 1# regfile(16) [31:0] $end
    $var wire 32 2# regfile(17) [31:0] $end
    $var wire 32 3# regfile(18) [31:0] $end
    $var wire 32 4# regfile(19) [31:0] $end
    $var wire 32 ## regfile(2) [31:0] $end
    $var wire 32 5# regfile(20) [31:0] $end
    $var wire 32 6# regfile(21) [31:0] $end
    $var wire 32 7# regfile(22) [31:0] $end
    $var wire 32 8# regfile(23) [31:0] $end
    $var wire 32 9# regfile(24) [31:0] $end
    $var wire 32 :# regfile(25) [31:0] $end
    $var wire 32 ;# regfile(26) [31:0] $end
    $var wire 32 <# regfile(27) [31:0] $end
    $var wire 32 =# regfile(28) [31:0] $end
    $var wire 32 ># regfile(29) [31:0] $end
    $var wire 32 $# regfile(3) [31:0] $end
    $var wire 32 ?# regfile(30) [31:0] $end
    $var wire 32 @# regfile(31) [31:0] $end
    $var wire 32 %# regfile(4) [31:0] $end
    $var wire 32 &# regfile(5) [31:0] $end
    $var wire 32 '# regfile(6) [31:0] $end
    $var wire 32 (# regfile(7) [31:0] $end
    $var wire 32 )# regfile(8) [31:0] $end
    $var wire 32 *# regfile(9) [31:0] $end
    $var wire  1 u! regwrite $end
    $var wire  1 m% reset $end
    $var wire 32 '" rfilewdata [31:0] $end
    $var wire  1 /" trap $end
    $var wire  1 /" trapped $end
    $var wire 32 ?" x10 [31:0] $end
    $scope module alu_1 $end
     $var wire  5 m! alu_function [4:0] $end
     $var wire 32 ]! op_a [31:0] $end
     $var wire 32 ]! op_a_signed [31:0] $end
     $var wire 32 e! op_b [31:0] $end
     $var wire 32 e! op_b_signed [31:0] $end
     $var wire 32 U! result [31:0] $end
     $var wire  1 M! result_eq_zero $end
    $upscope $end
   $upscope $end
  $upscope $end
 $upscope $end
$enddefinitions $end


#5
b00001101000000000000000010010011 #
b00000000000000000000000000000000 +
03
b0000110 ;
b10000 C
b00000 K
b000 S
b00001 [
b0010011 c
b000011010000 k
b00000000000000000000000011010000 s
b00000000000000000000000000010000 {
b00000000000000000000000011010000 %!
b0100011000000 -!
b000000000000011010000 5!
b00000000000000000000100011000000 =!
b00000000000000000000000011010000 E!
0M!
b00000000000000000000000011010000 U!
b00000000000000000000000000000000 ]!
b00000000000000000000000011010000 e!
b00001 m!
1u!
b00000000000000000000000000000100 }!
b00000000000000000000000011010000 '"
0/"
b00000000000000000000000000000000 7"
b00000000000000000000000000000000 ?"
b00000 G"
b00000000000000000000000000000000 O"
b00000000000000000000000000000000 W"
b00000000000000000000000000000000 _"
b00000000000000000000000000000000 g"
b00000000000000000000000000000000 o"
b0000000 w"
b00000000000000000000000000000000 !#
b00000000000000000000000000000000 "#
b00000000000000000000000000000000 ##
b00000000000000000000000000000000 $#
b00000000000000000000000000000000 %#
b00000000000000000000000000000000 &#
b00000000000000000000000000000000 '#
b00000000000000000000000000000000 (#
b00000000000000000000000000000000 )#
b00000000000000000000000000000000 *#
b00000000000000000000000000000000 +#
b00000000000000000000000000000000 ,#
b00000000000000000000000000000000 -#
b00000000000000000000000000000000 .#
b00000000000000000000000000000000 /#
b00000000000000000000000000000000 0#
b00000000000000000000000000000000 1#
b00000000000000000000000000000000 2#
b00000000000000000000000000000000 3#
b00000000000000000000000000000000 4#
b00000000000000000000000000000000 5#
b00000000000000000000000000000000 6#
b00000000000000000000000000000000 7#
b00000000000000000000000000000000 8#
b00000000000000000000000000000000 9#
b00000000000000000000000000000000 :#
b00000000000000000000000000000000 ;#
b00000000000000000000000000000000 <#
b00000000000000000000000000000000 =#
b00000000000000000000000000000000 >#
b00000000000000000000000000000000 ?#
b00000000000000000000000000000000 @#
0e%
0m%
b00000000000000000000000000010000 u%
b00000000000000000000000000000000 }%
0'&
0/&
#10
#15
1m%
#20
#25
b00000000000000000000000000000001 +
b00001 G"
b0010011 w"
1e%
#30
#35
0e%
#40
#45
b00000000000000000000000000000010 +
1e%
#50
#55
0e%
0m%
#60
#65
b00000010010000000000000100010011 #
b00000000000000000000000000000011 +
b0000001 ;
b00100 C
b00010 [
b000000100100 k
b00000000000000000000000000100100 s
b00000000000000000000000000000100 {
b00000000000000000000000000100100 %!
b0000000100010 -!
b000000000000000100100 5!
b00000000000000000000000000100010 =!
b00000000000000000000000000100100 E!
b00000000000000000000000000100100 U!
b00000000000000000000000000100100 e!
b00000000000000000000000000001000 }!
b00000000000000000000000000100100 '"
b00000000000000000000000000000100 7"
b00000000000000000000000011010000 "#
1e%
#70
#75
0e%
#80
#85
b00000000000100010010000000100011 #
b00000000000000000000000000000100 +
13
b0000000 ;
b00001 C
b00010 K
b010 S
b00000 [
b0100011 c
b000000000001 k
b00000000000000000000000000000001 s
b00000000000000000000000000000001 {
b00000000000000000000000000000001 %!
b0000000000000 -!
b000010010100000000000 5!
b00000000000000000000000000000000 =!
b00000000000000010010100000000000 E!
b00000000000000000000000011110100 U!
b00000000000000000000000000100100 ]!
b00000000000000000000000011010000 e!
0u!
b00000000000000000000000000001100 }!
b00000000000000000000000011110100 '"
b00000000000000000000000000001000 7"
b00010 G"
b00000000000000000000000011010000 W"
b00000000000000000000000000100100 ##
1e%
#90
#95
0e%
#100
#105
b11111111110000010000000100010011 #
b00000000000000000000000000000101 +
03
b1111111 ;
b11100 C
b000 S
b00010 [
b0010011 c
b111111111100 k
b11111111111111111111111111111100 s
b00000000000000000000000000011100 {
b11111111111111111111111111111100 %!
b1011111100010 -!
b100010000011111111100 5!
b11111111111111111111011111100010 =!
b11111111111100010000011111111100 E!
b00000000000000000000000000100000 U!
b11111111111111111111111111111100 e!
1u!
b00000000000000000000000000010000 }!
b00000000000000000000000000100000 '"
1/"
b00000000000000000000000000001100 7"
b00000 G"
b00000000000000000000000000100100 _"
b0100011 w"
1e%
