lab4-lwsw/gtkwave.vcd
$version Generated by VerilatedVcd $end
$date Wed Sep 21 15:45:31 2022
 $end
$timescale   1ns $end

 $scope module TOP $end
  $var wire  1 m% clock $end
  $var wire  1 u% reset $end
  $scope module testbench $end
   $var wire 32 }% MEM_ADDR_WIDTH [31:0] $end
   $var wire  1 m% clock $end
   $var wire 32 + cycles [31:0] $end
   $var wire 32 ?" imem_addr [31:0] $end
   $var wire 32 # imem_data [31:0] $end
   $var wire 32 '& out [31:0] $end
   $var wire  1 /& out_valid $end
   $var wire  1 u% reset $end
   $var wire  1 7" trap $end
   $var wire 32 G" x10 [31:0] $end
   $scope module dut $end
    $var wire  1 7& alu_eq $end
    $var wire  1 U! alu_eq_zero $end
    $var wire  5 u! alu_op [4:0] $end
    $var wire 32 e! alu_op_a [31:0] $end
    $var wire 32 e! alu_op_a_signed [31:0] $end
    $var wire 32 m! alu_op_b [31:0] $end
    $var wire 32 m! alu_op_b_signed [31:0] $end
    $var wire 32 ]! alu_result [31:0] $end
    $var wire  1 m% clock $end
    $var wire  7 !# d_opcode [6:0] $end
    $var wire  5 O" d_rd [4:0] $end
    $var wire 32 W" d_x0 [31:0] $end
    $var wire 32 _" d_x1 [31:0] $end
    $var wire 32 g" d_x2 [31:0] $end
    $var wire 32 o" d_x3 [31:0] $end
    $var wire 32 w" d_x4 [31:0] $end
    $var wire  1 3 illegalinsn $end
    $var wire 32 ?" imem_addr [31:0] $end
    $var wire 32 # imem_data [31:0] $end
    $var wire 13 5! imm_b [12:0] $end
    $var wire 32 E! imm_b_sext [31:0] $end
    $var wire 12 k imm_i [11:0] $end
    $var wire 32 s imm_i_sext [31:0] $end
    $var wire 21 =! imm_j [20:0] $end
    $var wire 32 M! imm_j_sext [31:0] $end
    $var wire 32 { imm_shift [31:0] $end
    $var wire 32 -! imm_sw [31:0] $end
    $var wire 32 %! imm_val [31:0] $end
    $var wire 32 # insn [31:0] $end
    $var wire  3 S insn_funct3 [2:0] $end
    $var wire  7 ; insn_funct7 [6:0] $end
    $var wire  7 c insn_opcode [6:0] $end
    $var wire  5 [ insn_rd [4:0] $end
    $var wire  5 K insn_rs1 [4:0] $end
    $var wire  5 C insn_rs2 [4:0] $end
    $var wire 32 '" npc [31:0] $end
    $var wire 32 ?" pc [31:0] $end
    $var wire 32 )# regfile(0) [31:0] $end
    $var wire 32 *# regfile(1) [31:0] $end
    $var wire 32 3# regfile(10) [31:0] $end
    $var wire 32 4# regfile(11) [31:0] $end
    $var wire 32 5# regfile(12) [31:0] $end
    $var wire 32 6# regfile(13) [31:0] $end
    $var wire 32 7# regfile(14) [31:0] $end
    $var wire 32 8# regfile(15) [31:0] $end
    $var wire 32 9# regfile(16) [31:0] $end
    $var wire 32 :# regfile(17) [31:0] $end
    $var wire 32 ;# regfile(18) [31:0] $end
    $var wire 32 <# regfile(19) [31:0] $end
    $var wire 32 +# regfile(2) [31:0] $end
    $var wire 32 =# regfile(20) [31:0] $end
    $var wire 32 ># regfile(21) [31:0] $end
    $var wire 32 ?# regfile(22) [31:0] $end
    $var wire 32 @# regfile(23) [31:0] $end
    $var wire 32 A# regfile(24) [31:0] $end
    $var wire 32 B# regfile(25) [31:0] $end
    $var wire 32 C# regfile(26) [31:0] $end
    $var wire 32 D# regfile(27) [31:0] $end
    $var wire 32 E# regfile(28) [31:0] $end
    $var wire 32 F# regfile(29) [31:0] $end
    $var wire 32 ,# regfile(3) [31:0] $end
    $var wire 32 G# regfile(30) [31:0] $end
    $var wire 32 H# regfile(31) [31:0] $end
    $var wire 32 -# regfile(4) [31:0] $end
    $var wire 32 .# regfile(5) [31:0] $end
    $var wire 32 /# regfile(6) [31:0] $end
    $var wire 32 0# regfile(7) [31:0] $end
    $var wire 32 1# regfile(8) [31:0] $end
    $var wire 32 2# regfile(9) [31:0] $end
    $var wire  1 }! regwrite $end
    $var wire  1 u% reset $end
    $var wire 32 /" rfilewdata [31:0] $end
    $var wire  1 7" trap $end
    $var wire  1 7" trapped $end
    $var wire 32 G" x10 [31:0] $end
    $scope module alu_1 $end
     $var wire  5 u! alu_function [4:0] $end
     $var wire 32 e! op_a [31:0] $end
     $var wire 32 e! op_a_signed [31:0] $end
     $var wire 32 m! op_b [31:0] $end
     $var wire 32 m! op_b_signed [31:0] $end
     $var wire 32 ]! result [31:0] $end
     $var wire  1 U! result_eq_zero $end
    $upscope $end
   $upscope $end
  $upscope $end
 $upscope $end
$enddefinitions $end


#5
b00001101000000000000000010010011 #
b00000000000000000000000000000000 +
03
b0000110 ;
b10000 C
b00000 K
b000 S
b00001 [
b0010011 c
b000011010000 k
b00000000000000000000000011010000 s
b00000000000000000000000000010000 {
b00000000000000000000000011010000 %!
b00000000000000000000000011000001 -!
b0100011000000 5!
b000000000000011010000 =!
b00000000000000000000100011000000 E!
b00000000000000000000000011010000 M!
0U!
b00000000000000000000000011010000 ]!
b00000000000000000000000000000000 e!
b00000000000000000000000011010000 m!
b00001 u!
1}!
b00000000000000000000000000000100 '"
b00000000000000000000000011010000 /"
07"
b00000000000000000000000000000000 ?"
b00000000000000000000000000000000 G"
b00000 O"
b00000000000000000000000000000000 W"
b00000000000000000000000000000000 _"
b00000000000000000000000000000000 g"
b00000000000000000000000000000000 o"
b00000000000000000000000000000000 w"
b0000000 !#
b00000000000000000000000000000000 )#
b00000000000000000000000000000000 *#
b00000000000000000000000000000000 +#
b00000000000000000000000000000000 ,#
b00000000000000000000000000000000 -#
b00000000000000000000000000000000 .#
b00000000000000000000000000000000 /#
b00000000000000000000000000000000 0#
b00000000000000000000000000000000 1#
b00000000000000000000000000000000 2#
b00000000000000000000000000000000 3#
b00000000000000000000000000000000 4#
b00000000000000000000000000000000 5#
b00000000000000000000000000000000 6#
b00000000000000000000000000000000 7#
b00000000000000000000000000000000 8#
b00000000000000000000000000000000 9#
b00000000000000000000000000000000 :#
b00000000000000000000000000000000 ;#
b00000000000000000000000000000000 <#
b00000000000000000000000000000000 =#
b00000000000000000000000000000000 >#
b00000000000000000000000000000000 ?#
b00000000000000000000000000000000 @#
b00000000000000000000000000000000 A#
b00000000000000000000000000000000 B#
b00000000000000000000000000000000 C#
b00000000000000000000000000000000 D#
b00000000000000000000000000000000 E#
b00000000000000000000000000000000 F#
b00000000000000000000000000000000 G#
b00000000000000000000000000000000 H#
0m%
0u%
b00000000000000000000000000010000 }%
b00000000000000000000000000000000 '&
0/&
07&
#10
#15
1u%
#20
#25
b00000000000000000000000000000001 +
b00001 O"
b0010011 !#
1m%
#30
#35
0m%
#40
#45
b00000000000000000000000000000010 +
1m%
#50
#55
0m%
0u%
#60
#65
b00000010010000000000000100010011 #
b00000000000000000000000000000011 +
b0000001 ;
b00100 C
b00010 [
b000000100100 k
b00000000000000000000000000100100 s
b00000000000000000000000000000100 {
b00000000000000000000000000100100 %!
b00000000000000000000000000100010 -!
b0000000100010 5!
b000000000000000100100 =!
b00000000000000000000000000100010 E!
b00000000000000000000000000100100 M!
b00000000000000000000000000100100 ]!
b00000000000000000000000000100100 m!
b00000000000000000000000000001000 '"
b00000000000000000000000000100100 /"
b00000000000000000000000000000100 ?"
b00000000000000000000000011010000 *#
1m%
#70
#75
0m%
#80
#85
b00000000000100010010000000100011 #
b00000000000000000000000000000100 +
b0000000 ;
b00001 C
b00010 K
b010 S
b00000 [
b0100011 c
b000000000001 k
b00000000000000000000000000000001 s
b00000000000000000000000000000001 {
b00000000000000000000000000000001 %!
b00000000000000000000000000000000 -!
b0000000000000 5!
b000010010100000000000 =!
b00000000000000000000000000000000 E!
b00000000000000010010100000000000 M!
b11111111111111111111111101010100 ]!
b00000000000000000000000000100100 e!
b00000000000000000000000011010000 m!
b00010 u!
b00000000000000000000000000001100 '"
b00000000000000000000000000001000 ?"
b00010 O"
b00000000000000000000000011010000 _"
b00000000000000000000000000100100 +#
1m%
#90
#95
0m%
#100
#105
b11111111110000010000000100010011 #
b00000000000000000000000000000101 +
b1111111 ;
b11100 C
b000 S
b00010 [
b0010011 c
b111111111100 k
b11111111111111111111111111111100 s
b00000000000000000000000000011100 {
b11111111111111111111111111111100 %!
b00000000000000000000111111100010 -!
b1011111100010 5!
b100010000011111111100 =!
b11111111111111111111011111100010 E!
b11111111111100010000011111111100 M!
b00000000000000000000000000100000 ]!
b11111111111111111111111111111100 m!
b00001 u!
b00000000000000000000000000010000 '"
b00000000000000000000000000100000 /"
b00000000000000000000000000001100 ?"
b00000 O"
b00000000000000000000000000100100 g"
b0100011 !#
1m%
#110
#115
0m%
#120
#125
b00000000010000010010010100000011 #
b00000000000000000000000000000110 +
b0000000 ;
b00100 C
b010 S
b01010 [
b0000011 c
b000000000100 k
b00000000000000000000000000000100 s
b00000000000000000000000000000100 {
b00000000000000000000000000000100 %!
b00000000000000000000000000001010 -!
b0000000001010 5!
b000010010000000000100 =!
b00000000000000000000000000001010 E!
b00000000000000010010000000000100 M!
b00000000000000000000000000100000 e!
b00000000000000000000000000000000 m!
b00010 u!
b00000000000000000000000000010100 '"
b00000000000000000000000000000000 /"
b00000000000000000000000000010000 ?"
b00010 O"
b0010011 !#
b00000000000000000000000000100000 +#
1m%
#130
#135
0m%
#140
#145
b00001111111100000000000000001111 #
b00000000000000000000000000000111 +
13
b0000111 ;
b11111 C
b00000 K
b000 S
b00000 [
b0001111 c
b000011111111 k
b00000000000000000000000011111111 s
b00000000000000000000000000011111 {
b00000000000000000000000011111111 %!
b00000000000000000000000011100000 -!
b0000011100000 5!
b000000000100011111110 =!
b00000000000000000000000011100000 E!
b00000000000000000000100011111110 M!
1U!
b00000000000000000000000000000000 ]!
b00000000000000000000000000000000 e!
0}!
b00000000000000000000000000011000 '"
b00000000000000000000000000010100 ?"
b01010 O"
b00000000000000000000000000100000 g"
b0000011 !#
1m%
#150
#155
0m%
#160
#165
b00000000000000000000000000000000 #
b00000000000000000000000000001000 +
03
b0000000 ;
b00000 C
b0000000 c
b000000000000 k
b00000000000000000000000000000000 s
b00000000000000000000000000000000 {
b00000000000000000000000000000000 %!
b00000000000000000000000000000000 -!
b0000000000000 5!
b000000000000000000000 =!
b00000000000000000000000000000000 E!
b00000000000000000000000000000000 M!
b00001 u!
b00000000000000000000000000011100 '"
17"
b00000000000000000000000000011000 ?"
b00000 O"
b0001111 !#
1m%
