lab2-ritype/gtkwave.vcd
$version Generated by VerilatedVcd $end
$date Tue Sep 20 13:38:39 2022
 $end
$timescale   1ns $end

 $scope module TOP $end
  $var wire  1 S$ clock $end
  $var wire  1 [$ reset $end
  $scope module testbench $end
   $var wire 32 c$ MEM_ADDR_WIDTH [31:0] $end
   $var wire  1 S$ clock $end
   $var wire 32 + cycles [31:0] $end
   $var wire 32 ]! imem_addr [31:0] $end
   $var wire 32 # imem_data [31:0] $end
   $var wire 32 k$ out [31:0] $end
   $var wire  1 s$ out_valid $end
   $var wire  1 [$ reset $end
   $var wire 32 e! return_reg [31:0] $end
   $var wire  1 U! trap $end
   $scope module dut $end
    $var wire  1 {$ alu_eq $end
    $var wire  1 3 alu_eq_zero $end
    $var wire  5 S alu_op [4:0] $end
    $var wire 32 C alu_op_a [31:0] $end
    $var wire 32 K alu_op_b [31:0] $end
    $var wire 32 ; alu_result [31:0] $end
    $var wire  1 S$ clock $end
    $var wire  1 M! illegalinsn $end
    $var wire 32 ]! imem_addr [31:0] $end
    $var wire 32 # imem_data [31:0] $end
    $var wire 12 -! imm_i [11:0] $end
    $var wire 32 5! imm_i_sext [31:0] $end
    $var wire 32 =! imm_shift [31:0] $end
    $var wire 32 E! imm_val [31:0] $end
    $var wire 32 # insn [31:0] $end
    $var wire  3 s insn_funct3 [2:0] $end
    $var wire  7 [ insn_funct7 [6:0] $end
    $var wire  7 %! insn_opcode [6:0] $end
    $var wire  5 { insn_rd [4:0] $end
    $var wire  5 k insn_rs1 [4:0] $end
    $var wire  5 c insn_rs2 [4:0] $end
    $var wire 32 ]! pc [31:0] $end
    $var wire 32 m! regfile(0) [31:0] $end
    $var wire 32 n! regfile(1) [31:0] $end
    $var wire 32 w! regfile(10) [31:0] $end
    $var wire 32 x! regfile(11) [31:0] $end
    $var wire 32 y! regfile(12) [31:0] $end
    $var wire 32 z! regfile(13) [31:0] $end
    $var wire 32 {! regfile(14) [31:0] $end
    $var wire 32 |! regfile(15) [31:0] $end
    $var wire 32 }! regfile(16) [31:0] $end
    $var wire 32 ~! regfile(17) [31:0] $end
    $var wire 32 !" regfile(18) [31:0] $end
    $var wire 32 "" regfile(19) [31:0] $end
    $var wire 32 o! regfile(2) [31:0] $end
    $var wire 32 #" regfile(20) [31:0] $end
    $var wire 32 $" regfile(21) [31:0] $end
    $var wire 32 %" regfile(22) [31:0] $end
    $var wire 32 &" regfile(23) [31:0] $end
    $var wire 32 '" regfile(24) [31:0] $end
    $var wire 32 (" regfile(25) [31:0] $end
    $var wire 32 )" regfile(26) [31:0] $end
    $var wire 32 *" regfile(27) [31:0] $end
    $var wire 32 +" regfile(28) [31:0] $end
    $var wire 32 ," regfile(29) [31:0] $end
    $var wire 32 p! regfile(3) [31:0] $end
    $var wire 32 -" regfile(30) [31:0] $end
    $var wire 32 ." regfile(31) [31:0] $end
    $var wire 32 q! regfile(4) [31:0] $end
    $var wire 32 r! regfile(5) [31:0] $end
    $var wire 32 s! regfile(6) [31:0] $end
    $var wire 32 t! regfile(7) [31:0] $end
    $var wire 32 u! regfile(8) [31:0] $end
    $var wire 32 v! regfile(9) [31:0] $end
    $var wire  1 [$ reset $end
    $var wire 32 e! return_reg [31:0] $end
    $var wire  1 U! trap $end
    $var wire  1 U! trapped $end
    $scope module alu_1 $end
     $var wire  5 S alu_function [4:0] $end
     $var wire 32 C op_a [31:0] $end
     $var wire 32 C op_a_signed [31:0] $end
     $var wire 32 K op_b [31:0] $end
     $var wire 32 K op_b_signed [31:0] $end
     $var wire 32 ; result [31:0] $end
     $var wire  1 3 result_eq_zero $end
    $upscope $end
   $upscope $end
  $upscope $end
 $upscope $end
$enddefinitions $end


#5
b00001110000100000100000010010011 #
b00000000000000000000000000000000 +
03
b00000000000000000000000011100001 ;
b00000000000000000000000000000000 C
b00000000000000000000000011100001 K
b01001 S
b0000111 [
b00001 c
b00000 k
b100 s
b00001 {
b0010011 %!
b000011100001 -!
b00000000000000000000000011100001 5!
b00000000000000000000000000000001 =!
b00000000000000000000000011100001 E!
0M!
0U!
b00000000000000000000000000000000 ]!
b00000000000000000000000000000000 e!
b00000000000000000000000000000000 m!
b00000000000000000000000000000000 n!
b00000000000000000000000000000000 o!
b00000000000000000000000000000000 p!
b00000000000000000000000000000000 q!
b00000000000000000000000000000000 r!
b00000000000000000000000000000000 s!
b00000000000000000000000000000000 t!
b00000000000000000000000000000000 u!
b00000000000000000000000000000000 v!
b00000000000000000000000000000000 w!
b00000000000000000000000000000000 x!
b00000000000000000000000000000000 y!
b00000000000000000000000000000000 z!
b00000000000000000000000000000000 {!
b00000000000000000000000000000000 |!
b00000000000000000000000000000000 }!
b00000000000000000000000000000000 ~!
b00000000000000000000000000000000 !"
b00000000000000000000000000000000 ""
b00000000000000000000000000000000 #"
b00000000000000000000000000000000 $"
b00000000000000000000000000000000 %"
b00000000000000000000000000000000 &"
b00000000000000000000000000000000 '"
b00000000000000000000000000000000 ("
b00000000000000000000000000000000 )"
b00000000000000000000000000000000 *"
b00000000000000000000000000000000 +"
b00000000000000000000000000000000 ,"
b00000000000000000000000000000000 -"
b00000000000000000000000000000000 ."
0S$
0[$
b00000000000000000000000000010000 c$
b00000000000000000000000000000000 k$
0s$
0{$
#10
#15
1[$
#20
#25
b00000000000000000000000000000001 +
1S$
#30
#35
0S$
#40
#45
b00000000000000000000000000000010 +
1S$
#50
#55
0S$
0[$
#60
#65
b00000000101100001000000100010011 #
b00000000000000000000000000000011 +
b00000000000000000000000011101100 ;
b00000000000000000000000011100001 C
b00000000000000000000000000001011 K
b00001 S
b0000000 [
b01011 c
b00001 k
b000 s
b00010 {
b000000001011 -!
b00000000000000000000000000001011 5!
b00000000000000000000000000001011 =!
b00000000000000000000000000001011 E!
b00000000000000000000000000000100 ]!
b00000000000000000000000011100001 n!
1S$
#70
#75
0S$
#80
#85
b00000011011000000110000110010011 #
b00000000000000000000000000000100 +
b00000000000000000000000000110110 ;
b00000000000000000000000000000000 C
b00000000000000000000000000110110 K
b01010 S
b0000001 [
b10110 c
b00000 k
b110 s
b00011 {
b000000110110 -!
b00000000000000000000000000110110 5!
b00000000000000000000000000010110 =!
b00000000000000000000000000110110 E!
b00000000000000000000000000001000 ]!
b00000000000000000000000011101100 o!
1S$
#90
#95
0S$
#100
#105
b00000001000000010001000100010011 #
b00000000000000000000000000000101 +
b00000000111011000000000000000000 ;
b00000000000000000000000011101100 C
b00000000000000000000000000010000 K
b00011 S
b0000000 [
b10000 c
b00010 k
b001 s
b00010 {
b000000010000 -!
b00000000000000000000000000010000 5!
b00000000000000000000000000010000 =!
b00000000000000000000000000010000 E!
b00000000000000000000000000001100 ]!
b00000000000000000000000000110110 p!
1S$
#110
#115
0S$
#120
#125
b00000001100000001001010100010011 #
b00000000000000000000000000000110 +
b11100001000000000000000000000000 ;
b00000000000000000000000011100001 C
b00000000000000000000000000011000 K
b11000 c
b00001 k
b01010 {
b000000011000 -!
b00000000000000000000000000011000 5!
b00000000000000000000000000011000 =!
b00000000000000000000000000011000 E!
b00000000000000000000000000010000 ]!
b00000000111011000000000000000000 o!
1S$
#130
#135
0S$
#140
#145
b00000000001001010000010100110011 #
b00000000000000000000000000000111 +
b11100001111011000000000000000000 ;
b11100001000000000000000000000000 C
b00000000111011000000000000000000 K
b00001 S
b00010 c
b01010 k
b000 s
b0110011 %!
b000000000010 -!
b00000000000000000000000000000010 5!
b00000000000000000000000000000010 =!
b00000000000000000000000000000010 E!
b00000000000000000000000000010100 ]!
b11100001000000000000000000000000 w!
1S$
#150
#155
0S$
#160
#165
b00000000100000011001000110010011 #
b00000000000000000000000000001000 +
b00000000000000000011011000000000 ;
b00000000000000000000000000110110 C
b00000000000000000000000000001000 K
b00011 S
b01000 c
b00011 k
b001 s
b00011 {
b0010011 %!
b000000001000 -!
b00000000000000000000000000001000 5!
b00000000000000000000000000001000 =!
b00000000000000000000000000001000 E!
b00000000000000000000000000011000 ]!
b11100001000000000000000000000000 e!
b11100001111011000000000000000000 w!
1S$
#170
#175
0S$
#180
#185
b00000000100000011000000110010011 #
b00000000000000000000000000001001 +
b00000000000000000011011000001000 ;
b00000000000000000011011000000000 C
b00001 S
b000 s
b00000000000000000000000000011100 ]!
b11100001111011000000000000000000 e!
b00000000000000000011011000000000 p!
1S$
#190
#195
0S$
#200
#205
b00000000101000011000010100110011 #
b00000000000000000000000000001010 +
b11100001111011000011011000001000 ;
b00000000000000000011011000001000 C
b11100001111011000000000000000000 K
b01010 c
b01010 {
b0110011 %!
b000000001010 -!
b00000000000000000000000000001010 5!
b00000000000000000000000000001010 =!
b00000000000000000000000000001010 E!
b00000000000000000000000000100000 ]!
b00000000000000000011011000001000 p!
1S$
#210
#215
0S$
#220
#225
b00000000000100000000000001110011 #
b00000000000000000000000000001011 +
b00000000000000000000000011100001 ;
b00000000000000000000000000000000 C
b00000000000000000000000011100001 K
b00001 c
b00000 k
b00000 {
b1110011 %!
b000000000001 -!
b00000000000000000000000000000001 5!
b00000000000000000000000000000001 =!
b00000000000000000000000000000001 E!
1M!
b00000000000000000000000000100100 ]!
b11100001111011000011011000001000 w!
1S$
#230
#235
0S$
#240
#245
b00000000000000000000000000000000 #
b00000000000000000000000000001100 +
b00000000000000000000000111000010 ;
b00000000000000000000000011100001 C
b00000 c
b0000000 %!
b000000000000 -!
b00000000000000000000000000000000 5!
b00000000000000000000000000000000 =!
b00000000000000000000000000000000 E!
0M!
1U!
b00000000000000000000000000101000 ]!
b11100001111011000011011000001000 e!
b00000000000000000000000011100001 m!
1S$
#250
#255
0S$
#260
#265
b00000000000000000000000000001101 +
1S$
