lab3-brjmp/gtkwave.vcd
$version Generated by VerilatedVcd $end
$date Tue Sep 20 16:22:58 2022
 $end
$timescale   1ns $end

 $scope module TOP $end
  $var wire  1 e% clock $end
  $var wire  1 m% reset $end
  $scope module testbench $end
   $var wire 32 u% MEM_ADDR_WIDTH [31:0] $end
   $var wire  1 e% clock $end
   $var wire 32 + cycles [31:0] $end
   $var wire 32 7" imem_addr [31:0] $end
   $var wire 32 # imem_data [31:0] $end
   $var wire 32 }% out [31:0] $end
   $var wire  1 '& out_valid $end
   $var wire  1 m% reset $end
   $var wire  1 /" trap $end
   $var wire 32 ?" x10 [31:0] $end
   $scope module dut $end
    $var wire  1 /& alu_eq $end
    $var wire  1 M! alu_eq_zero $end
    $var wire  5 m! alu_op [4:0] $end
    $var wire 32 ]! alu_op_a [31:0] $end
    $var wire 32 e! alu_op_b [31:0] $end
    $var wire 32 U! alu_result [31:0] $end
    $var wire  1 e% clock $end
    $var wire  7 w" d_opcode [6:0] $end
    $var wire  5 G" d_rd [4:0] $end
    $var wire 32 O" d_x0 [31:0] $end
    $var wire 32 W" d_x1 [31:0] $end
    $var wire 32 _" d_x2 [31:0] $end
    $var wire 32 g" d_x3 [31:0] $end
    $var wire 32 o" d_x4 [31:0] $end
    $var wire  1 3 illegalinsn $end
    $var wire 32 7" imem_addr [31:0] $end
    $var wire 32 # imem_data [31:0] $end
    $var wire 13 -! imm_b [12:0] $end
    $var wire 32 =! imm_b_sext [31:0] $end
    $var wire 12 k imm_i [11:0] $end
    $var wire 32 s imm_i_sext [31:0] $end
    $var wire 21 5! imm_j [20:0] $end
    $var wire 32 E! imm_j_sext [31:0] $end
    $var wire 32 { imm_shift [31:0] $end
    $var wire 32 %! imm_val [31:0] $end
    $var wire 32 # insn [31:0] $end
    $var wire  3 S insn_funct3 [2:0] $end
    $var wire  7 ; insn_funct7 [6:0] $end
    $var wire  7 c insn_opcode [6:0] $end
    $var wire  5 [ insn_rd [4:0] $end
    $var wire  5 K insn_rs1 [4:0] $end
    $var wire  5 C insn_rs2 [4:0] $end
    $var wire 32 }! npc [31:0] $end
    $var wire 32 7" pc [31:0] $end
    $var wire 32 !# regfile(0) [31:0] $end
    $var wire 32 "# regfile(1) [31:0] $end
    $var wire 32 +# regfile(10) [31:0] $end
    $var wire 32 ,# regfile(11) [31:0] $end
    $var wire 32 -# regfile(12) [31:0] $end
    $var wire 32 .# regfile(13) [31:0] $end
    $var wire 32 /# regfile(14) [31:0] $end
    $var wire 32 0# regfile(15) [31:0] $end
    $var wire 32 1# regfile(16) [31:0] $end
    $var wire 32 2# regfile(17) [31:0] $end
    $var wire 32 3# regfile(18) [31:0] $end
    $var wire 32 4# regfile(19) [31:0] $end
    $var wire 32 ## regfile(2) [31:0] $end
    $var wire 32 5# regfile(20) [31:0] $end
    $var wire 32 6# regfile(21) [31:0] $end
    $var wire 32 7# regfile(22) [31:0] $end
    $var wire 32 8# regfile(23) [31:0] $end
    $var wire 32 9# regfile(24) [31:0] $end
    $var wire 32 :# regfile(25) [31:0] $end
    $var wire 32 ;# regfile(26) [31:0] $end
    $var wire 32 <# regfile(27) [31:0] $end
    $var wire 32 =# regfile(28) [31:0] $end
    $var wire 32 ># regfile(29) [31:0] $end
    $var wire 32 $# regfile(3) [31:0] $end
    $var wire 32 ?# regfile(30) [31:0] $end
    $var wire 32 @# regfile(31) [31:0] $end
    $var wire 32 %# regfile(4) [31:0] $end
    $var wire 32 &# regfile(5) [31:0] $end
    $var wire 32 '# regfile(6) [31:0] $end
    $var wire 32 (# regfile(7) [31:0] $end
    $var wire 32 )# regfile(8) [31:0] $end
    $var wire 32 *# regfile(9) [31:0] $end
    $var wire  1 u! regwrite $end
    $var wire  1 m% reset $end
    $var wire 32 '" rfilewdata [31:0] $end
    $var wire  1 /" trap $end
    $var wire  1 /" trapped $end
    $var wire 32 ?" x10 [31:0] $end
    $scope module alu_1 $end
     $var wire  5 m! alu_function [4:0] $end
     $var wire 32 ]! op_a [31:0] $end
     $var wire 32 ]! op_a_signed [31:0] $end
     $var wire 32 e! op_b [31:0] $end
     $var wire 32 e! op_b_signed [31:0] $end
     $var wire 32 U! result [31:0] $end
     $var wire  1 M! result_eq_zero $end
    $upscope $end
   $upscope $end
  $upscope $end
 $upscope $end
$enddefinitions $end


#5
b00000000000100000000001000010011 #
b00000000000000000000000000000000 +
03
b0000000 ;
b00001 C
b00000 K
b000 S
b00100 [
b0010011 c
b000000000001 k
b00000000000000000000000000000001 s
b00000000000000000000000000000001 {
b00000000000000000000000000000001 %!
b0000000000100 -!
b000000000100000000000 5!
b00000000000000000000000000000100 =!
b00000000000000000000100000000000 E!
0M!
b00000000000000000000000000000001 U!
b00000000000000000000000000000000 ]!
b00000000000000000000000000000001 e!
b00001 m!
1u!
b00000000000000000000000000000100 }!
b00000000000000000000000000000001 '"
0/"
b00000000000000000000000000000000 7"
b00000000000000000000000000000000 ?"
b00000 G"
b00000000000000000000000000000000 O"
b00000000000000000000000000000000 W"
b00000000000000000000000000000000 _"
b00000000000000000000000000000000 g"
b00000000000000000000000000000000 o"
b0000000 w"
b00000000000000000000000000000000 !#
b00000000000000000000000000000000 "#
b00000000000000000000000000000000 ##
b00000000000000000000000000000000 $#
b00000000000000000000000000000000 %#
b00000000000000000000000000000000 &#
b00000000000000000000000000000000 '#
b00000000000000000000000000000000 (#
b00000000000000000000000000000000 )#
b00000000000000000000000000000000 *#
b00000000000000000000000000000000 +#
b00000000000000000000000000000000 ,#
b00000000000000000000000000000000 -#
b00000000000000000000000000000000 .#
b00000000000000000000000000000000 /#
b00000000000000000000000000000000 0#
b00000000000000000000000000000000 1#
b00000000000000000000000000000000 2#
b00000000000000000000000000000000 3#
b00000000000000000000000000000000 4#
b00000000000000000000000000000000 5#
b00000000000000000000000000000000 6#
b00000000000000000000000000000000 7#
b00000000000000000000000000000000 8#
b00000000000000000000000000000000 9#
b00000000000000000000000000000000 :#
b00000000000000000000000000000000 ;#
b00000000000000000000000000000000 <#
b00000000000000000000000000000000 =#
b00000000000000000000000000000000 >#
b00000000000000000000000000000000 ?#
b00000000000000000000000000000000 @#
0e%
0m%
b00000000000000000000000000010000 u%
b00000000000000000000000000000000 }%
0'&
0/&
#10
#15
1m%
#20
#25
b00000000000000000000000000000001 +
b00100 G"
b0010011 w"
1e%
#30
#35
0e%
#40
#45
b00000000000000000000000000000010 +
1e%
#50
#55
0e%
0m%
#60
#65
b00000000000000000000010100010011 #
b00000000000000000000000000000011 +
b00000 C
b01010 [
b000000000000 k
b00000000000000000000000000000000 s
b00000000000000000000000000000000 {
b00000000000000000000000000000000 %!
b0000000001010 -!
b000000000000000000000 5!
b00000000000000000000000000001010 =!
b00000000000000000000000000000000 E!
1M!
b00000000000000000000000000000000 U!
b00000000000000000000000000000000 e!
b00000000000000000000000000001000 }!
b00000000000000000000000000000000 '"
b00000000000000000000000000000100 7"
b00000000000000000000000000000001 %#
1e%
#70
#75
0e%
#80
#85
b00000001010000000000000100010011 #
b00000000000000000000000000000100 +
b10100 C
b00010 [
b000000010100 k
b00000000000000000000000000010100 s
b00000000000000000000000000010100 {
b00000000000000000000000000010100 %!
b0000000000010 -!
b000000000000000010100 5!
b00000000000000000000000000000010 =!
b00000000000000000000000000010100 E!
0M!
b00000000000000000000000000010100 U!
b00000000000000000000000000010100 e!
b00000000000000000000000000001100 }!
b00000000000000000000000000010100 '"
b00000000000000000000000000001000 7"
b01010 G"
b00000000000000000000000000000001 o"
1e%
#90
#95
0e%
#100
#105
b00000000101000100000010100110011 #
b00000000000000000000000000000101 +
b01010 C
b00100 K
b01010 [
b0110011 c
b000000001010 k
b00000000000000000000000000001010 s
b00000000000000000000000000001010 {
b00000000000000000000000000001010 %!
b0000000001010 -!
b000100000000000001010 5!
b00000000000000000000000000001010 =!
b00000000000000100000000000001010 E!
b00000000000000000000000000000001 U!
b00000000000000000000000000000001 ]!
b00000000000000000000000000000000 e!
b00000000000000000000000000010000 }!
b00000000000000000000000000000001 '"
b00000000000000000000000000001100 7"
b00010 G"
b00000000000000000000000000010100 ##
1e%
#110
#115
0e%
#120
#125
b00000001000000000000000011101111 #
b00000000000000000000000000000110 +
b10000 C
b00000 K
b00001 [
b1101111 c
b000000010000 k
b00000000000000000000000000010000 s
b00000000000000000000000000010000 {
b00000000000000000000000000010000 %!
b0100000000000 -!
b000000000000000010000 5!
b00000000000000000000100000000000 =!
b00000000000000000000000000010000 E!
1M!
b00000000000000000000000000000000 U!
b00000000000000000000000000000000 ]!
0u!
b00000000000000000000000000100000 }!
b00000000000000000000000000010100 '"
b00000000000000000000000000010000 7"
b01010 G"
b00000000000000000000000000010100 _"
b0110011 w"
b00000000000000000000000000000001 +#
1e%
#130
#135
0e%
#140
#145
b00000000000100100000001000010011 #
b00000000000000000000000000000111 +
b00001 C
b00100 K
b00100 [
b0010011 c
b000000000001 k
b00000000000000000000000000000001 s
b00000000000000000000000000000001 {
b00000000000000000000000000000001 %!
b0000000000100 -!
b000100000100000000000 5!
b00000000000000000000000000000100 =!
b00000000000000100000100000000000 E!
0M!
b00000000000000000000000000000010 U!
b00000000000000000000000000000001 ]!
b00000000000000000000000000000001 e!
1u!
b00000000000000000000000000100100 }!
b00000000000000000000000000000010 '"
b00000000000000000000000000100000 7"
b00000000000000000000000000000001 ?"
b00001 G"
b1101111 w"
1e%
#150
#155
0e%
#160
#165
b00000000000000001000000001100111 #
b00000000000000000000000000001000 +
b00000 C
b00001 K
b00000 [
b1100111 c
b000000000000 k
b00000000000000000000000000000000 s
b00000000000000000000000000000000 {
b00000000000000000000000000000000 %!
b0000000000000 -!
b000001000000000000000 5!
b00000000000000000000000000000000 =!
b00000000000000001000000000000000 E!
1M!
b00000000000000000000000000000000 U!
b00000000000000000000000000000000 ]!
b00000000000000000000000000000000 e!
0u!
b00000000000000000000000000000000 }!
b00000000000000000000000000101000 '"
b00000000000000000000000000100100 7"
b00100 G"
b0010011 w"
b00000000000000000000000000000010 %#
1e%
#170
#175
0e%
#180
#185
b00000000000100000000001000010011 #
b00000000000000000000000000001001 +
b00001 C
b00000 K
b00100 [
b0010011 c
b000000000001 k
b00000000000000000000000000000001 s
b00000000000000000000000000000001 {
b00000000000000000000000000000001 %!
b0000000000100 -!
b000000000100000000000 5!
b00000000000000000000000000000100 =!
b00000000000000000000100000000000 E!
0M!
b00000000000000000000000000000001 U!
b00000000000000000000000000000001 e!
1u!
b00000000000000000000000000000100 }!
b00000000000000000000000000000001 '"
b00000000000000000000000000000000 7"
b00000 G"
b00000000000000000000000000000010 o"
b1100111 w"
1e%
#190
#195
0e%
#200
#205
b00000000000000000000010100010011 #
b00000000000000000000000000001010 +
b00000 C
b01010 [
b000000000000 k
b00000000000000000000000000000000 s
b00000000000000000000000000000000 {
b00000000000000000000000000000000 %!
b0000000001010 -!
b000000000000000000000 5!
b00000000000000000000000000001010 =!
b00000000000000000000000000000000 E!
1M!
b00000000000000000000000000000000 U!
b00000000000000000000000000000000 e!
b00000000000000000000000000001000 }!
b00000000000000000000000000000000 '"
b00000000000000000000000000000100 7"
b00100 G"
b0010011 w"
b00000000000000000000000000000001 %#
1e%
#210
#215
0e%
#220
#225
b00000001010000000000000100010011 #
b00000000000000000000000000001011 +
b10100 C
b00010 [
b000000010100 k
b00000000000000000000000000010100 s
b00000000000000000000000000010100 {
b00000000000000000000000000010100 %!
b0000000000010 -!
b000000000000000010100 5!
b00000000000000000000000000000010 =!
b00000000000000000000000000010100 E!
0M!
b00000000000000000000000000010100 U!
b00000000000000000000000000010100 e!
b00000000000000000000000000001100 }!
b00000000000000000000000000010100 '"
b00000000000000000000000000001000 7"
b01010 G"
b00000000000000000000000000000001 o"
b00000000000000000000000000000000 +#
1e%
#230
#235
0e%
#240
#245
b00000000101000100000010100110011 #
b00000000000000000000000000001100 +
b01010 C
b00100 K
b01010 [
b0110011 c
b000000001010 k
b00000000000000000000000000001010 s
b00000000000000000000000000001010 {
b00000000000000000000000000001010 %!
b0000000001010 -!
b000100000000000001010 5!
b00000000000000000000000000001010 =!
b00000000000000100000000000001010 E!
b00000000000000000000000000000001 U!
b00000000000000000000000000000001 ]!
b00000000000000000000000000000000 e!
b00000000000000000000000000010000 }!
b00000000000000000000000000000001 '"
b00000000000000000000000000001100 7"
b00000000000000000000000000000000 ?"
b00010 G"
1e%
#250
#255
0e%
#260
#265
b00000001000000000000000011101111 #
b00000000000000000000000000001101 +
b10000 C
b00000 K
b00001 [
b1101111 c
b000000010000 k
b00000000000000000000000000010000 s
b00000000000000000000000000010000 {
b00000000000000000000000000010000 %!
b0100000000000 -!
b000000000000000010000 5!
b00000000000000000000100000000000 =!
b00000000000000000000000000010000 E!
1M!
b00000000000000000000000000000000 U!
b00000000000000000000000000000000 ]!
0u!
b00000000000000000000000000100000 }!
b00000000000000000000000000010100 '"
b00000000000000000000000000010000 7"
b01010 G"
b0110011 w"
b00000000000000000000000000000001 +#
1e%
#270
#275
0e%
#280
#285
b00000000000100100000001000010011 #
b00000000000000000000000000001110 +
b00001 C
b00100 K
b00100 [
b0010011 c
b000000000001 k
b00000000000000000000000000000001 s
b00000000000000000000000000000001 {
b00000000000000000000000000000001 %!
b0000000000100 -!
b000100000100000000000 5!
b00000000000000000000000000000100 =!
b00000000000000100000100000000000 E!
0M!
b00000000000000000000000000000010 U!
b00000000000000000000000000000001 ]!
b00000000000000000000000000000001 e!
1u!
b00000000000000000000000000100100 }!
b00000000000000000000000000000010 '"
b00000000000000000000000000100000 7"
b00000000000000000000000000000001 ?"
b00001 G"
b1101111 w"
1e%
#290
#295
0e%
#300
#305
b00000000000000001000000001100111 #
b00000000000000000000000000001111 +
b00000 C
b00001 K
b00000 [
b1100111 c
b000000000000 k
b00000000000000000000000000000000 s
b00000000000000000000000000000000 {
b00000000000000000000000000000000 %!
b0000000000000 -!
b000001000000000000000 5!
b00000000000000000000000000000000 =!
b00000000000000001000000000000000 E!
1M!
b00000000000000000000000000000000 U!
b00000000000000000000000000000000 ]!
b00000000000000000000000000000000 e!
0u!
b00000000000000000000000000000000 }!
b00000000000000000000000000101000 '"
b00000000000000000000000000100100 7"
b00100 G"
b0010011 w"
b00000000000000000000000000000010 %#
1e%
#310
#315
0e%
#320
#325
b00000000000100000000001000010011 #
b00000000000000000000000000010000 +
b00001 C
b00000 K
b00100 [
b0010011 c
b000000000001 k
b00000000000000000000000000000001 s
b00000000000000000000000000000001 {
b00000000000000000000000000000001 %!
b0000000000100 -!
b000000000100000000000 5!
b00000000000000000000000000000100 =!
b00000000000000000000100000000000 E!
0M!
b00000000000000000000000000000001 U!
b00000000000000000000000000000001 e!
1u!
b00000000000000000000000000000100 }!
b00000000000000000000000000000001 '"
b00000000000000000000000000000000 7"
b00000 G"
b00000000000000000000000000000010 o"
b1100111 w"
1e%
#330
#335
0e%
#340
#345
b00000000000000000000010100010011 #
b00000000000000000000000000010001 +
b00000 C
b01010 [
b000000000000 k
b00000000000000000000000000000000 s
b00000000000000000000000000000000 {
b00000000000000000000000000000000 %!
b0000000001010 -!
b000000000000000000000 5!
b00000000000000000000000000001010 =!
b00000000000000000000000000000000 E!
1M!
b00000000000000000000000000000000 U!
b00000000000000000000000000000000 e!
b00000000000000000000000000001000 }!
b00000000000000000000000000000000 '"
b00000000000000000000000000000100 7"
b00100 G"
b0010011 w"
b00000000000000000000000000000001 %#
1e%
#350
#355
0e%
#360
#365
b00000001010000000000000100010011 #
b00000000000000000000000000010010 +
b10100 C
b00010 [
b000000010100 k
b00000000000000000000000000010100 s
b00000000000000000000000000010100 {
b00000000000000000000000000010100 %!
b0000000000010 -!
b000000000000000010100 5!
b00000000000000000000000000000010 =!
b00000000000000000000000000010100 E!
0M!
b00000000000000000000000000010100 U!
b00000000000000000000000000010100 e!
b00000000000000000000000000001100 }!
b00000000000000000000000000010100 '"
b00000000000000000000000000001000 7"
b01010 G"
b00000000000000000000000000000001 o"
b00000000000000000000000000000000 +#
1e%
#370
#375
0e%
#380
#385
b00000000101000100000010100110011 #
b00000000000000000000000000010011 +
b01010 C
b00100 K
b01010 [
b0110011 c
b000000001010 k
b00000000000000000000000000001010 s
b00000000000000000000000000001010 {
b00000000000000000000000000001010 %!
b0000000001010 -!
b000100000000000001010 5!
b00000000000000000000000000001010 =!
b00000000000000100000000000001010 E!
b00000000000000000000000000000001 U!
b00000000000000000000000000000001 ]!
b00000000000000000000000000000000 e!
b00000000000000000000000000010000 }!
b00000000000000000000000000000001 '"
b00000000000000000000000000001100 7"
b00000000000000000000000000000000 ?"
b00010 G"
1e%
#390
#395
0e%
#400
#405
b00000001000000000000000011101111 #
b00000000000000000000000000010100 +
b10000 C
b00000 K
b00001 [
b1101111 c
b000000010000 k
b00000000000000000000000000010000 s
b00000000000000000000000000010000 {
b00000000000000000000000000010000 %!
b0100000000000 -!
b000000000000000010000 5!
b00000000000000000000100000000000 =!
b00000000000000000000000000010000 E!
1M!
b00000000000000000000000000000000 U!
b00000000000000000000000000000000 ]!
0u!
b00000000000000000000000000100000 }!
b00000000000000000000000000010100 '"
b00000000000000000000000000010000 7"
b01010 G"
b0110011 w"
b00000000000000000000000000000001 +#
1e%
#410
#415
0e%
#420
#425
b00000000000100100000001000010011 #
b00000000000000000000000000010101 +
b00001 C
b00100 K
b00100 [
b0010011 c
b000000000001 k
b00000000000000000000000000000001 s
b00000000000000000000000000000001 {
b00000000000000000000000000000001 %!
b0000000000100 -!
b000100000100000000000 5!
b00000000000000000000000000000100 =!
b00000000000000100000100000000000 E!
0M!
b00000000000000000000000000000010 U!
b00000000000000000000000000000001 ]!
b00000000000000000000000000000001 e!
1u!
b00000000000000000000000000100100 }!
b00000000000000000000000000000010 '"
b00000000000000000000000000100000 7"
b00000000000000000000000000000001 ?"
b00001 G"
b1101111 w"
1e%
#430
#435
0e%
#440
#445
b00000000000000001000000001100111 #
b00000000000000000000000000010110 +
b00000 C
b00001 K
b00000 [
b1100111 c
b000000000000 k
b00000000000000000000000000000000 s
b00000000000000000000000000000000 {
b00000000000000000000000000000000 %!
b0000000000000 -!
b000001000000000000000 5!
b00000000000000000000000000000000 =!
b00000000000000001000000000000000 E!
1M!
b00000000000000000000000000000000 U!
b00000000000000000000000000000000 ]!
b00000000000000000000000000000000 e!
0u!
b00000000000000000000000000000000 }!
b00000000000000000000000000101000 '"
b00000000000000000000000000100100 7"
b00100 G"
b0010011 w"
b00000000000000000000000000000010 %#
1e%
#450
#455
0e%
#460
#465
b00000000000100000000001000010011 #
b00000000000000000000000000010111 +
b00001 C
b00000 K
b00100 [
b0010011 c
b000000000001 k
b00000000000000000000000000000001 s
b00000000000000000000000000000001 {
b00000000000000000000000000000001 %!
b0000000000100 -!
b000000000100000000000 5!
b00000000000000000000000000000100 =!
b00000000000000000000100000000000 E!
0M!
b00000000000000000000000000000001 U!
b00000000000000000000000000000001 e!
1u!
b00000000000000000000000000000100 }!
b00000000000000000000000000000001 '"
b00000000000000000000000000000000 7"
b00000 G"
b00000000000000000000000000000010 o"
b1100111 w"
1e%
#470
#475
0e%
#480
#485
b00000000000000000000010100010011 #
b00000000000000000000000000011000 +
b00000 C
b01010 [
b000000000000 k
b00000000000000000000000000000000 s
b00000000000000000000000000000000 {
b00000000000000000000000000000000 %!
b0000000001010 -!
b000000000000000000000 5!
b00000000000000000000000000001010 =!
b00000000000000000000000000000000 E!
1M!
b00000000000000000000000000000000 U!
b00000000000000000000000000000000 e!
b00000000000000000000000000001000 }!
b00000000000000000000000000000000 '"
b00000000000000000000000000000100 7"
b00100 G"
b0010011 w"
b00000000000000000000000000000001 %#
1e%
#490
#495
0e%
#500
#505
b00000001010000000000000100010011 #
b00000000000000000000000000011001 +
b10100 C
b00010 [
b000000010100 k
b00000000000000000000000000010100 s
b00000000000000000000000000010100 {
b00000000000000000000000000010100 %!
b0000000000010 -!
b000000000000000010100 5!
b00000000000000000000000000000010 =!
b00000000000000000000000000010100 E!
0M!
b00000000000000000000000000010100 U!
b00000000000000000000000000010100 e!
b00000000000000000000000000001100 }!
b00000000000000000000000000010100 '"
b00000000000000000000000000001000 7"
b01010 G"
b00000000000000000000000000000001 o"
b00000000000000000000000000000000 +#
1e%
#510
#515
0e%
#520
#525
b00000000101000100000010100110011 #
b00000000000000000000000000011010 +
b01010 C
b00100 K
b01010 [
b0110011 c
b000000001010 k
b00000000000000000000000000001010 s
b00000000000000000000000000001010 {
b00000000000000000000000000001010 %!
b0000000001010 -!
b000100000000000001010 5!
b00000000000000000000000000001010 =!
b00000000000000100000000000001010 E!
b00000000000000000000000000000001 U!
b00000000000000000000000000000001 ]!
b00000000000000000000000000000000 e!
b00000000000000000000000000010000 }!
b00000000000000000000000000000001 '"
b00000000000000000000000000001100 7"
b00000000000000000000000000000000 ?"
b00010 G"
1e%
#530
#535
0e%
#540
#545
b00000001000000000000000011101111 #
b00000000000000000000000000011011 +
b10000 C
b00000 K
b00001 [
b1101111 c
b000000010000 k
b00000000000000000000000000010000 s
b00000000000000000000000000010000 {
b00000000000000000000000000010000 %!
b0100000000000 -!
b000000000000000010000 5!
b00000000000000000000100000000000 =!
b00000000000000000000000000010000 E!
1M!
b00000000000000000000000000000000 U!
b00000000000000000000000000000000 ]!
0u!
b00000000000000000000000000100000 }!
b00000000000000000000000000010100 '"
b00000000000000000000000000010000 7"
b01010 G"
b0110011 w"
b00000000000000000000000000000001 +#
1e%
#550
#555
0e%
#560
#565
b00000000000100100000001000010011 #
b00000000000000000000000000011100 +
b00001 C
b00100 K
b00100 [
b0010011 c
b000000000001 k
b00000000000000000000000000000001 s
b00000000000000000000000000000001 {
b00000000000000000000000000000001 %!
b0000000000100 -!
b000100000100000000000 5!
b00000000000000000000000000000100 =!
b00000000000000100000100000000000 E!
0M!
b00000000000000000000000000000010 U!
b00000000000000000000000000000001 ]!
b00000000000000000000000000000001 e!
1u!
b00000000000000000000000000100100 }!
b00000000000000000000000000000010 '"
b00000000000000000000000000100000 7"
b00000000000000000000000000000001 ?"
b00001 G"
b1101111 w"
1e%
#570
#575
0e%
#580
#585
b00000000000000001000000001100111 #
b00000000000000000000000000011101 +
b00000 C
b00001 K
b00000 [
b1100111 c
b000000000000 k
b00000000000000000000000000000000 s
b00000000000000000000000000000000 {
b00000000000000000000000000000000 %!
b0000000000000 -!
b000001000000000000000 5!
b00000000000000000000000000000000 =!
b00000000000000001000000000000000 E!
1M!
b00000000000000000000000000000000 U!
b00000000000000000000000000000000 ]!
b00000000000000000000000000000000 e!
0u!
b00000000000000000000000000000000 }!
b00000000000000000000000000101000 '"
b00000000000000000000000000100100 7"
b00100 G"
b0010011 w"
b00000000000000000000000000000010 %#
1e%
#590
#595
0e%
#600
#605
b00000000000100000000001000010011 #
b00000000000000000000000000011110 +
b00001 C
b00000 K
b00100 [
b0010011 c
b000000000001 k
b00000000000000000000000000000001 s
b00000000000000000000000000000001 {
b00000000000000000000000000000001 %!
b0000000000100 -!
b000000000100000000000 5!
b00000000000000000000000000000100 =!
b00000000000000000000100000000000 E!
0M!
b00000000000000000000000000000001 U!
b00000000000000000000000000000001 e!
1u!
b00000000000000000000000000000100 }!
b00000000000000000000000000000001 '"
b00000000000000000000000000000000 7"
b00000 G"
b00000000000000000000000000000010 o"
b1100111 w"
1e%
#610
#615
0e%
#620
#625
b00000000000000000000010100010011 #
b00000000000000000000000000011111 +
b00000 C
b01010 [
b000000000000 k
b00000000000000000000000000000000 s
b00000000000000000000000000000000 {
b00000000000000000000000000000000 %!
b0000000001010 -!
b000000000000000000000 5!
b00000000000000000000000000001010 =!
b00000000000000000000000000000000 E!
1M!
b00000000000000000000000000000000 U!
b00000000000000000000000000000000 e!
b00000000000000000000000000001000 }!
b00000000000000000000000000000000 '"
b00000000000000000000000000000100 7"
b00100 G"
b0010011 w"
b00000000000000000000000000000001 %#
1e%
#630
#635
0e%
#640
#645
b00000001010000000000000100010011 #
b00000000000000000000000000100000 +
b10100 C
b00010 [
b000000010100 k
b00000000000000000000000000010100 s
b00000000000000000000000000010100 {
b00000000000000000000000000010100 %!
b0000000000010 -!
b000000000000000010100 5!
b00000000000000000000000000000010 =!
b00000000000000000000000000010100 E!
0M!
b00000000000000000000000000010100 U!
b00000000000000000000000000010100 e!
b00000000000000000000000000001100 }!
b00000000000000000000000000010100 '"
b00000000000000000000000000001000 7"
b01010 G"
b00000000000000000000000000000001 o"
b00000000000000000000000000000000 +#
1e%
#650
#655
0e%
#660
#665
b00000000101000100000010100110011 #
b00000000000000000000000000100001 +
b01010 C
b00100 K
b01010 [
b0110011 c
b000000001010 k
b00000000000000000000000000001010 s
b00000000000000000000000000001010 {
b00000000000000000000000000001010 %!
b0000000001010 -!
b000100000000000001010 5!
b00000000000000000000000000001010 =!
b00000000000000100000000000001010 E!
b00000000000000000000000000000001 U!
b00000000000000000000000000000001 ]!
b00000000000000000000000000000000 e!
b00000000000000000000000000010000 }!
b00000000000000000000000000000001 '"
b00000000000000000000000000001100 7"
b00000000000000000000000000000000 ?"
b00010 G"
1e%
#670
#675
0e%
#680
#685
b00000001000000000000000011101111 #
b00000000000000000000000000100010 +
b10000 C
b00000 K
b00001 [
b1101111 c
b000000010000 k
b00000000000000000000000000010000 s
b00000000000000000000000000010000 {
b00000000000000000000000000010000 %!
b0100000000000 -!
b000000000000000010000 5!
b00000000000000000000100000000000 =!
b00000000000000000000000000010000 E!
1M!
b00000000000000000000000000000000 U!
b00000000000000000000000000000000 ]!
0u!
b00000000000000000000000000100000 }!
b00000000000000000000000000010100 '"
b00000000000000000000000000010000 7"
b01010 G"
b0110011 w"
b00000000000000000000000000000001 +#
1e%
#690
#695
0e%
#700
#705
b00000000000100100000001000010011 #
b00000000000000000000000000100011 +
b00001 C
b00100 K
b00100 [
b0010011 c
b000000000001 k
b00000000000000000000000000000001 s
b00000000000000000000000000000001 {
b00000000000000000000000000000001 %!
b0000000000100 -!
b000100000100000000000 5!
b00000000000000000000000000000100 =!
b00000000000000100000100000000000 E!
0M!
b00000000000000000000000000000010 U!
b00000000000000000000000000000001 ]!
b00000000000000000000000000000001 e!
1u!
b00000000000000000000000000100100 }!
b00000000000000000000000000000010 '"
b00000000000000000000000000100000 7"
b00000000000000000000000000000001 ?"
b00001 G"
b1101111 w"
1e%
#710
#715
0e%
#720
#725
b00000000000000001000000001100111 #
b00000000000000000000000000100100 +
b00000 C
b00001 K
b00000 [
b1100111 c
b000000000000 k
b00000000000000000000000000000000 s
b00000000000000000000000000000000 {
b00000000000000000000000000000000 %!
b0000000000000 -!
b000001000000000000000 5!
b00000000000000000000000000000000 =!
b00000000000000001000000000000000 E!
1M!
b00000000000000000000000000000000 U!
b00000000000000000000000000000000 ]!
b00000000000000000000000000000000 e!
0u!
b00000000000000000000000000000000 }!
b00000000000000000000000000101000 '"
b00000000000000000000000000100100 7"
b00100 G"
b0010011 w"
b00000000000000000000000000000010 %#
1e%
#730
#735
0e%
#740
#745
b00000000000100000000001000010011 #
b00000000000000000000000000100101 +
b00001 C
b00000 K
b00100 [
b0010011 c
b000000000001 k
b00000000000000000000000000000001 s
b00000000000000000000000000000001 {
b00000000000000000000000000000001 %!
b0000000000100 -!
b000000000100000000000 5!
b00000000000000000000000000000100 =!
b00000000000000000000100000000000 E!
0M!
b00000000000000000000000000000001 U!
b00000000000000000000000000000001 e!
1u!
b00000000000000000000000000000100 }!
b00000000000000000000000000000001 '"
b00000000000000000000000000000000 7"
b00000 G"
b00000000000000000000000000000010 o"
b1100111 w"
1e%
#750
#755
0e%
#760
#765
b00000000000000000000010100010011 #
b00000000000000000000000000100110 +
b00000 C
b01010 [
b000000000000 k
b00000000000000000000000000000000 s
b00000000000000000000000000000000 {
b00000000000000000000000000000000 %!
b0000000001010 -!
b000000000000000000000 5!
b00000000000000000000000000001010 =!
b00000000000000000000000000000000 E!
1M!
b00000000000000000000000000000000 U!
b00000000000000000000000000000000 e!
b00000000000000000000000000001000 }!
b00000000000000000000000000000000 '"
b00000000000000000000000000000100 7"
b00100 G"
b0010011 w"
b00000000000000000000000000000001 %#
1e%
#770
#775
0e%
#780
#785
b00000001010000000000000100010011 #
b00000000000000000000000000100111 +
b10100 C
b00010 [
b000000010100 k
b00000000000000000000000000010100 s
b00000000000000000000000000010100 {
b00000000000000000000000000010100 %!
b0000000000010 -!
b000000000000000010100 5!
b00000000000000000000000000000010 =!
b00000000000000000000000000010100 E!
0M!
b00000000000000000000000000010100 U!
b00000000000000000000000000010100 e!
b00000000000000000000000000001100 }!
b00000000000000000000000000010100 '"
b00000000000000000000000000001000 7"
b01010 G"
b00000000000000000000000000000001 o"
b00000000000000000000000000000000 +#
1e%
#790
#795
0e%
#800
#805
b00000000101000100000010100110011 #
b00000000000000000000000000101000 +
b01010 C
b00100 K
b01010 [
b0110011 c
b000000001010 k
b00000000000000000000000000001010 s
b00000000000000000000000000001010 {
b00000000000000000000000000001010 %!
b0000000001010 -!
b000100000000000001010 5!
b00000000000000000000000000001010 =!
b00000000000000100000000000001010 E!
b00000000000000000000000000000001 U!
b00000000000000000000000000000001 ]!
b00000000000000000000000000000000 e!
b00000000000000000000000000010000 }!
b00000000000000000000000000000001 '"
b00000000000000000000000000001100 7"
b00000000000000000000000000000000 ?"
b00010 G"
1e%
#810
#815
0e%
#820
