lab3-brjmp/gtkwave.vcd
$version Generated by VerilatedVcd $end
$date Tue Sep 20 15:14:39 2022
 $end
$timescale   1ns $end

 $scope module TOP $end
  $var wire  1 ]% clock $end
  $var wire  1 e% reset $end
  $scope module testbench $end
   $var wire 32 m% MEM_ADDR_WIDTH [31:0] $end
   $var wire  1 ]% clock $end
   $var wire 32 + cycles [31:0] $end
   $var wire 32 /" imem_addr [31:0] $end
   $var wire 32 # imem_data [31:0] $end
   $var wire 32 u% out [31:0] $end
   $var wire  1 }% out_valid $end
   $var wire  1 e% reset $end
   $var wire  1 '" trap $end
   $var wire 32 7" x10 [31:0] $end
   $scope module dut $end
    $var wire  1 '& alu_eq $end
    $var wire  1 M! alu_eq_zero $end
    $var wire  5 m! alu_op [4:0] $end
    $var wire 32 ]! alu_op_a [31:0] $end
    $var wire 32 e! alu_op_b [31:0] $end
    $var wire 32 U! alu_result [31:0] $end
    $var wire  1 ]% clock $end
    $var wire  7 o" d_opcode [6:0] $end
    $var wire  5 ?" d_rd [4:0] $end
    $var wire 32 G" d_x0 [31:0] $end
    $var wire 32 O" d_x1 [31:0] $end
    $var wire 32 W" d_x2 [31:0] $end
    $var wire 32 _" d_x3 [31:0] $end
    $var wire 32 g" d_x4 [31:0] $end
    $var wire  1 3 illegalinsn $end
    $var wire 32 /" imem_addr [31:0] $end
    $var wire 32 # imem_data [31:0] $end
    $var wire 13 -! imm_b [12:0] $end
    $var wire 32 =! imm_b_sext [31:0] $end
    $var wire 12 k imm_i [11:0] $end
    $var wire 32 s imm_i_sext [31:0] $end
    $var wire 21 5! imm_j [20:0] $end
    $var wire 32 E! imm_j_sext [31:0] $end
    $var wire 32 { imm_shift [31:0] $end
    $var wire 32 %! imm_val [31:0] $end
    $var wire 32 # insn [31:0] $end
    $var wire  3 S insn_funct3 [2:0] $end
    $var wire  7 ; insn_funct7 [6:0] $end
    $var wire  7 c insn_opcode [6:0] $end
    $var wire  5 [ insn_rd [4:0] $end
    $var wire  5 K insn_rs1 [4:0] $end
    $var wire  5 C insn_rs2 [4:0] $end
    $var wire 32 }! npc [31:0] $end
    $var wire 32 /" pc [31:0] $end
    $var wire 32 w" regfile(0) [31:0] $end
    $var wire 32 x" regfile(1) [31:0] $end
    $var wire 32 ## regfile(10) [31:0] $end
    $var wire 32 $# regfile(11) [31:0] $end
    $var wire 32 %# regfile(12) [31:0] $end
    $var wire 32 &# regfile(13) [31:0] $end
    $var wire 32 '# regfile(14) [31:0] $end
    $var wire 32 (# regfile(15) [31:0] $end
    $var wire 32 )# regfile(16) [31:0] $end
    $var wire 32 *# regfile(17) [31:0] $end
    $var wire 32 +# regfile(18) [31:0] $end
    $var wire 32 ,# regfile(19) [31:0] $end
    $var wire 32 y" regfile(2) [31:0] $end
    $var wire 32 -# regfile(20) [31:0] $end
    $var wire 32 .# regfile(21) [31:0] $end
    $var wire 32 /# regfile(22) [31:0] $end
    $var wire 32 0# regfile(23) [31:0] $end
    $var wire 32 1# regfile(24) [31:0] $end
    $var wire 32 2# regfile(25) [31:0] $end
    $var wire 32 3# regfile(26) [31:0] $end
    $var wire 32 4# regfile(27) [31:0] $end
    $var wire 32 5# regfile(28) [31:0] $end
    $var wire 32 6# regfile(29) [31:0] $end
    $var wire 32 z" regfile(3) [31:0] $end
    $var wire 32 7# regfile(30) [31:0] $end
    $var wire 32 8# regfile(31) [31:0] $end
    $var wire 32 {" regfile(4) [31:0] $end
    $var wire 32 |" regfile(5) [31:0] $end
    $var wire 32 }" regfile(6) [31:0] $end
    $var wire 32 ~" regfile(7) [31:0] $end
    $var wire 32 !# regfile(8) [31:0] $end
    $var wire 32 "# regfile(9) [31:0] $end
    $var wire  1 u! regwrite $end
    $var wire  1 e% reset $end
    $var wire 32 U! rfilewdata [31:0] $end
    $var wire  1 '" trap $end
    $var wire  1 '" trapped $end
    $var wire 32 7" x10 [31:0] $end
    $scope module alu_1 $end
     $var wire  5 m! alu_function [4:0] $end
     $var wire 32 ]! op_a [31:0] $end
     $var wire 32 ]! op_a_signed [31:0] $end
     $var wire 32 e! op_b [31:0] $end
     $var wire 32 e! op_b_signed [31:0] $end
     $var wire 32 U! result [31:0] $end
     $var wire  1 M! result_eq_zero $end
    $upscope $end
   $upscope $end
  $upscope $end
 $upscope $end
$enddefinitions $end


#5
b00000000000100000000001000010011 #
b00000000000000000000000000000000 +
03
b0000000 ;
b00001 C
b00000 K
b000 S
b00100 [
b0010011 c
b000000000001 k
b00000000000000000000000000000001 s
b00000000000000000000000000000001 {
b00000000000000000000000000000001 %!
b0000000000100 -!
b000000000100000000000 5!
b00000000000000000000000000000100 =!
b00000000000000000000100000000000 E!
0M!
b00000000000000000000000000000001 U!
b00000000000000000000000000000000 ]!
b00000000000000000000000000000001 e!
b00001 m!
1u!
b00000000000000000000000000000100 }!
0'"
b00000000000000000000000000000000 /"
b00000000000000000000000000000000 7"
b00000 ?"
b00000000000000000000000000000000 G"
b00000000000000000000000000000000 O"
b00000000000000000000000000000000 W"
b00000000000000000000000000000000 _"
b00000000000000000000000000000000 g"
b0000000 o"
b00000000000000000000000000000000 w"
b00000000000000000000000000000000 x"
b00000000000000000000000000000000 y"
b00000000000000000000000000000000 z"
b00000000000000000000000000000000 {"
b00000000000000000000000000000000 |"
b00000000000000000000000000000000 }"
b00000000000000000000000000000000 ~"
b00000000000000000000000000000000 !#
b00000000000000000000000000000000 "#
b00000000000000000000000000000000 ##
b00000000000000000000000000000000 $#
b00000000000000000000000000000000 %#
b00000000000000000000000000000000 &#
b00000000000000000000000000000000 '#
b00000000000000000000000000000000 (#
b00000000000000000000000000000000 )#
b00000000000000000000000000000000 *#
b00000000000000000000000000000000 +#
b00000000000000000000000000000000 ,#
b00000000000000000000000000000000 -#
b00000000000000000000000000000000 .#
b00000000000000000000000000000000 /#
b00000000000000000000000000000000 0#
b00000000000000000000000000000000 1#
b00000000000000000000000000000000 2#
b00000000000000000000000000000000 3#
b00000000000000000000000000000000 4#
b00000000000000000000000000000000 5#
b00000000000000000000000000000000 6#
b00000000000000000000000000000000 7#
b00000000000000000000000000000000 8#
0]%
0e%
b00000000000000000000000000010000 m%
b00000000000000000000000000000000 u%
0}%
0'&
#10
#15
1e%
#20
#25
b00000000000000000000000000000001 +
b00100 ?"
b0010011 o"
1]%
#30
#35
0]%
#40
#45
b00000000000000000000000000000010 +
1]%
#50
#55
0]%
0e%
#60
#65
b00000000000000000000010100010011 #
b00000000000000000000000000000011 +
b00000 C
b01010 [
b000000000000 k
b00000000000000000000000000000000 s
b00000000000000000000000000000000 {
b00000000000000000000000000000000 %!
b0000000001010 -!
b000000000000000000000 5!
b00000000000000000000000000001010 =!
b00000000000000000000000000000000 E!
1M!
b00000000000000000000000000000000 U!
b00000000000000000000000000000000 e!
b00000000000000000000000000001000 }!
b00000000000000000000000000000100 /"
b00000000000000000000000000000001 {"
1]%
#70
#75
0]%
#80
#85
b00000001010000000000000100010011 #
b00000000000000000000000000000100 +
b10100 C
b00010 [
b000000010100 k
b00000000000000000000000000010100 s
b00000000000000000000000000010100 {
b00000000000000000000000000010100 %!
b0000000000010 -!
b000000000000000010100 5!
b00000000000000000000000000000010 =!
b00000000000000000000000000010100 E!
0M!
b00000000000000000000000000010100 U!
b00000000000000000000000000010100 e!
b00000000000000000000000000001100 }!
b00000000000000000000000000001000 /"
b01010 ?"
b00000000000000000000000000000001 g"
1]%
#90
#95
0]%
#100
#105
b00000000101000100000010100110011 #
b00000000000000000000000000000101 +
b01010 C
b00100 K
b01010 [
b0110011 c
b000000001010 k
b00000000000000000000000000001010 s
b00000000000000000000000000001010 {
b00000000000000000000000000001010 %!
b0000000001010 -!
b000100000000000001010 5!
b00000000000000000000000000001010 =!
b00000000000000100000000000001010 E!
b00000000000000000000000000000001 U!
b00000000000000000000000000000001 ]!
b00000000000000000000000000000000 e!
b00000000000000000000000000010000 }!
b00000000000000000000000000001100 /"
b00010 ?"
b00000000000000000000000000010100 y"
1]%
#110
#115
0]%
#120
#125
b00000000000100100000001000010011 #
b00000000000000000000000000000110 +
b00001 C
b00100 [
b0010011 c
b000000000001 k
b00000000000000000000000000000001 s
b00000000000000000000000000000001 {
b00000000000000000000000000000001 %!
b0000000000100 -!
b000100000100000000000 5!
b00000000000000000000000000000100 =!
b00000000000000100000100000000000 E!
b00000000000000000000000000000010 U!
b00000000000000000000000000000001 e!
b00000000000000000000000000010100 }!
b00000000000000000000000000010000 /"
b01010 ?"
b00000000000000000000000000010100 W"
b0110011 o"
b00000000000000000000000000000001 ##
1]%
#130
#135
0]%
#140
#145
b11111111111100010000000100010011 #
b00000000000000000000000000000111 +
b1111111 ;
b11111 C
b00010 K
b00010 [
b111111111111 k
b11111111111111111111111111111111 s
b00000000000000000000000000011111 {
b11111111111111111111111111111111 %!
b1011111100010 -!
b100010000111111111110 5!
b11111111111111111111011111100010 =!
b11111111111100010000111111111110 E!
b00000000000000000000000000010011 U!
b00000000000000000000000000010100 ]!
b11111111111111111111111111111111 e!
b00000000000000000000000000011000 }!
b00000000000000000000000000010100 /"
b00000000000000000000000000000001 7"
b00100 ?"
b0010011 o"
b00000000000000000000000000000010 {"
1]%
#150
#155
0]%
#160
#165
b11111110000000010001101011100011 #
b00000000000000000000000000001000 +
b00000 C
b001 S
b10101 [
b1100011 c
b111111100000 k
b11111111111111111111111111100000 s
b00000000000000000000000000000000 {
b11111111111111111111111111100000 %!
b1111111110100 -!
b100010001011111100000 5!
b11111111111111111111111111110100 =!
b11111111111100010001011111100000 E!
b00000000000000000000000000010011 ]!
b00000000000000000000000000000000 e!
b00010 m!
0u!
b00000000000000000000000000001100 }!
b00000000000000000000000000011000 /"
b00010 ?"
b00000000000000000000000000000010 g"
b00000000000000000000000000010011 y"
1]%
#170
#175
0]%
#180
#185
b00000000101000100000010100110011 #
b00000000000000000000000000001001 +
b0000000 ;
b01010 C
b00100 K
b000 S
b01010 [
b0110011 c
b000000001010 k
b00000000000000000000000000001010 s
b00000000000000000000000000001010 {
b00000000000000000000000000001010 %!
b0000000001010 -!
b000100000000000001010 5!
b00000000000000000000000000001010 =!
b00000000000000100000000000001010 E!
b00000000000000000000000000000011 U!
b00000000000000000000000000000010 ]!
b00000000000000000000000000000001 e!
b00001 m!
1u!
b00000000000000000000000000010000 }!
b00000000000000000000000000001100 /"
b10101 ?"
b00000000000000000000000000010011 W"
b1100011 o"
1]%
#190
#195
0]%
#200
#205
b00000000000100100000001000010011 #
b00000000000000000000000000001010 +
b00001 C
b00100 [
b0010011 c
b000000000001 k
b00000000000000000000000000000001 s
b00000000000000000000000000000001 {
b00000000000000000000000000000001 %!
b0000000000100 -!
b000100000100000000000 5!
b00000000000000000000000000000100 =!
b00000000000000100000100000000000 E!
b00000000000000000000000000010100 }!
b00000000000000000000000000010000 /"
b01010 ?"
b0110011 o"
b00000000000000000000000000000011 ##
1]%
#210
#215
0]%
#220
#225
b11111111111100010000000100010011 #
b00000000000000000000000000001011 +
b1111111 ;
b11111 C
b00010 K
b00010 [
b111111111111 k
b11111111111111111111111111111111 s
b00000000000000000000000000011111 {
b11111111111111111111111111111111 %!
b1011111100010 -!
b100010000111111111110 5!
b11111111111111111111011111100010 =!
b11111111111100010000111111111110 E!
b00000000000000000000000000010010 U!
b00000000000000000000000000010011 ]!
b11111111111111111111111111111111 e!
b00000000000000000000000000011000 }!
b00000000000000000000000000010100 /"
b00000000000000000000000000000011 7"
b00100 ?"
b0010011 o"
b00000000000000000000000000000011 {"
1]%
#230
#235
0]%
#240
#245
b11111110000000010001101011100011 #
b00000000000000000000000000001100 +
b00000 C
b001 S
b10101 [
b1100011 c
b111111100000 k
b11111111111111111111111111100000 s
b00000000000000000000000000000000 {
b11111111111111111111111111100000 %!
b1111111110100 -!
b100010001011111100000 5!
b11111111111111111111111111110100 =!
b11111111111100010001011111100000 E!
b00000000000000000000000000010010 ]!
b00000000000000000000000000000000 e!
b00010 m!
0u!
b00000000000000000000000000001100 }!
b00000000000000000000000000011000 /"
b00010 ?"
b00000000000000000000000000000011 g"
b00000000000000000000000000010010 y"
1]%
#250
#255
0]%
#260
#265
b00000000101000100000010100110011 #
b00000000000000000000000000001101 +
b0000000 ;
b01010 C
b00100 K
b000 S
b01010 [
b0110011 c
b000000001010 k
b00000000000000000000000000001010 s
b00000000000000000000000000001010 {
b00000000000000000000000000001010 %!
b0000000001010 -!
b000100000000000001010 5!
b00000000000000000000000000001010 =!
b00000000000000100000000000001010 E!
b00000000000000000000000000000110 U!
b00000000000000000000000000000011 ]!
b00000000000000000000000000000011 e!
b00001 m!
1u!
b00000000000000000000000000010000 }!
b00000000000000000000000000001100 /"
b10101 ?"
b00000000000000000000000000010010 W"
b1100011 o"
1]%
#270
#275
0]%
#280
#285
b00000000000100100000001000010011 #
b00000000000000000000000000001110 +
b00001 C
b00100 [
b0010011 c
b000000000001 k
b00000000000000000000000000000001 s
b00000000000000000000000000000001 {
b00000000000000000000000000000001 %!
b0000000000100 -!
b000100000100000000000 5!
b00000000000000000000000000000100 =!
b00000000000000100000100000000000 E!
b00000000000000000000000000000100 U!
b00000000000000000000000000000001 e!
b00000000000000000000000000010100 }!
b00000000000000000000000000010000 /"
b01010 ?"
b0110011 o"
b00000000000000000000000000000110 ##
1]%
#290
#295
0]%
#300
#305
b11111111111100010000000100010011 #
b00000000000000000000000000001111 +
b1111111 ;
b11111 C
b00010 K
b00010 [
b111111111111 k
b11111111111111111111111111111111 s
b00000000000000000000000000011111 {
b11111111111111111111111111111111 %!
b1011111100010 -!
b100010000111111111110 5!
b11111111111111111111011111100010 =!
b11111111111100010000111111111110 E!
b00000000000000000000000000010001 U!
b00000000000000000000000000010010 ]!
b11111111111111111111111111111111 e!
b00000000000000000000000000011000 }!
b00000000000000000000000000010100 /"
b00000000000000000000000000000110 7"
b00100 ?"
b0010011 o"
b00000000000000000000000000000100 {"
1]%
#310
#315
0]%
#320
#325
b11111110000000010001101011100011 #
b00000000000000000000000000010000 +
b00000 C
b001 S
b10101 [
b1100011 c
b111111100000 k
b11111111111111111111111111100000 s
b00000000000000000000000000000000 {
b11111111111111111111111111100000 %!
b1111111110100 -!
b100010001011111100000 5!
b11111111111111111111111111110100 =!
b11111111111100010001011111100000 E!
b00000000000000000000000000010001 ]!
b00000000000000000000000000000000 e!
b00010 m!
0u!
b00000000000000000000000000001100 }!
b00000000000000000000000000011000 /"
b00010 ?"
b00000000000000000000000000000100 g"
b00000000000000000000000000010001 y"
1]%
#330
#335
0]%
#340
#345
b00000000101000100000010100110011 #
b00000000000000000000000000010001 +
b0000000 ;
b01010 C
b00100 K
b000 S
b01010 [
b0110011 c
b000000001010 k
b00000000000000000000000000001010 s
b00000000000000000000000000001010 {
b00000000000000000000000000001010 %!
b0000000001010 -!
b000100000000000001010 5!
b00000000000000000000000000001010 =!
b00000000000000100000000000001010 E!
b00000000000000000000000000001010 U!
b00000000000000000000000000000100 ]!
b00000000000000000000000000000110 e!
b00001 m!
1u!
b00000000000000000000000000010000 }!
b00000000000000000000000000001100 /"
b10101 ?"
b00000000000000000000000000010001 W"
b1100011 o"
1]%
#350
#355
0]%
#360
#365
b00000000000100100000001000010011 #
b00000000000000000000000000010010 +
b00001 C
b00100 [
b0010011 c
b000000000001 k
b00000000000000000000000000000001 s
b00000000000000000000000000000001 {
b00000000000000000000000000000001 %!
b0000000000100 -!
b000100000100000000000 5!
b00000000000000000000000000000100 =!
b00000000000000100000100000000000 E!
b00000000000000000000000000000101 U!
b00000000000000000000000000000001 e!
b00000000000000000000000000010100 }!
b00000000000000000000000000010000 /"
b01010 ?"
b0110011 o"
b00000000000000000000000000001010 ##
1]%
#370
#375
0]%
#380
#385
b11111111111100010000000100010011 #
b00000000000000000000000000010011 +
b1111111 ;
b11111 C
b00010 K
b00010 [
b111111111111 k
b11111111111111111111111111111111 s
b00000000000000000000000000011111 {
b11111111111111111111111111111111 %!
b1011111100010 -!
b100010000111111111110 5!
b11111111111111111111011111100010 =!
b11111111111100010000111111111110 E!
b00000000000000000000000000010000 U!
b00000000000000000000000000010001 ]!
b11111111111111111111111111111111 e!
b00000000000000000000000000011000 }!
b00000000000000000000000000010100 /"
b00000000000000000000000000001010 7"
b00100 ?"
b0010011 o"
b00000000000000000000000000000101 {"
1]%
#390
#395
0]%
#400
#405
b11111110000000010001101011100011 #
b00000000000000000000000000010100 +
b00000 C
b001 S
b10101 [
b1100011 c
b111111100000 k
b11111111111111111111111111100000 s
b00000000000000000000000000000000 {
b11111111111111111111111111100000 %!
b1111111110100 -!
b100010001011111100000 5!
b11111111111111111111111111110100 =!
b11111111111100010001011111100000 E!
b00000000000000000000000000010000 ]!
b00000000000000000000000000000000 e!
b00010 m!
0u!
b00000000000000000000000000001100 }!
b00000000000000000000000000011000 /"
b00010 ?"
b00000000000000000000000000000101 g"
b00000000000000000000000000010000 y"
1]%
#410
#415
0]%
#420
#425
b00000000101000100000010100110011 #
b00000000000000000000000000010101 +
b0000000 ;
b01010 C
b00100 K
b000 S
b01010 [
b0110011 c
b000000001010 k
b00000000000000000000000000001010 s
b00000000000000000000000000001010 {
b00000000000000000000000000001010 %!
b0000000001010 -!
b000100000000000001010 5!
b00000000000000000000000000001010 =!
b00000000000000100000000000001010 E!
b00000000000000000000000000001111 U!
b00000000000000000000000000000101 ]!
b00000000000000000000000000001010 e!
b00001 m!
1u!
b00000000000000000000000000010000 }!
b00000000000000000000000000001100 /"
b10101 ?"
b00000000000000000000000000010000 W"
b1100011 o"
1]%
#430
#435
0]%
#440
#445
b00000000000100100000001000010011 #
b00000000000000000000000000010110 +
b00001 C
b00100 [
b0010011 c
b000000000001 k
b00000000000000000000000000000001 s
b00000000000000000000000000000001 {
b00000000000000000000000000000001 %!
b0000000000100 -!
b000100000100000000000 5!
b00000000000000000000000000000100 =!
b00000000000000100000100000000000 E!
b00000000000000000000000000000110 U!
b00000000000000000000000000000001 e!
b00000000000000000000000000010100 }!
b00000000000000000000000000010000 /"
b01010 ?"
b0110011 o"
b00000000000000000000000000001111 ##
1]%
#450
#455
0]%
#460
#465
b11111111111100010000000100010011 #
b00000000000000000000000000010111 +
b1111111 ;
b11111 C
b00010 K
b00010 [
b111111111111 k
b11111111111111111111111111111111 s
b00000000000000000000000000011111 {
b11111111111111111111111111111111 %!
b1011111100010 -!
b100010000111111111110 5!
b11111111111111111111011111100010 =!
b11111111111100010000111111111110 E!
b00000000000000000000000000001111 U!
b00000000000000000000000000010000 ]!
b11111111111111111111111111111111 e!
b00000000000000000000000000011000 }!
b00000000000000000000000000010100 /"
b00000000000000000000000000001111 7"
b00100 ?"
b0010011 o"
b00000000000000000000000000000110 {"
1]%
#470
#475
0]%
#480
#485
b11111110000000010001101011100011 #
b00000000000000000000000000011000 +
b00000 C
b001 S
b10101 [
b1100011 c
b111111100000 k
b11111111111111111111111111100000 s
b00000000000000000000000000000000 {
b11111111111111111111111111100000 %!
b1111111110100 -!
b100010001011111100000 5!
b11111111111111111111111111110100 =!
b11111111111100010001011111100000 E!
b00000000000000000000000000001111 ]!
b00000000000000000000000000000000 e!
b00010 m!
0u!
b00000000000000000000000000001100 }!
b00000000000000000000000000011000 /"
b00010 ?"
b00000000000000000000000000000110 g"
b00000000000000000000000000001111 y"
1]%
#490
#495
0]%
#500
#505
b00000000101000100000010100110011 #
b00000000000000000000000000011001 +
b0000000 ;
b01010 C
b00100 K
b000 S
b01010 [
b0110011 c
b000000001010 k
b00000000000000000000000000001010 s
b00000000000000000000000000001010 {
b00000000000000000000000000001010 %!
b0000000001010 -!
b000100000000000001010 5!
b00000000000000000000000000001010 =!
b00000000000000100000000000001010 E!
b00000000000000000000000000010101 U!
b00000000000000000000000000000110 ]!
b00000000000000000000000000001111 e!
b00001 m!
1u!
b00000000000000000000000000010000 }!
b00000000000000000000000000001100 /"
b10101 ?"
b00000000000000000000000000001111 W"
b1100011 o"
1]%
#510
#515
0]%
#520
#525
b00000000000100100000001000010011 #
b00000000000000000000000000011010 +
b00001 C
b00100 [
b0010011 c
b000000000001 k
b00000000000000000000000000000001 s
b00000000000000000000000000000001 {
b00000000000000000000000000000001 %!
b0000000000100 -!
b000100000100000000000 5!
b00000000000000000000000000000100 =!
b00000000000000100000100000000000 E!
b00000000000000000000000000000111 U!
b00000000000000000000000000000001 e!
b00000000000000000000000000010100 }!
b00000000000000000000000000010000 /"
b01010 ?"
b0110011 o"
b00000000000000000000000000010101 ##
1]%
#530
#535
0]%
#540
#545
b11111111111100010000000100010011 #
b00000000000000000000000000011011 +
b1111111 ;
b11111 C
b00010 K
b00010 [
b111111111111 k
b11111111111111111111111111111111 s
b00000000000000000000000000011111 {
b11111111111111111111111111111111 %!
b1011111100010 -!
b100010000111111111110 5!
b11111111111111111111011111100010 =!
b11111111111100010000111111111110 E!
b00000000000000000000000000001110 U!
b00000000000000000000000000001111 ]!
b11111111111111111111111111111111 e!
b00000000000000000000000000011000 }!
b00000000000000000000000000010100 /"
b00000000000000000000000000010101 7"
b00100 ?"
b0010011 o"
b00000000000000000000000000000111 {"
1]%
#550
#555
0]%
#560
#565
b11111110000000010001101011100011 #
b00000000000000000000000000011100 +
b00000 C
b001 S
b10101 [
b1100011 c
b111111100000 k
b11111111111111111111111111100000 s
b00000000000000000000000000000000 {
b11111111111111111111111111100000 %!
b1111111110100 -!
b100010001011111100000 5!
b11111111111111111111111111110100 =!
b11111111111100010001011111100000 E!
b00000000000000000000000000001110 ]!
b00000000000000000000000000000000 e!
b00010 m!
0u!
b00000000000000000000000000001100 }!
b00000000000000000000000000011000 /"
b00010 ?"
b00000000000000000000000000000111 g"
b00000000000000000000000000001110 y"
1]%
#570
#575
0]%
#580
#585
b00000000101000100000010100110011 #
b00000000000000000000000000011101 +
b0000000 ;
b01010 C
b00100 K
b000 S
b01010 [
b0110011 c
b000000001010 k
b00000000000000000000000000001010 s
b00000000000000000000000000001010 {
b00000000000000000000000000001010 %!
b0000000001010 -!
b000100000000000001010 5!
b00000000000000000000000000001010 =!
b00000000000000100000000000001010 E!
b00000000000000000000000000011100 U!
b00000000000000000000000000000111 ]!
b00000000000000000000000000010101 e!
b00001 m!
1u!
b00000000000000000000000000010000 }!
b00000000000000000000000000001100 /"
b10101 ?"
b00000000000000000000000000001110 W"
b1100011 o"
1]%
#590
#595
0]%
#600
#605
b00000000000100100000001000010011 #
b00000000000000000000000000011110 +
b00001 C
b00100 [
b0010011 c
b000000000001 k
b00000000000000000000000000000001 s
b00000000000000000000000000000001 {
b00000000000000000000000000000001 %!
b0000000000100 -!
b000100000100000000000 5!
b00000000000000000000000000000100 =!
b00000000000000100000100000000000 E!
b00000000000000000000000000001000 U!
b00000000000000000000000000000001 e!
b00000000000000000000000000010100 }!
b00000000000000000000000000010000 /"
b01010 ?"
b0110011 o"
b00000000000000000000000000011100 ##
1]%
#610
#615
0]%
#620
#625
b11111111111100010000000100010011 #
b00000000000000000000000000011111 +
b1111111 ;
b11111 C
b00010 K
b00010 [
b111111111111 k
b11111111111111111111111111111111 s
b00000000000000000000000000011111 {
b11111111111111111111111111111111 %!
b1011111100010 -!
b100010000111111111110 5!
b11111111111111111111011111100010 =!
b11111111111100010000111111111110 E!
b00000000000000000000000000001101 U!
b00000000000000000000000000001110 ]!
b11111111111111111111111111111111 e!
b00000000000000000000000000011000 }!
b00000000000000000000000000010100 /"
b00000000000000000000000000011100 7"
b00100 ?"
b0010011 o"
b00000000000000000000000000001000 {"
1]%
#630
#635
0]%
#640
#645
b11111110000000010001101011100011 #
b00000000000000000000000000100000 +
b00000 C
b001 S
b10101 [
b1100011 c
b111111100000 k
b11111111111111111111111111100000 s
b00000000000000000000000000000000 {
b11111111111111111111111111100000 %!
b1111111110100 -!
b100010001011111100000 5!
b11111111111111111111111111110100 =!
b11111111111100010001011111100000 E!
b00000000000000000000000000001101 ]!
b00000000000000000000000000000000 e!
b00010 m!
0u!
b00000000000000000000000000001100 }!
b00000000000000000000000000011000 /"
b00010 ?"
b00000000000000000000000000001000 g"
b00000000000000000000000000001101 y"
1]%
#650
#655
0]%
#660
#665
b00000000101000100000010100110011 #
b00000000000000000000000000100001 +
b0000000 ;
b01010 C
b00100 K
b000 S
b01010 [
b0110011 c
b000000001010 k
b00000000000000000000000000001010 s
b00000000000000000000000000001010 {
b00000000000000000000000000001010 %!
b0000000001010 -!
b000100000000000001010 5!
b00000000000000000000000000001010 =!
b00000000000000100000000000001010 E!
b00000000000000000000000000100100 U!
b00000000000000000000000000001000 ]!
b00000000000000000000000000011100 e!
b00001 m!
1u!
b00000000000000000000000000010000 }!
b00000000000000000000000000001100 /"
b10101 ?"
b00000000000000000000000000001101 W"
b1100011 o"
1]%
#670
#675
0]%
#680
#685
b00000000000100100000001000010011 #
b00000000000000000000000000100010 +
b00001 C
b00100 [
b0010011 c
b000000000001 k
b00000000000000000000000000000001 s
b00000000000000000000000000000001 {
b00000000000000000000000000000001 %!
b0000000000100 -!
b000100000100000000000 5!
b00000000000000000000000000000100 =!
b00000000000000100000100000000000 E!
b00000000000000000000000000001001 U!
b00000000000000000000000000000001 e!
b00000000000000000000000000010100 }!
b00000000000000000000000000010000 /"
b01010 ?"
b0110011 o"
b00000000000000000000000000100100 ##
1]%
#690
#695
0]%
#700
#705
b11111111111100010000000100010011 #
b00000000000000000000000000100011 +
b1111111 ;
b11111 C
b00010 K
b00010 [
b111111111111 k
b11111111111111111111111111111111 s
b00000000000000000000000000011111 {
b11111111111111111111111111111111 %!
b1011111100010 -!
b100010000111111111110 5!
b11111111111111111111011111100010 =!
b11111111111100010000111111111110 E!
b00000000000000000000000000001100 U!
b00000000000000000000000000001101 ]!
b11111111111111111111111111111111 e!
b00000000000000000000000000011000 }!
b00000000000000000000000000010100 /"
b00000000000000000000000000100100 7"
b00100 ?"
b0010011 o"
b00000000000000000000000000001001 {"
1]%
#710
#715
0]%
#720
#725
b11111110000000010001101011100011 #
b00000000000000000000000000100100 +
b00000 C
b001 S
b10101 [
b1100011 c
b111111100000 k
b11111111111111111111111111100000 s
b00000000000000000000000000000000 {
b11111111111111111111111111100000 %!
b1111111110100 -!
b100010001011111100000 5!
b11111111111111111111111111110100 =!
b11111111111100010001011111100000 E!
b00000000000000000000000000001100 ]!
b00000000000000000000000000000000 e!
b00010 m!
0u!
b00000000000000000000000000001100 }!
b00000000000000000000000000011000 /"
b00010 ?"
b00000000000000000000000000001001 g"
b00000000000000000000000000001100 y"
1]%
#730
#735
0]%
#740
#745
b00000000101000100000010100110011 #
b00000000000000000000000000100101 +
b0000000 ;
b01010 C
b00100 K
b000 S
b01010 [
b0110011 c
b000000001010 k
b00000000000000000000000000001010 s
b00000000000000000000000000001010 {
b00000000000000000000000000001010 %!
b0000000001010 -!
b000100000000000001010 5!
b00000000000000000000000000001010 =!
b00000000000000100000000000001010 E!
b00000000000000000000000000101101 U!
b00000000000000000000000000001001 ]!
b00000000000000000000000000100100 e!
b00001 m!
1u!
b00000000000000000000000000010000 }!
b00000000000000000000000000001100 /"
b10101 ?"
b00000000000000000000000000001100 W"
b1100011 o"
1]%
#750
#755
0]%
#760
#765
b00000000000100100000001000010011 #
b00000000000000000000000000100110 +
b00001 C
b00100 [
b0010011 c
b000000000001 k
b00000000000000000000000000000001 s
b00000000000000000000000000000001 {
b00000000000000000000000000000001 %!
b0000000000100 -!
b000100000100000000000 5!
b00000000000000000000000000000100 =!
b00000000000000100000100000000000 E!
b00000000000000000000000000001010 U!
b00000000000000000000000000000001 e!
b00000000000000000000000000010100 }!
b00000000000000000000000000010000 /"
b01010 ?"
b0110011 o"
b00000000000000000000000000101101 ##
1]%
#770
#775
0]%
#780
#785
b11111111111100010000000100010011 #
b00000000000000000000000000100111 +
b1111111 ;
b11111 C
b00010 K
b00010 [
b111111111111 k
b11111111111111111111111111111111 s
b00000000000000000000000000011111 {
b11111111111111111111111111111111 %!
b1011111100010 -!
b100010000111111111110 5!
b11111111111111111111011111100010 =!
b11111111111100010000111111111110 E!
b00000000000000000000000000001011 U!
b00000000000000000000000000001100 ]!
b11111111111111111111111111111111 e!
b00000000000000000000000000011000 }!
b00000000000000000000000000010100 /"
b00000000000000000000000000101101 7"
b00100 ?"
b0010011 o"
b00000000000000000000000000001010 {"
1]%
#790
#795
0]%
#800
#805
b11111110000000010001101011100011 #
b00000000000000000000000000101000 +
b00000 C
b001 S
b10101 [
b1100011 c
b111111100000 k
b11111111111111111111111111100000 s
b00000000000000000000000000000000 {
b11111111111111111111111111100000 %!
b1111111110100 -!
b100010001011111100000 5!
b11111111111111111111111111110100 =!
b11111111111100010001011111100000 E!
b00000000000000000000000000001011 ]!
b00000000000000000000000000000000 e!
b00010 m!
0u!
b00000000000000000000000000001100 }!
b00000000000000000000000000011000 /"
b00010 ?"
b00000000000000000000000000001010 g"
b00000000000000000000000000001011 y"
1]%
#810
#815
0]%
#820
#825
b00000000101000100000010100110011 #
b00000000000000000000000000101001 +
b0000000 ;
b01010 C
b00100 K
b000 S
b01010 [
b0110011 c
b000000001010 k
b00000000000000000000000000001010 s
b00000000000000000000000000001010 {
b00000000000000000000000000001010 %!
b0000000001010 -!
b000100000000000001010 5!
b00000000000000000000000000001010 =!
b00000000000000100000000000001010 E!
b00000000000000000000000000110111 U!
b00000000000000000000000000001010 ]!
b00000000000000000000000000101101 e!
b00001 m!
1u!
b00000000000000000000000000010000 }!
b00000000000000000000000000001100 /"
b10101 ?"
b00000000000000000000000000001011 W"
b1100011 o"
1]%
#830
#835
0]%
#840
