lab3-brjmp/gtkwave.vcd
$version Generated by VerilatedVcd $end
$date Tue Sep 20 15:15:59 2022
 $end
$timescale   1ns $end

 $scope module TOP $end
  $var wire  1 ]% clock $end
  $var wire  1 e% reset $end
  $scope module testbench $end
   $var wire 32 m% MEM_ADDR_WIDTH [31:0] $end
   $var wire  1 ]% clock $end
   $var wire 32 + cycles [31:0] $end
   $var wire 32 /" imem_addr [31:0] $end
   $var wire 32 # imem_data [31:0] $end
   $var wire 32 u% out [31:0] $end
   $var wire  1 }% out_valid $end
   $var wire  1 e% reset $end
   $var wire  1 '" trap $end
   $var wire 32 7" x10 [31:0] $end
   $scope module dut $end
    $var wire  1 '& alu_eq $end
    $var wire  1 M! alu_eq_zero $end
    $var wire  5 m! alu_op [4:0] $end
    $var wire 32 ]! alu_op_a [31:0] $end
    $var wire 32 e! alu_op_b [31:0] $end
    $var wire 32 U! alu_result [31:0] $end
    $var wire  1 ]% clock $end
    $var wire  7 o" d_opcode [6:0] $end
    $var wire  5 ?" d_rd [4:0] $end
    $var wire 32 G" d_x0 [31:0] $end
    $var wire 32 O" d_x1 [31:0] $end
    $var wire 32 W" d_x2 [31:0] $end
    $var wire 32 _" d_x3 [31:0] $end
    $var wire 32 g" d_x4 [31:0] $end
    $var wire  1 3 illegalinsn $end
    $var wire 32 /" imem_addr [31:0] $end
    $var wire 32 # imem_data [31:0] $end
    $var wire 13 -! imm_b [12:0] $end
    $var wire 32 =! imm_b_sext [31:0] $end
    $var wire 12 k imm_i [11:0] $end
    $var wire 32 s imm_i_sext [31:0] $end
    $var wire 21 5! imm_j [20:0] $end
    $var wire 32 E! imm_j_sext [31:0] $end
    $var wire 32 { imm_shift [31:0] $end
    $var wire 32 %! imm_val [31:0] $end
    $var wire 32 # insn [31:0] $end
    $var wire  3 S insn_funct3 [2:0] $end
    $var wire  7 ; insn_funct7 [6:0] $end
    $var wire  7 c insn_opcode [6:0] $end
    $var wire  5 [ insn_rd [4:0] $end
    $var wire  5 K insn_rs1 [4:0] $end
    $var wire  5 C insn_rs2 [4:0] $end
    $var wire 32 }! npc [31:0] $end
    $var wire 32 /" pc [31:0] $end
    $var wire 32 w" regfile(0) [31:0] $end
    $var wire 32 x" regfile(1) [31:0] $end
    $var wire 32 ## regfile(10) [31:0] $end
    $var wire 32 $# regfile(11) [31:0] $end
    $var wire 32 %# regfile(12) [31:0] $end
    $var wire 32 &# regfile(13) [31:0] $end
    $var wire 32 '# regfile(14) [31:0] $end
    $var wire 32 (# regfile(15) [31:0] $end
    $var wire 32 )# regfile(16) [31:0] $end
    $var wire 32 *# regfile(17) [31:0] $end
    $var wire 32 +# regfile(18) [31:0] $end
    $var wire 32 ,# regfile(19) [31:0] $end
    $var wire 32 y" regfile(2) [31:0] $end
    $var wire 32 -# regfile(20) [31:0] $end
    $var wire 32 .# regfile(21) [31:0] $end
    $var wire 32 /# regfile(22) [31:0] $end
    $var wire 32 0# regfile(23) [31:0] $end
    $var wire 32 1# regfile(24) [31:0] $end
    $var wire 32 2# regfile(25) [31:0] $end
    $var wire 32 3# regfile(26) [31:0] $end
    $var wire 32 4# regfile(27) [31:0] $end
    $var wire 32 5# regfile(28) [31:0] $end
    $var wire 32 6# regfile(29) [31:0] $end
    $var wire 32 z" regfile(3) [31:0] $end
    $var wire 32 7# regfile(30) [31:0] $end
    $var wire 32 8# regfile(31) [31:0] $end
    $var wire 32 {" regfile(4) [31:0] $end
    $var wire 32 |" regfile(5) [31:0] $end
    $var wire 32 }" regfile(6) [31:0] $end
    $var wire 32 ~" regfile(7) [31:0] $end
    $var wire 32 !# regfile(8) [31:0] $end
    $var wire 32 "# regfile(9) [31:0] $end
    $var wire  1 u! regwrite $end
    $var wire  1 e% reset $end
    $var wire 32 U! rfilewdata [31:0] $end
    $var wire  1 '" trap $end
    $var wire  1 '" trapped $end
    $var wire 32 7" x10 [31:0] $end
    $scope module alu_1 $end
     $var wire  5 m! alu_function [4:0] $end
     $var wire 32 ]! op_a [31:0] $end
     $var wire 32 ]! op_a_signed [31:0] $end
     $var wire 32 e! op_b [31:0] $end
     $var wire 32 e! op_b_signed [31:0] $end
     $var wire 32 U! result [31:0] $end
     $var wire  1 M! result_eq_zero $end
    $upscope $end
   $upscope $end
  $upscope $end
 $upscope $end
$enddefinitions $end


#5
b00001101000000000000010100010011 #
b00000000000000000000000000000000 +
03
b0000110 ;
b10000 C
b00000 K
b000 S
b01010 [
b0010011 c
b000011010000 k
b00000000000000000000000011010000 s
b00000000000000000000000000010000 {
b00000000000000000000000011010000 %!
b0000011001010 -!
b000000000000011010000 5!
b00000000000000000000000011001010 =!
b00000000000000000000000011010000 E!
0M!
b00000000000000000000000011010000 U!
b00000000000000000000000000000000 ]!
b00000000000000000000000011010000 e!
b00001 m!
1u!
b00000000000000000000000000000100 }!
0'"
b00000000000000000000000000000000 /"
b00000000000000000000000000000000 7"
b00000 ?"
b00000000000000000000000000000000 G"
b00000000000000000000000000000000 O"
b00000000000000000000000000000000 W"
b00000000000000000000000000000000 _"
b00000000000000000000000000000000 g"
b0000000 o"
b00000000000000000000000000000000 w"
b00000000000000000000000000000000 x"
b00000000000000000000000000000000 y"
b00000000000000000000000000000000 z"
b00000000000000000000000000000000 {"
b00000000000000000000000000000000 |"
b00000000000000000000000000000000 }"
b00000000000000000000000000000000 ~"
b00000000000000000000000000000000 !#
b00000000000000000000000000000000 "#
b00000000000000000000000000000000 ##
b00000000000000000000000000000000 $#
b00000000000000000000000000000000 %#
b00000000000000000000000000000000 &#
b00000000000000000000000000000000 '#
b00000000000000000000000000000000 (#
b00000000000000000000000000000000 )#
b00000000000000000000000000000000 *#
b00000000000000000000000000000000 +#
b00000000000000000000000000000000 ,#
b00000000000000000000000000000000 -#
b00000000000000000000000000000000 .#
b00000000000000000000000000000000 /#
b00000000000000000000000000000000 0#
b00000000000000000000000000000000 1#
b00000000000000000000000000000000 2#
b00000000000000000000000000000000 3#
b00000000000000000000000000000000 4#
b00000000000000000000000000000000 5#
b00000000000000000000000000000000 6#
b00000000000000000000000000000000 7#
b00000000000000000000000000000000 8#
0]%
0e%
b00000000000000000000000000010000 m%
b00000000000000000000000000000000 u%
0}%
0'&
#10
#15
1e%
#20
#25
b00000000000000000000000000000001 +
b01010 ?"
b0010011 o"
1]%
#30
#35
0]%
#40
#45
b00000000000000000000000000000010 +
1]%
#50
#55
0]%
0e%
#60
#65
b00000000001000000000000100010011 #
b00000000000000000000000000000011 +
b0000000 ;
b00010 C
b00010 [
b000000000010 k
b00000000000000000000000000000010 s
b00000000000000000000000000000010 {
b00000000000000000000000000000010 %!
b0000000000010 -!
b000000000000000000010 5!
b00000000000000000000000000000010 =!
b00000000000000000000000000000010 E!
b00000000000000000000000000000010 U!
b00000000000000000000000000000010 e!
b00000000000000000000000000001000 }!
b00000000000000000000000000000100 /"
b00000000000000000000000011010000 ##
1]%
#70
#75
0]%
#80
#85
b11111111111100010000000100010011 #
b00000000000000000000000000000100 +
b1111111 ;
b11111 C
b00010 K
b111111111111 k
b11111111111111111111111111111111 s
b00000000000000000000000000011111 {
b11111111111111111111111111111111 %!
b1011111100010 -!
b100010000111111111110 5!
b11111111111111111111011111100010 =!
b11111111111100010000111111111110 E!
b00000000000000000000000000000001 U!
b00000000000000000000000000000010 ]!
b11111111111111111111111111111111 e!
b00000000000000000000000000001100 }!
b00000000000000000000000000001000 /"
b00000000000000000000000011010000 7"
b00010 ?"
b00000000000000000000000000000010 y"
1]%
#90
#95
0]%
#100
#105
b00000000000101010000010100010011 #
b00000000000000000000000000000101 +
b0000000 ;
b00001 C
b01010 K
b01010 [
b000000000001 k
b00000000000000000000000000000001 s
b00000000000000000000000000000001 {
b00000000000000000000000000000001 %!
b0000000001010 -!
b001010000100000000000 5!
b00000000000000000000000000001010 =!
b00000000000001010000100000000000 E!
b00000000000000000000000011010001 U!
b00000000000000000000000011010000 ]!
b00000000000000000000000000000001 e!
b00000000000000000000000000010000 }!
b00000000000000000000000000001100 /"
b00000000000000000000000000000010 W"
b00000000000000000000000000000001 y"
1]%
#110
#115
0]%
#120
#125
b11111110000000010001110011100011 #
b00000000000000000000000000000110 +
b1111111 ;
b00000 C
b00010 K
b001 S
b11001 [
b1100011 c
b111111100000 k
b11111111111111111111111111100000 s
b00000000000000000000000000000000 {
b11111111111111111111111111100000 %!
b1111111111000 -!
b100010001011111100000 5!
b11111111111111111111111111111000 =!
b11111111111100010001011111100000 E!
b00000000000000000000000000000001 U!
b00000000000000000000000000000001 ]!
b00000000000000000000000000000000 e!
b00010 m!
0u!
b00000000000000000000000000001000 }!
b00000000000000000000000000010000 /"
b01010 ?"
b00000000000000000000000000000001 W"
b00000000000000000000000011010001 ##
1]%
#130
#135
0]%
#140
#145
b11111111111100010000000100010011 #
b00000000000000000000000000000111 +
b11111 C
b000 S
b00010 [
b0010011 c
b111111111111 k
b11111111111111111111111111111111 s
b00000000000000000000000000011111 {
b11111111111111111111111111111111 %!
b1011111100010 -!
b100010000111111111110 5!
b11111111111111111111011111100010 =!
b11111111111100010000111111111110 E!
1M!
b00000000000000000000000000000000 U!
b11111111111111111111111111111111 e!
b00001 m!
1u!
b00000000000000000000000000001100 }!
b00000000000000000000000000001000 /"
b00000000000000000000000011010001 7"
b11001 ?"
b1100011 o"
1]%
#150
#155
0]%
#160
#165
b00000000000101010000010100010011 #
b00000000000000000000000000001000 +
b0000000 ;
b00001 C
b01010 K
b01010 [
b000000000001 k
b00000000000000000000000000000001 s
b00000000000000000000000000000001 {
b00000000000000000000000000000001 %!
b0000000001010 -!
b001010000100000000000 5!
b00000000000000000000000000001010 =!
b00000000000001010000100000000000 E!
0M!
b00000000000000000000000011010010 U!
b00000000000000000000000011010001 ]!
b00000000000000000000000000000001 e!
b00000000000000000000000000010000 }!
b00000000000000000000000000001100 /"
b00010 ?"
b0010011 o"
b00000000000000000000000000000000 y"
1]%
#170
#175
0]%
#180
#185
b11111110000000010001110011100011 #
b00000000000000000000000000001001 +
b1111111 ;
b00000 C
b00010 K
b001 S
b11001 [
b1100011 c
b111111100000 k
b11111111111111111111111111100000 s
b00000000000000000000000000000000 {
b11111111111111111111111111100000 %!
b1111111111000 -!
b100010001011111100000 5!
b11111111111111111111111111111000 =!
b11111111111100010001011111100000 E!
1M!
b00000000000000000000000000000000 U!
b00000000000000000000000000000000 ]!
b00000000000000000000000000000000 e!
b00010 m!
0u!
b00000000000000000000000000010100 }!
b00000000000000000000000000010000 /"
b01010 ?"
b00000000000000000000000000000000 W"
b00000000000000000000000011010010 ##
1]%
#190
#195
0]%
#200
#205
b00000000000100000000000001110011 #
b00000000000000000000000000001010 +
13
b0000000 ;
b00001 C
b00000 K
b000 S
b00000 [
b1110011 c
b000000000001 k
b00000000000000000000000000000001 s
b00000000000000000000000000000001 {
b00000000000000000000000000000001 %!
b0000000000000 -!
b000000000100000000000 5!
b00000000000000000000000000000000 =!
b00000000000000000000100000000000 E!
b00000000000000000000000000011000 }!
b00000000000000000000000000010100 /"
b00000000000000000000000011010010 7"
b11001 ?"
b1100011 o"
1]%
#210
#215
0]%
#220
#225
b00000000000000000000000000000000 #
b00000000000000000000000000001011 +
03
b00000 C
b0000000 c
b000000000000 k
b00000000000000000000000000000000 s
b00000000000000000000000000000000 {
b00000000000000000000000000000000 %!
b000000000000000000000 5!
b00000000000000000000000000000000 E!
b00001 m!
b00000000000000000000000000011100 }!
1'"
b00000000000000000000000000011000 /"
b00000 ?"
b1110011 o"
1]%
