lab3-brjmp/gtkwave.vcd
$version Generated by VerilatedVcd $end
$date Wed Sep 21 12:40:52 2022
 $end
$timescale   1ns $end

 $scope module TOP $end
  $var wire  1 e% clock $end
  $var wire  1 m% reset $end
  $scope module testbench $end
   $var wire 32 u% MEM_ADDR_WIDTH [31:0] $end
   $var wire  1 e% clock $end
   $var wire 32 + cycles [31:0] $end
   $var wire 32 7" imem_addr [31:0] $end
   $var wire 32 # imem_data [31:0] $end
   $var wire 32 }% out [31:0] $end
   $var wire  1 '& out_valid $end
   $var wire  1 m% reset $end
   $var wire  1 /" trap $end
   $var wire 32 ?" x10 [31:0] $end
   $scope module dut $end
    $var wire  1 /& alu_eq $end
    $var wire  1 M! alu_eq_zero $end
    $var wire  5 m! alu_op [4:0] $end
    $var wire 32 ]! alu_op_a [31:0] $end
    $var wire 32 ]! alu_op_a_signed [31:0] $end
    $var wire 32 e! alu_op_b [31:0] $end
    $var wire 32 e! alu_op_b_signed [31:0] $end
    $var wire 32 U! alu_result [31:0] $end
    $var wire  1 e% clock $end
    $var wire  7 w" d_opcode [6:0] $end
    $var wire  5 G" d_rd [4:0] $end
    $var wire 32 O" d_x0 [31:0] $end
    $var wire 32 W" d_x1 [31:0] $end
    $var wire 32 _" d_x2 [31:0] $end
    $var wire 32 g" d_x3 [31:0] $end
    $var wire 32 o" d_x4 [31:0] $end
    $var wire  1 3 illegalinsn $end
    $var wire 32 7" imem_addr [31:0] $end
    $var wire 32 # imem_data [31:0] $end
    $var wire 13 -! imm_b [12:0] $end
    $var wire 32 =! imm_b_sext [31:0] $end
    $var wire 12 k imm_i [11:0] $end
    $var wire 32 s imm_i_sext [31:0] $end
    $var wire 21 5! imm_j [20:0] $end
    $var wire 32 E! imm_j_sext [31:0] $end
    $var wire 32 { imm_shift [31:0] $end
    $var wire 32 %! imm_val [31:0] $end
    $var wire 32 # insn [31:0] $end
    $var wire  3 S insn_funct3 [2:0] $end
    $var wire  7 ; insn_funct7 [6:0] $end
    $var wire  7 c insn_opcode [6:0] $end
    $var wire  5 [ insn_rd [4:0] $end
    $var wire  5 K insn_rs1 [4:0] $end
    $var wire  5 C insn_rs2 [4:0] $end
    $var wire 32 }! npc [31:0] $end
    $var wire 32 7" pc [31:0] $end
    $var wire 32 !# regfile(0) [31:0] $end
    $var wire 32 "# regfile(1) [31:0] $end
    $var wire 32 +# regfile(10) [31:0] $end
    $var wire 32 ,# regfile(11) [31:0] $end
    $var wire 32 -# regfile(12) [31:0] $end
    $var wire 32 .# regfile(13) [31:0] $end
    $var wire 32 /# regfile(14) [31:0] $end
    $var wire 32 0# regfile(15) [31:0] $end
    $var wire 32 1# regfile(16) [31:0] $end
    $var wire 32 2# regfile(17) [31:0] $end
    $var wire 32 3# regfile(18) [31:0] $end
    $var wire 32 4# regfile(19) [31:0] $end
    $var wire 32 ## regfile(2) [31:0] $end
    $var wire 32 5# regfile(20) [31:0] $end
    $var wire 32 6# regfile(21) [31:0] $end
    $var wire 32 7# regfile(22) [31:0] $end
    $var wire 32 8# regfile(23) [31:0] $end
    $var wire 32 9# regfile(24) [31:0] $end
    $var wire 32 :# regfile(25) [31:0] $end
    $var wire 32 ;# regfile(26) [31:0] $end
    $var wire 32 <# regfile(27) [31:0] $end
    $var wire 32 =# regfile(28) [31:0] $end
    $var wire 32 ># regfile(29) [31:0] $end
    $var wire 32 $# regfile(3) [31:0] $end
    $var wire 32 ?# regfile(30) [31:0] $end
    $var wire 32 @# regfile(31) [31:0] $end
    $var wire 32 %# regfile(4) [31:0] $end
    $var wire 32 &# regfile(5) [31:0] $end
    $var wire 32 '# regfile(6) [31:0] $end
    $var wire 32 (# regfile(7) [31:0] $end
    $var wire 32 )# regfile(8) [31:0] $end
    $var wire 32 *# regfile(9) [31:0] $end
    $var wire  1 u! regwrite $end
    $var wire  1 m% reset $end
    $var wire 32 '" rfilewdata [31:0] $end
    $var wire  1 /" trap $end
    $var wire  1 /" trapped $end
    $var wire 32 ?" x10 [31:0] $end
    $scope module alu_1 $end
     $var wire  5 m! alu_function [4:0] $end
     $var wire 32 ]! op_a [31:0] $end
     $var wire 32 ]! op_a_signed [31:0] $end
     $var wire 32 e! op_b [31:0] $end
     $var wire 32 e! op_b_signed [31:0] $end
     $var wire 32 U! result [31:0] $end
     $var wire  1 M! result_eq_zero $end
    $upscope $end
   $upscope $end
  $upscope $end
 $upscope $end
$enddefinitions $end


#5
b00000000110000000000000001101111 #
b00000000000000000000000000000000 +
03
b0000000 ;
b01100 C
b00000 K
b000 S
b00000 [
b1101111 c
b000000001100 k
b00000000000000000000000000001100 s
b00000000000000000000000000001100 {
b00000000000000000000000000001100 %!
b0000000000000 -!
b000000000000000001100 5!
b00000000000000000000000000000000 =!
b00000000000000000000000000001100 E!
1M!
b00000000000000000000000000000000 U!
b00000000000000000000000000000000 ]!
b00000000000000000000000000000000 e!
b00000 m!
1u!
b00000000000000000000000000001100 }!
b00000000000000000000000000000100 '"
0/"
b00000000000000000000000000000000 7"
b00000000000000000000000000000000 ?"
b00000 G"
b00000000000000000000000000000000 O"
b00000000000000000000000000000000 W"
b00000000000000000000000000000000 _"
b00000000000000000000000000000000 g"
b00000000000000000000000000000000 o"
b0000000 w"
b00000000000000000000000000000000 !#
b00000000000000000000000000000000 "#
b00000000000000000000000000000000 ##
b00000000000000000000000000000000 $#
b00000000000000000000000000000000 %#
b00000000000000000000000000000000 &#
b00000000000000000000000000000000 '#
b00000000000000000000000000000000 (#
b00000000000000000000000000000000 )#
b00000000000000000000000000000000 *#
b00000000000000000000000000000000 +#
b00000000000000000000000000000000 ,#
b00000000000000000000000000000000 -#
b00000000000000000000000000000000 .#
b00000000000000000000000000000000 /#
b00000000000000000000000000000000 0#
b00000000000000000000000000000000 1#
b00000000000000000000000000000000 2#
b00000000000000000000000000000000 3#
b00000000000000000000000000000000 4#
b00000000000000000000000000000000 5#
b00000000000000000000000000000000 6#
b00000000000000000000000000000000 7#
b00000000000000000000000000000000 8#
b00000000000000000000000000000000 9#
b00000000000000000000000000000000 :#
b00000000000000000000000000000000 ;#
b00000000000000000000000000000000 <#
b00000000000000000000000000000000 =#
b00000000000000000000000000000000 >#
b00000000000000000000000000000000 ?#
b00000000000000000000000000000000 @#
0e%
0m%
b00000000000000000000000000010000 u%
b00000000000000000000000000000000 }%
0'&
0/&
#10
#15
1m%
#20
#25
b00000000000000000000000000000001 +
b1101111 w"
1e%
#30
#35
0e%
#40
#45
b00000000000000000000000000000010 +
1e%
#50
#55
0e%
0m%
#60
#65
b00000000000100000000001000010011 #
b00000000000000000000000000000011 +
b00001 C
b00100 [
b0010011 c
b000000000001 k
b00000000000000000000000000000001 s
b00000000000000000000000000000001 {
b00000000000000000000000000000001 %!
b0000000000100 -!
b000000000100000000000 5!
b00000000000000000000000000000100 =!
b00000000000000000000100000000000 E!
0M!
b00000000000000000000000000000001 U!
b00000000000000000000000000000001 e!
b00001 m!
b00000000000000000000000000010000 }!
b00000000000000000000000000000001 '"
b00000000000000000000000000001100 7"
1e%
#70
#75
0e%
#80
#85
b00000000000000000000010100010011 #
b00000000000000000000000000000100 +
b00000 C
b01010 [
b000000000000 k
b00000000000000000000000000000000 s
b00000000000000000000000000000000 {
b00000000000000000000000000000000 %!
b0000000001010 -!
b000000000000000000000 5!
b00000000000000000000000000001010 =!
b00000000000000000000000000000000 E!
1M!
b00000000000000000000000000000000 U!
b00000000000000000000000000000000 e!
b00000000000000000000000000010100 }!
b00000000000000000000000000000000 '"
b00000000000000000000000000010000 7"
b00100 G"
b0010011 w"
b00000000000000000000000000000001 %#
1e%
#90
#95
0e%
#100
#105
b00000001010000000000000100010011 #
b00000000000000000000000000000101 +
b10100 C
b00010 [
b000000010100 k
b00000000000000000000000000010100 s
b00000000000000000000000000010100 {
b00000000000000000000000000010100 %!
b0000000000010 -!
b000000000000000010100 5!
b00000000000000000000000000000010 =!
b00000000000000000000000000010100 E!
0M!
b00000000000000000000000000010100 U!
b00000000000000000000000000010100 e!
b00000000000000000000000000011000 }!
b00000000000000000000000000010100 '"
b00000000000000000000000000010100 7"
b01010 G"
b00000000000000000000000000000001 o"
1e%
#110
#115
0e%
#120
#125
b00000000101000100000010100110011 #
b00000000000000000000000000000110 +
b01010 C
b00100 K
b01010 [
b0110011 c
b000000001010 k
b00000000000000000000000000001010 s
b00000000000000000000000000001010 {
b00000000000000000000000000001010 %!
b0000000001010 -!
b000100000000000001010 5!
b00000000000000000000000000001010 =!
b00000000000000100000000000001010 E!
b00000000000000000000000000000001 U!
b00000000000000000000000000000001 ]!
b00000000000000000000000000000000 e!
b00000000000000000000000000011100 }!
b00000000000000000000000000000001 '"
b00000000000000000000000000011000 7"
b00010 G"
b00000000000000000000000000010100 ##
1e%
#130
#135
0e%
#140
#145
b11111110100111111111000011101111 #
b00000000000000000000000000000111 +
b1111111 ;
b01001 C
b11111 K
b111 S
b00001 [
b1101111 c
b111111101001 k
b11111111111111111111111111101001 s
b00000000000000000000000000001001 {
b11111111111111111111111111101001 %!
b1111111100000 -!
b111111111111111101000 5!
b11111111111111111111111111100000 =!
b11111111111111111111111111101000 E!
1M!
b00000000000000000000000000000000 U!
b00000000000000000000000000000000 ]!
b00000000000000000000000000000100 }!
b00000000000000000000000000100000 '"
b00000000000000000000000000011100 7"
b01010 G"
b00000000000000000000000000010100 _"
b0110011 w"
b00000000000000000000000000000001 +#
1e%
#150
#155
0e%
#160
#165
b00000000000100100000001000010011 #
b00000000000000000000000000001000 +
b0000000 ;
b00001 C
b00100 K
b000 S
b00100 [
b0010011 c
b000000000001 k
b00000000000000000000000000000001 s
b00000000000000000000000000000001 {
b00000000000000000000000000000001 %!
b0000000000100 -!
b000100000100000000000 5!
b00000000000000000000000000000100 =!
b00000000000000100000100000000000 E!
0M!
b00000000000000000000000000000010 U!
b00000000000000000000000000000001 ]!
b00000000000000000000000000000001 e!
b00000000000000000000000000001000 }!
b00000000000000000000000000000010 '"
b00000000000000000000000000000100 7"
b00000000000000000000000000000001 ?"
b00001 G"
b1101111 w"
b00000000000000000000000000100000 "#
1e%
#170
#175
0e%
#180
#185
b00000000000000001000000001100111 #
b00000000000000000000000000001001 +
b00000 C
b00001 K
b00000 [
b1100111 c
b000000000000 k
b00000000000000000000000000000000 s
b00000000000000000000000000000000 {
b00000000000000000000000000000000 %!
b0000000000000 -!
b000001000000000000000 5!
b00000000000000000000000000000000 =!
b00000000000000001000000000000000 E!
b00000000000000000000000000100000 U!
b00000000000000000000000000100000 ]!
b00000000000000000000000000000000 e!
b00000000000000000000000000100000 }!
b00000000000000000000000000001100 '"
b00000000000000000000000000001000 7"
b00100 G"
b00000000000000000000000000100000 W"
b0010011 w"
b00000000000000000000000000000010 %#
1e%
#190
#195
0e%
#200
#205
b11111111111100010000000100010011 #
b00000000000000000000000000001010 +
b1111111 ;
b11111 C
b00010 K
b00010 [
b0010011 c
b111111111111 k
b11111111111111111111111111111111 s
b00000000000000000000000000011111 {
b11111111111111111111111111111111 %!
b1011111100010 -!
b100010000111111111110 5!
b11111111111111111111011111100010 =!
b11111111111100010000111111111110 E!
b00000000000000000000000000010011 U!
b00000000000000000000000000010100 ]!
b11111111111111111111111111111111 e!
b00000000000000000000000000100100 }!
b00000000000000000000000000010011 '"
b00000000000000000000000000100000 7"
b00000 G"
b00000000000000000000000000000010 o"
b1100111 w"
1e%
#210
#215
0e%
#220
#225
b11111110001000000100101011100011 #
b00000000000000000000000000001011 +
b00010 C
b00000 K
b100 S
b10101 [
b1100011 c
b111111100010 k
b11111111111111111111111111100010 s
b00000000000000000000000000000010 {
b11111111111111111111111111100010 %!
b1111111110100 -!
b100000100011111100010 5!
b11111111111111111111111111110100 =!
b11111111111100000100011111100010 E!
b00000000000000000000000000000001 U!
b00000000000000000000000000000000 ]!
b00000000000000000000000000010011 e!
b00111 m!
0u!
b00000000000000000000000000101000 }!
b00000000000000000000000000000001 '"
b00000000000000000000000000100100 7"
b00010 G"
b0010011 w"
b00000000000000000000000000010011 ##
1e%
#230
#235
0e%
#240
#245
b00000000000100000000000001110011 #
b00000000000000000000000000001100 +
13
b0000000 ;
b00001 C
b000 S
b00000 [
b1110011 c
b000000000001 k
b00000000000000000000000000000001 s
b00000000000000000000000000000001 {
b00000000000000000000000000000001 %!
b0000000000000 -!
b000000000100000000000 5!
b00000000000000000000000000000000 =!
b00000000000000000000100000000000 E!
b00000000000000000000000000100000 e!
b00000000000000000000000000101100 }!
b00000000000000000000000000101000 7"
b10101 G"
b00000000000000000000000000010011 _"
b1100011 w"
1e%
#250
#255
0e%
#260
#265
b00000000000000000000000000000000 #
b00000000000000000000000000001101 +
03
b00000 C
b0000000 c
b000000000000 k
b00000000000000000000000000000000 s
b00000000000000000000000000000000 {
b00000000000000000000000000000000 %!
b000000000000000000000 5!
b00000000000000000000000000000000 E!
1M!
b00000000000000000000000000000000 U!
b00000000000000000000000000000000 e!
b00001 m!
b00000000000000000000000000110000 }!
b00000000000000000000000000000000 '"
1/"
b00000000000000000000000000101100 7"
b00000 G"
b1110011 w"
1e%
